 ==================================================================
              SRIM version ---> SRIM-2013.00
              Calc. date   ---> June 23, 2022 
 ==================================================================

 Disk File Name = SRIM Outputs\Helium in Tungsten.txt

 Ion = Helium [2] , Mass = 4.003 amu

 Target Density =  1.9350E+01 g/cm3 = 6.3381E+22 atoms/cm3
 ======= Target  Composition ========
    Atom   Atom   Atomic    Mass     
    Name   Numb   Percent   Percent  
    ----   ----   -------   -------  
      W     74    100.00    100.00   
 ====================================
 Bragg Correction = 0.00%
 Stopping Units =  MeV / (mg/cm2) 
 See bottom of Table for other Stopping units 

        Ion        dE/dx      dE/dx     Projected  Longitudinal   Lateral
       Energy      Elec.      Nuclear     Range     Straggling   Straggling
  --------------  ---------- ---------- ----------  ----------  ----------
  10.00 keV   5.628E-02  7.786E-03     218 A       304 A       227 A   
  11.00 keV   5.909E-02  7.709E-03     239 A       323 A       242 A   
  12.00 keV   6.181E-02  7.628E-03     259 A       343 A       257 A   
  13.00 keV   6.444E-02  7.545E-03     280 A       361 A       271 A   
  14.00 keV   6.699E-02  7.460E-03     301 A       379 A       285 A   
  15.00 keV   6.948E-02  7.375E-03     321 A       396 A       299 A   
  16.00 keV   7.190E-02  7.289E-03     342 A       413 A       313 A   
  17.00 keV   7.426E-02  7.205E-03     363 A       430 A       326 A   
  18.00 keV   7.656E-02  7.121E-03     383 A       446 A       339 A   
  20.00 keV   8.103E-02  6.957E-03     425 A       477 A       364 A   
  22.50 keV   8.637E-02  6.760E-03     476 A       513 A       394 A   
  25.00 keV   9.147E-02  6.573E-03     528 A       548 A       423 A   
  27.50 keV   9.637E-02  6.396E-03     580 A       581 A       451 A   
  30.00 keV   1.011E-01  6.229E-03     631 A       612 A       478 A   
  32.50 keV   1.056E-01  6.070E-03     682 A       642 A       503 A   
  35.00 keV   1.100E-01  5.921E-03     733 A       671 A       528 A   
  37.50 keV   1.143E-01  5.779E-03     783 A       698 A       552 A   
  40.00 keV   1.185E-01  5.645E-03     834 A       724 A       575 A   
  45.00 keV   1.265E-01  5.398E-03     934 A       773 A       620 A   
  50.00 keV   1.340E-01  5.174E-03    1033 A       819 A       662 A   
  55.00 keV   1.413E-01  4.971E-03    1131 A       861 A       702 A   
  60.00 keV   1.482E-01  4.786E-03    1228 A       901 A       739 A   
  65.00 keV   1.549E-01  4.617E-03    1323 A       939 A       776 A   
  70.00 keV   1.613E-01  4.461E-03    1418 A       974 A       810 A   
  80.00 keV   1.734E-01  4.183E-03    1604 A      1038 A       875 A   
  90.00 keV   1.847E-01  3.944E-03    1785 A      1096 A       935 A   
 100.00 keV   1.953E-01  3.734E-03    1963 A      1149 A       991 A   
 110.00 keV   2.053E-01  3.549E-03    2137 A      1197 A      1043 A   
 120.00 keV   2.147E-01  3.385E-03    2308 A      1242 A      1092 A   
 130.00 keV   2.236E-01  3.237E-03    2475 A      1283 A      1139 A   
 140.00 keV   2.320E-01  3.104E-03    2640 A      1321 A      1183 A   
 150.00 keV   2.400E-01  2.982E-03    2801 A      1356 A      1225 A   
 160.00 keV   2.476E-01  2.872E-03    2960 A      1390 A      1265 A   
 170.00 keV   2.548E-01  2.770E-03    3117 A      1421 A      1303 A   
 180.00 keV   2.617E-01  2.677E-03    3272 A      1450 A      1339 A   
 200.00 keV   2.745E-01  2.510E-03    3575 A      1505 A      1408 A   
 225.00 keV   2.888E-01  2.332E-03    3944 A      1566 A      1488 A   
 250.00 keV   3.016E-01  2.181E-03    4303 A      1621 A      1561 A   
 275.00 keV   3.129E-01  2.051E-03    4654 A      1670 A      1629 A   
 300.00 keV   3.231E-01  1.938E-03    4998 A      1715 A      1693 A   
 325.00 keV   3.322E-01  1.837E-03    5336 A      1757 A      1754 A   
 350.00 keV   3.403E-01  1.748E-03    5669 A      1796 A      1811 A   
 375.00 keV   3.476E-01  1.669E-03    5997 A      1832 A      1865 A   
 400.00 keV   3.540E-01  1.597E-03    6321 A      1866 A      1918 A   
 450.00 keV   3.649E-01  1.472E-03    6961 A      1929 A      2016 A   
 500.00 keV   3.736E-01  1.368E-03    7591 A      1986 A      2108 A   
 550.00 keV   3.803E-01  1.278E-03    8214 A      2039 A      2194 A   
 600.00 keV   3.855E-01  1.201E-03    8832 A      2087 A      2277 A   
 650.00 keV   3.893E-01  1.134E-03    9447 A      2133 A      2356 A   
 700.00 keV   3.921E-01  1.075E-03    1.01 um     2176 A      2432 A   
 800.00 keV   3.951E-01  9.747E-04    1.13 um     2260 A      2577 A   
 900.00 keV   3.956E-01  8.933E-04    1.25 um     2337 A      2716 A   
   1.00 MeV   3.942E-01  8.257E-04    1.38 um     2409 A      2849 A   
   1.10 MeV   3.916E-01  7.685E-04    1.50 um     2479 A      2978 A   
   1.20 MeV   3.881E-01  7.194E-04    1.63 um     2545 A      3105 A   
   1.30 MeV   3.840E-01  6.768E-04    1.75 um     2610 A      3230 A   
   1.40 MeV   3.794E-01  6.394E-04    1.88 um     2673 A      3354 A   
   1.50 MeV   3.746E-01  6.063E-04    2.02 um     2735 A      3476 A   
   1.60 MeV   3.696E-01  5.767E-04    2.15 um     2796 A      3598 A   
   1.70 MeV   3.645E-01  5.502E-04    2.29 um     2856 A      3720 A   
   1.80 MeV   3.594E-01  5.262E-04    2.42 um     2916 A      3842 A   
   2.00 MeV   3.493E-01  4.845E-04    2.71 um     3047 A      4086 A   
   2.25 MeV   3.370E-01  4.415E-04    3.07 um     3219 A      4393 A   
   2.50 MeV   3.254E-01  4.061E-04    3.45 um     3390 A      4705 A   
   2.75 MeV   3.144E-01  3.764E-04    3.85 um     3562 A      5022 A   
   3.00 MeV   3.042E-01  3.510E-04    4.25 um     3736 A      5344 A   
   3.25 MeV   2.947E-01  3.291E-04    4.68 um     3912 A      5674 A   
   3.50 MeV   2.858E-01  3.100E-04    5.11 um     4091 A      6009 A   
   3.75 MeV   2.775E-01  2.932E-04    5.56 um     4272 A      6352 A   
   4.00 MeV   2.698E-01  2.782E-04    6.02 um     4455 A      6701 A   
   4.50 MeV   2.557E-01  2.527E-04    6.99 um     4922 A      7420 A   
   5.00 MeV   2.434E-01  2.318E-04    8.01 um     5394 A      8167 A   
   5.50 MeV   2.324E-01  2.143E-04    9.08 um     5873 A      8942 A   
   6.00 MeV   2.226E-01  1.995E-04   10.19 um     6358 A      9743 A   
   6.50 MeV   2.137E-01  1.867E-04   11.36 um     6852 A      1.06 um  
   7.00 MeV   2.058E-01  1.755E-04   12.57 um     7352 A      1.14 um  
   8.00 MeV   1.919E-01  1.571E-04   15.14 um     8748 A      1.32 um  
   9.00 MeV   1.820E-01  1.423E-04   17.87 um     1.01 um     1.51 um  
  10.00 MeV   1.724E-01  1.303E-04   20.75 um     1.15 um     1.70 um  
-----------------------------------------------------------
 Multiply Stopping by        for Stopping Units
 -------------------        ------------------
  1.9349E+02                 eV / Angstrom 
  1.9349E+03                keV / micron   
  1.9349E+03                MeV / mm       
  1.0000E+00                keV / (ug/cm2) 
  1.0000E+00                MeV / (mg/cm2) 
  1.0000E+03                keV / (mg/cm2) 
  3.0529E+02                 eV / (1E15 atoms/cm2)
  5.0146E+01                L.S.S. reduced units
 ==================================================================
 (C) 1984,1989,1992,1998,2008 by J.P. Biersack and J.F. Ziegler
