====== Ar (10) into Layer 1                     =======
        SRIM-2013.00
=======================================
    Energy transferred to RECOILS      
 See SRIM Outputs\TDATA.txt for calc. details 
=======================================
--------------------------------------------------------------------
    Recoil/Damage Calculations made with Kinchin-Pease Estimates    
--------------------------------------------------------------------
 See file: SRIM Outputs\TDATA.txt for data about the calculation
 Ion    = Ar   Energy = 4500 keV
============= TARGET MATERIAL ======================================
Layer  1 : Layer 1
Layer Width = 19450.E+00 AAA ;
  Layer # 1- Density = 8.481E22 atoms/cm3 = 7.865 g/cm3
  Layer # 1- Fe = 100  Atomic Percent = 100  Mass Percent
====================================================================
 Total Ions calculated =9999.00
===========================================================
  Table Energy Units are  >>>>  eV /(Angstrom-Ion)  <<<<  
===========================================================
   DEPTH       ENERGY       ENERGY    
   DEPTH        from        Absorbed  
   (Ang.)       IONS        by Recoils
----------   ------------  -----------
194510.E-03  1404.47E-02  1406.85E-02
389010.E-03  1499.79E-02  1502.39E-02
583510.E-03  1227.90E-02  1230.55E-02
778010.E-03  1333.15E-02  1335.88E-02
972510.E-03  1843.28E-02  1846.02E-02
116701.E-02  1649.53E-02  1652.32E-02
136151.E-02  1891.17E-02  1894.03E-02
155601.E-02  1540.10E-02  1542.96E-02
175051.E-02  1594.66E-02  1597.57E-02
194501.E-02  1786.54E-02  1789.49E-02
213951.E-02  1419.12E-02  1422.08E-02
233401.E-02  1897.72E-02  1900.75E-02
252851.E-02  1790.77E-02  1793.84E-02
272301.E-02  1779.31E-02  1782.46E-02
291751.E-02  1629.25E-02  1632.39E-02
311201.E-02  1682.54E-02  1685.71E-02
330651.E-02  1931.56E-02  1934.82E-02
350101.E-02  2045.64E-02  2048.98E-02
369551.E-02  1941.96E-02  1945.34E-02
389001.E-02  2343.80E-02  2347.19E-02
408451.E-02  2363.31E-02  2366.76E-02
427901.E-02  2198.71E-02  2202.23E-02
447351.E-02  2430.99E-02  2434.59E-02
466801.E-02  2028.19E-02  2031.81E-02
486251.E-02  2238.30E-02  2242.02E-02
505701.E-02  2329.03E-02  2332.79E-02
525151.E-02  2493.04E-02  2496.86E-02
544601.E-02  2754.09E-02  2758.00E-02
564051.E-02  2737.65E-02  2741.64E-02
583501.E-02  2638.94E-02  2643.01E-02
602951.E-02  2725.48E-02  2729.61E-02
622401.E-02  2611.74E-02  2615.95E-02
641851.E-02  3103.38E-02  3107.69E-02
661301.E-02  2752.26E-02  2756.72E-02
680751.E-02  2919.63E-02  2924.23E-02
700201.E-02  2933.76E-02  2938.47E-02
719651.E-02  3005.25E-02  3010.01E-02
739101.E-02  2969.61E-02  2974.45E-02
758551.E-02  3334.23E-02  3339.19E-02
778001.E-02  3136.78E-02  3141.91E-02
797451.E-02  3580.03E-02  3585.29E-02
816901.E-02  3758.64E-02  3763.96E-02
836351.E-02  3855.72E-02  3861.23E-02
855801.E-02  4043.75E-02  4049.39E-02
875251.E-02  3649.85E-02  3655.66E-02
894701.E-02  3691.14E-02  3697.10E-02
914151.E-02  4116.25E-02  4122.41E-02
933601.E-02  4720.11E-02  4726.39E-02
953051.E-02  4680.16E-02  4686.77E-02
972501.E-02  4610.49E-02  4617.20E-02
991951.E-02  5216.29E-02  5223.30E-02
101140.E-01  5209.32E-02  5216.44E-02
103085.E-01  5154.76E-02  5161.90E-02
105030.E-01  5335.00E-02  5342.27E-02
106975.E-01  5406.83E-02  5414.41E-02
108920.E-01  5887.03E-02  5894.74E-02
110865.E-01  6152.21E-02  6160.15E-02
112810.E-01  6090.06E-02  6098.30E-02
114755.E-01  5919.71E-02  5928.27E-02
116700.E-01  6698.54E-02  6707.35E-02
118645.E-01  6587.68E-02  6596.78E-02
120590.E-01  6701.59E-02  6711.06E-02
122535.E-01  7195.34E-02  7205.19E-02
124480.E-01  7327.19E-02  7337.47E-02
126425.E-01  7768.65E-02  7779.19E-02
128370.E-01  7713.38E-02  7724.23E-02
130315.E-01  7755.43E-02  7766.48E-02
132260.E-01  7649.97E-02  7661.18E-02
134205.E-01  7640.53E-02  7651.61E-02
136150.E-01  7517.56E-02  7528.67E-02
138095.E-01  7294.25E-02  7305.10E-02
140040.E-01  7012.32E-02  7022.99E-02
141985.E-01  6680.22E-02  6690.68E-02
143930.E-01  5991.21E-02  6000.96E-02
145875.E-01  5365.79E-02  5374.92E-02
147820.E-01  4804.37E-02  4812.36E-02
149765.E-01  3935.76E-02  3942.75E-02
151710.E-01  3373.25E-02  3379.34E-02
153655.E-01  2664.80E-02  2669.62E-02
155600.E-01  2019.17E-02  2022.85E-02
157545.E-01  1409.45E-02  1412.26E-02
159490.E-01  9259.00E-03  9278.26E-03
161435.E-01  5960.89E-03  5973.04E-03
163380.E-01  4305.23E-03  4313.98E-03
165325.E-01  2148.47E-03  2153.61E-03
167270.E-01  1256.53E-03  1259.26E-03
169215.E-01  4242.43E-04  4253.88E-04
171160.E-01  2297.37E-04  2302.75E-04
173105.E-01  6112.01E-05  6133.60E-05
175050.E-01  4507.29E-05  4516.24E-05
176995.E-01  0000.00E+00  0000.00E+00
178940.E-01  0000.00E+00  0000.00E+00
180885.E-01  0000.00E+00  0000.00E+00
182830.E-01  0000.00E+00  0000.00E+00
184775.E-01  0000.00E+00  0000.00E+00
186720.E-01  0000.00E+00  0000.00E+00
188665.E-01  0000.00E+00  0000.00E+00
190610.E-01  0000.00E+00  0000.00E+00
192555.E-01  0000.00E+00  0000.00E+00
194500.E-01  0000.00E+00  0000.00E+00
