====== Fe (10) into Layer 1                     =======
        SRIM-2013.00
=======================================
    Energy transferred to RECOILS      
 See SRIM Outputs\TDATA.txt for calc. details 
=======================================
--------------------------------------------------------------------
    Recoil/Damage Calculations made with Kinchin-Pease Estimates    
--------------------------------------------------------------------
 See file: SRIM Outputs\TDATA.txt for data about the calculation
 Ion    = Fe   Energy = 4500 keV
============= TARGET MATERIAL ======================================
Layer  1 : Layer 1
Layer Width = 19500.E+00 AAA ;
  Layer # 1- Density = 6.338E22 atoms/cm3 = 19.35 g/cm3
  Layer # 1-  W = 100  Atomic Percent = 100  Mass Percent
====================================================================
 Total Ions calculated =9999.00
===========================================================
  Table Energy Units are  >>>>  eV /(Angstrom-Ion)  <<<<  
===========================================================
   DEPTH       ENERGY       ENERGY    
   DEPTH        from        Absorbed  
   (Ang.)       IONS        by Recoils
----------   ------------  -----------
195010.E-03  5420.70E-02  5423.99E-02
390010.E-03  6024.05E-02  6027.65E-02
585010.E-03  6111.54E-02  6115.22E-02
780010.E-03  6116.49E-02  6120.27E-02
975010.E-03  6215.69E-02  6219.54E-02
117001.E-02  5621.22E-02  5625.17E-02
136501.E-02  6557.27E-02  6561.33E-02
156001.E-02  7025.18E-02  7029.25E-02
175501.E-02  7362.08E-02  7366.12E-02
195001.E-02  7105.49E-02  7109.51E-02
214501.E-02  7838.01E-02  7842.13E-02
234001.E-02  8503.09E-02  8507.32E-02
253501.E-02  8214.57E-02  8218.90E-02
273001.E-02  7907.68E-02  7912.08E-02
292501.E-02  7873.64E-02  7878.17E-02
312001.E-02  8623.66E-02  8628.36E-02
331501.E-02  9417.67E-02  9422.65E-02
351001.E-02  9103.86E-02  9109.02E-02
370501.E-02  9477.27E-02  9482.56E-02
390001.E-02  9895.57E-02  9900.89E-02
409501.E-02  1107.62E-01  1108.17E-01
429001.E-02  1020.02E-01  1020.58E-01
448501.E-02  1082.34E-01  1082.92E-01
468001.E-02  1103.58E-01  1104.17E-01
487501.E-02  1116.15E-01  1116.77E-01
507001.E-02  1179.13E-01  1179.75E-01
526501.E-02  1216.80E-01  1217.44E-01
546001.E-02  1209.00E-01  1209.69E-01
565501.E-02  1291.39E-01  1292.11E-01
585001.E-02  1314.60E-01  1315.32E-01
604501.E-02  1278.48E-01  1279.22E-01
624001.E-02  1347.68E-01  1348.44E-01
643501.E-02  1426.79E-01  1427.57E-01
663001.E-02  1499.32E-01  1500.14E-01
682501.E-02  1510.63E-01  1511.48E-01
702001.E-02  1520.51E-01  1521.35E-01
721501.E-02  1500.94E-01  1501.79E-01
741001.E-02  1448.53E-01  1449.38E-01
760501.E-02  1515.29E-01  1516.16E-01
780001.E-02  1491.94E-01  1492.82E-01
799501.E-02  1583.81E-01  1584.71E-01
819001.E-02  1509.31E-01  1510.22E-01
838501.E-02  1565.44E-01  1566.36E-01
858001.E-02  1545.25E-01  1546.17E-01
877501.E-02  1538.08E-01  1539.00E-01
897001.E-02  1518.09E-01  1519.03E-01
916501.E-02  1480.77E-01  1481.68E-01
936001.E-02  1479.34E-01  1480.27E-01
955501.E-02  1482.64E-01  1483.56E-01
975001.E-02  1373.11E-01  1373.97E-01
994501.E-02  1273.60E-01  1274.43E-01
101400.E-01  1288.64E-01  1289.44E-01
103350.E-01  1220.15E-01  1220.96E-01
105300.E-01  1192.74E-01  1193.50E-01
107250.E-01  1139.05E-01  1139.78E-01
109200.E-01  9816.38E-02  9823.16E-02
111150.E-01  9478.77E-02  9485.27E-02
113100.E-01  8776.02E-02  8782.03E-02
115050.E-01  8007.68E-02  8013.06E-02
117000.E-01  7100.82E-02  7105.82E-02
118950.E-01  6819.13E-02  6824.09E-02
120900.E-01  5833.15E-02  5837.48E-02
122850.E-01  5125.87E-02  5129.52E-02
124800.E-01  4016.31E-02  4019.47E-02
126750.E-01  3895.55E-02  3898.43E-02
128700.E-01  3004.30E-02  3006.58E-02
130650.E-01  2557.20E-02  2559.20E-02
132600.E-01  2001.04E-02  2002.68E-02
134550.E-01  1727.08E-02  1728.52E-02
136500.E-01  1397.80E-02  1399.06E-02
138450.E-01  1082.51E-02  1083.47E-02
140400.E-01  8300.40E-03  8307.78E-03
142350.E-01  6661.45E-03  6666.88E-03
144300.E-01  3706.71E-03  3710.44E-03
146250.E-01  2802.90E-03  2805.59E-03
148200.E-01  2645.27E-03  2647.41E-03
150150.E-01  1632.24E-03  1634.08E-03
152100.E-01  1647.79E-03  1649.33E-03
154050.E-01  1265.58E-03  1266.82E-03
156000.E-01  3553.78E-04  3558.34E-04
157950.E-01  4644.24E-04  4648.29E-04
159900.E-01  1134.37E-04  1135.72E-04
161850.E-01  7624.19E-05  7637.89E-05
163800.E-01  1179.46E-04  1180.65E-04
165750.E-01  2826.39E-05  2830.69E-05
167700.E-01  0000.00E+00  0000.00E+00
169650.E-01  0000.00E+00  0000.00E+00
171600.E-01  0000.00E+00  0000.00E+00
173550.E-01  0000.00E+00  0000.00E+00
175500.E-01  0000.00E+00  0000.00E+00
177450.E-01  0000.00E+00  0000.00E+00
179400.E-01  0000.00E+00  0000.00E+00
181350.E-01  0000.00E+00  0000.00E+00
183300.E-01  0000.00E+00  0000.00E+00
185250.E-01  0000.00E+00  0000.00E+00
187200.E-01  0000.00E+00  0000.00E+00
189150.E-01  0000.00E+00  0000.00E+00
191100.E-01  0000.00E+00  0000.00E+00
193050.E-01  0000.00E+00  0000.00E+00
195000.E-01  0000.00E+00  0000.00E+00
