====== Li (10) into Layer 1                     =======
        SRIM-2013.00
==================================================
      ION and final RECOIL ATOM Distributions     
 See  SRIM Outputs\TDATA.txt for calculation details
==================================================
--------------------------------------------------------------------
    Recoil/Damage Calculations made with Kinchin-Pease Estimates    
--------------------------------------------------------------------
----------------------------------------------------------------
  There are NO RECOILS unless a full TRIM calculation is made.   
----------------------------------------------------------------
See file :  SRIM Outputs\TDATA.txt   for details of calculation
 Ion    = Li   Energy = 1000  keV
============= TARGET MATERIAL ======================================
Layer  1 : Layer 1
Layer Width =     2.E+04 A   Layer # 1- Density = 8.481E22 atoms/cm3 = 7.865 g/cm3
  Layer # 1- Fe = 100  Atomic Percent = 100  Mass Percent
====================================================================
 Total Ions calculated =9999.00
 Ion Average Range =   133.9E+02 A   Straggling =   155.0E+01 A
 Ion Lateral Range =   180.1E+01 A   Straggling =   227.4E+01 A
 Ion Radial  Range =   281.2E+01 A   Straggling =   150.5E+01 A
====================================================================
 Transmitted Ions =;  Backscattered Ions =3
 (These are not included in Skewne- and Kurtosis below.)

 Range Skewne- = -001.7477  &= [-(X-Rp)^3]/[N*Straggle^3]
 Range Kurtosis = 009.1757  &= [-(X-Rp)^4]/[N*Straggle^4]
 Statistical definitions above are those used in VLSI implant modelling.
====================================================================
=================================================================
  Table Distribution Units are >>>  (Atoms/cm3) / (Atoms/cm2)  <<<  
=================================================================
   DEPTH         Li       Recoil     
   (Ang.)       Ions     Distribution
-----------  ----------  ------------
190010.E-03  0.0000E+00  0.0000E+00
380010.E-03  0.0000E+00  0.0000E+00
570010.E-03  0.0000E+00  0.0000E+00
760010.E-03  0.0000E+00  0.0000E+00
950010.E-03  5.2637E+01  0.0000E+00
114001.E-02  0.0000E+00  0.0000E+00
133001.E-02  5.2637E+01  0.0000E+00
152001.E-02  0.0000E+00  0.0000E+00
171001.E-02  5.2637E+01  0.0000E+00
190001.E-02  5.2637E+01  0.0000E+00
209001.E-02  0.0000E+00  0.0000E+00
228001.E-02  0.0000E+00  0.0000E+00
247001.E-02  5.2637E+01  0.0000E+00
266001.E-02  0.0000E+00  0.0000E+00
285001.E-02  0.0000E+00  0.0000E+00
304001.E-02  5.2637E+01  0.0000E+00
323001.E-02  5.2637E+01  0.0000E+00
342001.E-02  1.0527E+02  0.0000E+00
361001.E-02  5.2637E+01  0.0000E+00
380001.E-02  5.2637E+01  0.0000E+00
399001.E-02  5.2637E+01  0.0000E+00
418001.E-02  0.0000E+00  0.0000E+00
437001.E-02  1.0527E+02  0.0000E+00
456001.E-02  5.2637E+01  0.0000E+00
475001.E-02  2.1055E+02  0.0000E+00
494001.E-02  1.0527E+02  0.0000E+00
513001.E-02  1.5791E+02  0.0000E+00
532001.E-02  2.1055E+02  0.0000E+00
551001.E-02  2.1055E+02  0.0000E+00
570001.E-02  1.0527E+02  0.0000E+00
589001.E-02  2.1055E+02  0.0000E+00
608001.E-02  2.1055E+02  0.0000E+00
627001.E-02  3.6846E+02  0.0000E+00
646001.E-02  1.5791E+02  0.0000E+00
665001.E-02  1.0527E+02  0.0000E+00
684001.E-02  1.0527E+02  0.0000E+00
703001.E-02  1.0527E+02  0.0000E+00
722001.E-02  3.1582E+02  0.0000E+00
741001.E-02  2.1055E+02  0.0000E+00
760001.E-02  7.8955E+02  0.0000E+00
779001.E-02  5.7901E+02  0.0000E+00
798001.E-02  5.2637E+02  0.0000E+00
817001.E-02  7.3692E+02  0.0000E+00
836001.E-02  5.2637E+02  0.0000E+00
855001.E-02  9.4746E+02  0.0000E+00
874001.E-02  7.3692E+02  0.0000E+00
893001.E-02  8.4219E+02  0.0000E+00
912001.E-02  1.0527E+03  0.0000E+00
931001.E-02  1.1054E+03  0.0000E+00
950001.E-02  1.6317E+03  0.0000E+00
969001.E-02  1.5791E+03  0.0000E+00
988001.E-02  2.0002E+03  0.0000E+00
100700.E-01  1.4212E+03  0.0000E+00
102600.E-01  2.3160E+03  0.0000E+00
104500.E-01  2.3687E+03  0.0000E+00
106400.E-01  2.6318E+03  0.0000E+00
108300.E-01  4.3689E+03  0.0000E+00
110200.E-01  4.5794E+03  0.0000E+00
112100.E-01  5.6321E+03  0.0000E+00
114000.E-01  6.8428E+03  0.0000E+00
115900.E-01  7.4218E+03  0.0000E+00
117800.E-01  8.1587E+03  0.0000E+00
119700.E-01  9.0009E+03  0.0000E+00
121600.E-01  1.2159E+04  0.0000E+00
123500.E-01  1.4949E+04  0.0000E+00
125400.E-01  1.6423E+04  0.0000E+00
127300.E-01  1.7581E+04  0.0000E+00
129200.E-01  2.2844E+04  0.0000E+00
131100.E-01  2.4108E+04  0.0000E+00
133000.E-01  2.6845E+04  0.0000E+00
134900.E-01  2.8792E+04  0.0000E+00
136800.E-01  2.9056E+04  0.0000E+00
138700.E-01  3.3793E+04  0.0000E+00
140600.E-01  3.4372E+04  0.0000E+00
142500.E-01  3.3951E+04  0.0000E+00
144400.E-01  3.3319E+04  0.0000E+00
146300.E-01  2.9477E+04  0.0000E+00
148200.E-01  2.6424E+04  0.0000E+00
150100.E-01  2.0371E+04  0.0000E+00
152000.E-01  1.7897E+04  0.0000E+00
153900.E-01  1.2528E+04  0.0000E+00
155800.E-01  8.9483E+03  0.0000E+00
157700.E-01  5.2110E+03  0.0000E+00
159600.E-01  2.2107E+03  0.0000E+00
161500.E-01  1.8423E+03  0.0000E+00
163400.E-01  6.3164E+02  0.0000E+00
165300.E-01  6.3164E+02  0.0000E+00
167200.E-01  2.6318E+02  0.0000E+00
169100.E-01  1.0527E+02  0.0000E+00
171000.E-01  5.2637E+01  0.0000E+00
172900.E-01  0.0000E+00  0.0000E+00
174800.E-01  0.0000E+00  0.0000E+00
176700.E-01  0.0000E+00  0.0000E+00
178600.E-01  0.0000E+00  0.0000E+00
180500.E-01  0.0000E+00  0.0000E+00
182400.E-01  0.0000E+00  0.0000E+00
184300.E-01  0.0000E+00  0.0000E+00
186200.E-01  0.0000E+00  0.0000E+00
188100.E-01  0.0000E+00  0.0000E+00
190000.E-01  0.0000E+00  0.0000E+00
