====== O (650) into Layer 1                     =======
        SRIM-2013.00
=======================================
    Energy transferred to RECOILS      
 See SRIM Outputs\TDATA.txt for calc. details 
=======================================
--------------------------------------------------------------------
    Recoil/Damage Calculations made with Kinchin-Pease Estimates    
--------------------------------------------------------------------
 See file: SRIM Outputs\TDATA.txt for data about the calculation
 Ion    =  O   Energy = 2500 keV
============= TARGET MATERIAL ======================================
Layer  1 : Layer 1
Layer Width = 17411.E+00 AAA ;
  Layer # 1- Density = 8.481E22 atoms/cm3 = 7.865 g/cm3
  Layer # 1- Fe = 100  Atomic Percent = 100  Mass Percent
====================================================================
 Total Ions calculated =9999.00
===========================================================
  Table Energy Units are  >>>>  eV /(Angstrom-Ion)  <<<<  
===========================================================
   DEPTH       ENERGY       ENERGY    
   DEPTH        from        Absorbed  
   (Ang.)       IONS        by Recoils
----------   ------------  -----------
174120.E-03  2505.31E-03  2511.19E-03
348230.E-03  2534.83E-03  2542.79E-03
522340.E-03  2688.97E-03  2696.96E-03
696450.E-03  1889.85E-03  1898.11E-03
870560.E-03  3533.99E-03  3542.27E-03
104467.E-02  2505.34E-03  2513.95E-03
121878.E-02  2649.22E-03  2657.70E-03
139289.E-02  3590.14E-03  3598.89E-03
156700.E-02  2682.80E-03  2691.75E-03
174111.E-02  2908.20E-03  2917.46E-03
191522.E-02  3239.93E-03  3249.36E-03
208933.E-02  3864.06E-03  3873.63E-03
226344.E-02  4217.02E-03  4226.73E-03
243755.E-02  3292.05E-03  3301.90E-03
261166.E-02  4020.44E-03  4030.47E-03
278577.E-02  2908.08E-03  2918.30E-03
295988.E-02  2915.20E-03  2925.60E-03
313399.E-02  3022.61E-03  3033.26E-03
330810.E-02  4234.56E-03  4245.55E-03
348221.E-02  3012.77E-03  3023.79E-03
365632.E-02  3586.18E-03  3597.47E-03
383043.E-02  4130.07E-03  4141.90E-03
400454.E-02  3397.89E-03  3409.85E-03
417865.E-02  4521.09E-03  4533.09E-03
435276.E-02  3756.18E-03  3768.46E-03
452687.E-02  4324.83E-03  4337.31E-03
470098.E-02  4127.02E-03  4139.84E-03
487509.E-02  4130.29E-03  4143.43E-03
504920.E-02  3916.04E-03  3929.75E-03
522331.E-02  3448.84E-03  3462.80E-03
539742.E-02  4806.90E-03  4821.19E-03
557153.E-02  3935.94E-03  3950.64E-03
574564.E-02  5415.56E-03  5430.35E-03
591975.E-02  5317.24E-03  5332.96E-03
609386.E-02  4883.86E-03  4899.59E-03
626797.E-02  5097.31E-03  5113.65E-03
644208.E-02  5955.12E-03  5972.14E-03
661619.E-02  5745.38E-03  5763.07E-03
679030.E-02  5648.57E-03  5666.36E-03
696441.E-02  6747.84E-03  6766.02E-03
713852.E-02  5471.88E-03  5490.81E-03
731263.E-02  6530.54E-03  6549.93E-03
748674.E-02  6736.73E-03  6756.89E-03
766085.E-02  7533.63E-03  7554.82E-03
783496.E-02  7179.76E-03  7201.65E-03
800907.E-02  7490.61E-03  7513.53E-03
818318.E-02  7364.96E-03  7388.69E-03
835729.E-02  8097.44E-03  8122.18E-03
853140.E-02  8461.59E-03  8487.33E-03
870551.E-02  9687.88E-03  9715.16E-03
887962.E-02  9491.66E-03  9520.46E-03
905373.E-02  9436.45E-03  9466.21E-03
922784.E-02  1104.67E-02  1107.83E-02
940195.E-02  1115.83E-02  1119.20E-02
957606.E-02  1193.02E-02  1196.44E-02
975017.E-02  1185.97E-02  1189.53E-02
992428.E-02  1315.17E-02  1319.05E-02
100984.E-01  1433.38E-02  1437.53E-02
102725.E-01  1488.82E-02  1493.23E-02
104466.E-01  1504.09E-02  1508.66E-02
106207.E-01  1575.96E-02  1580.83E-02
107948.E-01  1719.13E-02  1724.36E-02
109689.E-01  1792.28E-02  1797.95E-02
111431.E-01  1858.58E-02  1864.51E-02
113172.E-01  1963.43E-02  1969.62E-02
114913.E-01  2002.68E-02  2009.27E-02
116654.E-01  2145.86E-02  2152.77E-02
118395.E-01  2132.54E-02  2139.86E-02
120136.E-01  2261.26E-02  2268.91E-02
121877.E-01  2375.17E-02  2383.20E-02
123618.E-01  2333.90E-02  2342.29E-02
125359.E-01  2374.05E-02  2382.45E-02
127100.E-01  2134.14E-02  2142.04E-02
128841.E-01  2066.65E-02  2074.68E-02
130583.E-01  1918.15E-02  1925.73E-02
132324.E-01  1696.09E-02  1702.89E-02
134065.E-01  1364.28E-02  1370.18E-02
135806.E-01  1122.52E-02  1127.47E-02
137547.E-01  8557.44E-03  8596.70E-03
139288.E-01  6384.64E-03  6415.01E-03
141029.E-01  4582.05E-03  4605.38E-03
142770.E-01  2992.61E-03  3007.85E-03
144511.E-01  1844.23E-03  1854.58E-03
146253.E-01  9498.47E-04  9549.66E-04
147994.E-01  4191.68E-04  4216.78E-04
149735.E-01  2270.68E-04  2285.21E-04
151476.E-01  8496.64E-05  8550.40E-05
153217.E-01  2661.45E-05  2680.57E-05
154958.E-01  1834.91E-05  1847.32E-05
156699.E-01  3869.35E-06  3890.03E-06
158440.E-01  0000.00E+00  0000.00E+00
160181.E-01  0000.00E+00  0000.00E+00
161922.E-01  0000.00E+00  0000.00E+00
163663.E-01  0000.00E+00  0000.00E+00
165405.E-01  0000.00E+00  0000.00E+00
167146.E-01  0000.00E+00  0000.00E+00
168887.E-01  0000.00E+00  0000.00E+00
170628.E-01  0000.00E+00  0000.00E+00
172369.E-01  0000.00E+00  0000.00E+00
174110.E-01  0000.00E+00  0000.00E+00
