====== O (650) into Layer 1                     =======
        SRIM-2013.00
==================================================
      ION and final RECOIL ATOM Distributions     
 See  SRIM Outputs\TDATA.txt for calculation details
==================================================
--------------------------------------------------------------------
    Recoil/Damage Calculations made with Kinchin-Pease Estimates    
--------------------------------------------------------------------
----------------------------------------------------------------
  There are NO RECOILS unless a full TRIM calculation is made.   
----------------------------------------------------------------
See file :  SRIM Outputs\TDATA.txt   for details of calculation
 Ion    =  O   Energy = 2500  keV
============= TARGET MATERIAL ======================================
Layer  1 : Layer 1
Layer Width =     2.E+04 A   Layer # 1- Density = 8.481E22 atoms/cm3 = 7.865 g/cm3
  Layer # 1- Fe = 100  Atomic Percent = 100  Mass Percent
====================================================================
 Total Ions calculated =9999.00
 Ion Average Range =   124.4E+02 A   Straggling =   143.4E+01 A
 Ion Lateral Range =   161.6E+01 A   Straggling =   204.3E+01 A
 Ion Radial  Range =   256.1E+01 A   Straggling =   139.0E+01 A
====================================================================
 Transmitted Ions =;  Backscattered Ions =7
 (These are not included in Skewne- and Kurtosis below.)

 Range Skewne- = -001.8043  &= [-(X-Rp)^3]/[N*Straggle^3]
 Range Kurtosis = 009.7440  &= [-(X-Rp)^4]/[N*Straggle^4]
 Statistical definitions above are those used in VLSI implant modelling.
====================================================================
=================================================================
  Table Distribution Units are >>>  (Atoms/cm3) / (Atoms/cm2)  <<<  
=================================================================
   DEPTH          O       Recoil     
   (Ang.)       Ions     Distribution
-----------  ----------  ------------
174120.E-03  5.7441E+01  0.0000E+00
348230.E-03  5.7441E+01  0.0000E+00
522340.E-03  5.7441E+01  0.0000E+00
696450.E-03  0.0000E+00  0.0000E+00
870560.E-03  0.0000E+00  0.0000E+00
104467.E-02  0.0000E+00  0.0000E+00
121878.E-02  0.0000E+00  0.0000E+00
139289.E-02  0.0000E+00  0.0000E+00
156700.E-02  0.0000E+00  0.0000E+00
174111.E-02  0.0000E+00  0.0000E+00
191522.E-02  5.7441E+01  0.0000E+00
208933.E-02  0.0000E+00  0.0000E+00
226344.E-02  0.0000E+00  0.0000E+00
243755.E-02  1.1488E+02  0.0000E+00
261166.E-02  1.7232E+02  0.0000E+00
278577.E-02  5.7441E+01  0.0000E+00
295988.E-02  5.7441E+01  0.0000E+00
313399.E-02  0.0000E+00  0.0000E+00
330810.E-02  1.1488E+02  0.0000E+00
348221.E-02  5.7441E+01  0.0000E+00
365632.E-02  5.7441E+01  0.0000E+00
383043.E-02  1.7232E+02  0.0000E+00
400454.E-02  5.7441E+01  0.0000E+00
417865.E-02  1.1488E+02  0.0000E+00
435276.E-02  5.7441E+01  0.0000E+00
452687.E-02  5.7441E+01  0.0000E+00
470098.E-02  0.0000E+00  0.0000E+00
487509.E-02  0.0000E+00  0.0000E+00
504920.E-02  2.2976E+02  0.0000E+00
522331.E-02  5.7441E+01  0.0000E+00
539742.E-02  1.7232E+02  0.0000E+00
557153.E-02  1.1488E+02  0.0000E+00
574564.E-02  1.1488E+02  0.0000E+00
591975.E-02  3.4464E+02  0.0000E+00
609386.E-02  2.2976E+02  0.0000E+00
626797.E-02  1.7232E+02  0.0000E+00
644208.E-02  3.4464E+02  0.0000E+00
661619.E-02  2.8720E+02  0.0000E+00
679030.E-02  5.1697E+02  0.0000E+00
696441.E-02  2.2976E+02  0.0000E+00
713852.E-02  2.2976E+02  0.0000E+00
731263.E-02  4.5953E+02  0.0000E+00
748674.E-02  5.7441E+02  0.0000E+00
766085.E-02  6.8929E+02  0.0000E+00
783496.E-02  7.4673E+02  0.0000E+00
800907.E-02  7.4673E+02  0.0000E+00
818318.E-02  6.3185E+02  0.0000E+00
835729.E-02  1.3211E+03  0.0000E+00
853140.E-02  1.1488E+03  0.0000E+00
870551.E-02  1.7807E+03  0.0000E+00
887962.E-02  2.1253E+03  0.0000E+00
905373.E-02  1.8381E+03  0.0000E+00
922784.E-02  2.1827E+03  0.0000E+00
940195.E-02  2.8146E+03  0.0000E+00
957606.E-02  3.2167E+03  0.0000E+00
975017.E-02  2.6997E+03  0.0000E+00
992428.E-02  2.9869E+03  0.0000E+00
100984.E-01  5.0548E+03  0.0000E+00
102725.E-01  5.5718E+03  0.0000E+00
104466.E-01  5.1697E+03  0.0000E+00
106207.E-01  6.3185E+03  0.0000E+00
107948.E-01  1.0339E+04  0.0000E+00
109689.E-01  9.3628E+03  0.0000E+00
111431.E-01  1.0914E+04  0.0000E+00
113172.E-01  1.2063E+04  0.0000E+00
114913.E-01  1.4820E+04  0.0000E+00
116654.E-01  1.5394E+04  0.0000E+00
118395.E-01  1.9530E+04  0.0000E+00
120136.E-01  2.2747E+04  0.0000E+00
121877.E-01  2.4757E+04  0.0000E+00
123618.E-01  2.9697E+04  0.0000E+00
125359.E-01  3.2684E+04  0.0000E+00
127100.E-01  3.3431E+04  0.0000E+00
128841.E-01  3.6820E+04  0.0000E+00
130583.E-01  3.7853E+04  0.0000E+00
132324.E-01  3.7336E+04  0.0000E+00
134065.E-01  3.4809E+04  0.0000E+00
135806.E-01  3.3086E+04  0.0000E+00
137547.E-01  2.8146E+04  0.0000E+00
139288.E-01  2.3953E+04  0.0000E+00
141029.E-01  1.9128E+04  0.0000E+00
142770.E-01  1.3154E+04  0.0000E+00
144511.E-01  1.0741E+04  0.0000E+00
146253.E-01  5.3994E+03  0.0000E+00
147994.E-01  2.5848E+03  0.0000E+00
149735.E-01  1.6658E+03  0.0000E+00
151476.E-01  6.8929E+02  0.0000E+00
153217.E-01  1.7232E+02  0.0000E+00
154958.E-01  1.7232E+02  0.0000E+00
156699.E-01  5.7441E+01  0.0000E+00
158440.E-01  0.0000E+00  0.0000E+00
160181.E-01  0.0000E+00  0.0000E+00
161922.E-01  0.0000E+00  0.0000E+00
163663.E-01  0.0000E+00  0.0000E+00
165405.E-01  0.0000E+00  0.0000E+00
167146.E-01  0.0000E+00  0.0000E+00
168887.E-01  0.0000E+00  0.0000E+00
170628.E-01  0.0000E+00  0.0000E+00
172369.E-01  0.0000E+00  0.0000E+00
174110.E-01  0.0000E+00  0.0000E+00
