====== He (200) into Layer 1                    =======
        SRIM-2013.00
==================================================
      ION and final RECOIL ATOM Distributions     
 See  SRIM Outputs\TDATA.txt for calculation details
==================================================
--------------------------------------------------------------------
    Recoil/Damage Calculations made with Kinchin-Pease Estimates    
--------------------------------------------------------------------
----------------------------------------------------------------
  There are NO RECOILS unless a full TRIM calculation is made.   
----------------------------------------------------------------
See file :  SRIM Outputs\TDATA.txt   for details of calculation
 Ion    = He   Energy = 200  keV
============= TARGET MATERIAL ======================================
Layer  1 : Layer 1
Layer Width =     9.E+03 A   Layer # 1- Density = 8.481E22 atoms/cm3 = 7.865 g/cm3
  Layer # 1- Fe = 100  Atomic Percent = 100  Mass Percent
====================================================================
 Total Ions calculated =9999.00
 Ion Average Range =   495.9E+01 A   Straggling =   956.7E+00 A
 Ion Lateral Range =   103.4E+01 A   Straggling =   128.7E+01 A
 Ion Radial  Range =   162.3E+01 A   Straggling =   826.7E+00 A
====================================================================
 Transmitted Ions =;  Backscattered Ions =35
 (These are not included in Skewne- and Kurtosis below.)

 Range Skewne- = -001.1156  &= [-(X-Rp)^3]/[N*Straggle^3]
 Range Kurtosis = 005.2514  &= [-(X-Rp)^4]/[N*Straggle^4]
 Statistical definitions above are those used in VLSI implant modelling.
====================================================================
=================================================================
  Table Distribution Units are >>>  (Atoms/cm3) / (Atoms/cm2)  <<<  
=================================================================
   DEPTH         He       Recoil     
   (Ang.)       Ions     Distribution
-----------  ----------  ------------
851500.E-04  0.0000E+00  0.0000E+00
170290.E-03  1.1747E+02  0.0000E+00
255430.E-03  3.5240E+02  0.0000E+00
340570.E-03  5.8733E+02  0.0000E+00
425710.E-03  2.3493E+02  0.0000E+00
510850.E-03  4.6986E+02  0.0000E+00
595990.E-03  7.0479E+02  0.0000E+00
681130.E-03  4.6986E+02  0.0000E+00
766270.E-03  1.1747E+02  0.0000E+00
851410.E-03  3.5240E+02  0.0000E+00
936550.E-03  7.0479E+02  0.0000E+00
102169.E-02  7.0479E+02  0.0000E+00
110683.E-02  5.8733E+02  0.0000E+00
119197.E-02  5.8733E+02  0.0000E+00
127711.E-02  7.0479E+02  0.0000E+00
136225.E-02  4.6986E+02  0.0000E+00
144739.E-02  5.8733E+02  0.0000E+00
153253.E-02  3.5240E+02  0.0000E+00
161767.E-02  9.3972E+02  0.0000E+00
170281.E-02  9.3972E+02  0.0000E+00
178795.E-02  1.2921E+03  0.0000E+00
187309.E-02  1.1747E+03  0.0000E+00
195823.E-02  1.7620E+03  0.0000E+00
204337.E-02  1.2921E+03  0.0000E+00
212851.E-02  9.3972E+02  0.0000E+00
221365.E-02  2.4668E+03  0.0000E+00
229879.E-02  1.7620E+03  0.0000E+00
238393.E-02  1.2921E+03  0.0000E+00
246907.E-02  2.3493E+03  0.0000E+00
255421.E-02  1.9969E+03  0.0000E+00
263935.E-02  3.4065E+03  0.0000E+00
272449.E-02  2.9366E+03  0.0000E+00
280963.E-02  2.1144E+03  0.0000E+00
289477.E-02  5.1685E+03  0.0000E+00
297991.E-02  4.2288E+03  0.0000E+00
306505.E-02  4.4637E+03  0.0000E+00
315019.E-02  5.2859E+03  0.0000E+00
323533.E-02  5.8733E+03  0.0000E+00
332047.E-02  7.4003E+03  0.0000E+00
340561.E-02  8.1051E+03  0.0000E+00
349075.E-02  1.0219E+04  0.0000E+00
357589.E-02  1.0219E+04  0.0000E+00
366103.E-02  1.3039E+04  0.0000E+00
374617.E-02  1.2804E+04  0.0000E+00
383131.E-02  1.1512E+04  0.0000E+00
391645.E-02  1.5153E+04  0.0000E+00
400159.E-02  1.7267E+04  0.0000E+00
408673.E-02  1.6680E+04  0.0000E+00
417187.E-02  2.1261E+04  0.0000E+00
425701.E-02  2.2318E+04  0.0000E+00
434215.E-02  2.4785E+04  0.0000E+00
442729.E-02  2.6547E+04  0.0000E+00
451243.E-02  2.8074E+04  0.0000E+00
459757.E-02  3.0541E+04  0.0000E+00
468271.E-02  3.4535E+04  0.0000E+00
476785.E-02  3.9234E+04  0.0000E+00
485299.E-02  3.9234E+04  0.0000E+00
493813.E-02  4.7104E+04  0.0000E+00
502327.E-02  4.3815E+04  0.0000E+00
510841.E-02  4.4167E+04  0.0000E+00
519355.E-02  5.3799E+04  0.0000E+00
527869.E-02  4.5577E+04  0.0000E+00
536383.E-02  5.4504E+04  0.0000E+00
544897.E-02  4.8396E+04  0.0000E+00
553411.E-02  4.9571E+04  0.0000E+00
561925.E-02  4.4050E+04  0.0000E+00
570439.E-02  4.2523E+04  0.0000E+00
578953.E-02  4.4167E+04  0.0000E+00
587467.E-02  3.6297E+04  0.0000E+00
595981.E-02  3.7119E+04  0.0000E+00
604495.E-02  3.1598E+04  0.0000E+00
613009.E-02  2.1966E+04  0.0000E+00
621523.E-02  1.7502E+04  0.0000E+00
630037.E-02  1.5153E+04  0.0000E+00
638551.E-02  1.0337E+04  0.0000E+00
647065.E-02  1.0337E+04  0.0000E+00
655579.E-02  8.2226E+03  0.0000E+00
664093.E-02  5.1685E+03  0.0000E+00
672607.E-02  2.9366E+03  0.0000E+00
681121.E-02  2.3493E+03  0.0000E+00
689635.E-02  1.4096E+03  0.0000E+00
698149.E-02  1.7620E+03  0.0000E+00
706663.E-02  8.2226E+02  0.0000E+00
715177.E-02  5.8733E+02  0.0000E+00
723691.E-02  4.6986E+02  0.0000E+00
732205.E-02  0.0000E+00  0.0000E+00
740719.E-02  0.0000E+00  0.0000E+00
749233.E-02  0.0000E+00  0.0000E+00
757747.E-02  0.0000E+00  0.0000E+00
766261.E-02  0.0000E+00  0.0000E+00
774775.E-02  0.0000E+00  0.0000E+00
783289.E-02  0.0000E+00  0.0000E+00
791803.E-02  0.0000E+00  0.0000E+00
800317.E-02  0.0000E+00  0.0000E+00
808831.E-02  0.0000E+00  0.0000E+00
817345.E-02  0.0000E+00  0.0000E+00
825859.E-02  0.0000E+00  0.0000E+00
834373.E-02  0.0000E+00  0.0000E+00
842887.E-02  0.0000E+00  0.0000E+00
851401.E-02  0.0000E+00  0.0000E+00
