 ==================================================================
              SRIM version ---> SRIM-2013.00
              Calc. date   ---> June 27, 2022 
 ==================================================================

 Disk File Name = SRIM Outputs\Tungsten in Tungsten.txt

 Ion = Tungsten [74] , Mass = 183.951 amu

 Target Density =  1.9350E+01 g/cm3 = 6.3381E+22 atoms/cm3
 ======= Target  Composition ========
    Atom   Atom   Atomic    Mass     
    Name   Numb   Percent   Percent  
    ----   ----   -------   -------  
      W     74    100.00    100.00   
 ====================================
 Bragg Correction = 0.00%
 Stopping Units =  MeV / (mg/cm2) 
 See bottom of Table for other Stopping units 

        Ion        dE/dx      dE/dx     Projected  Longitudinal   Lateral
       Energy      Elec.      Nuclear     Range     Straggling   Straggling
  --------------  ---------- ---------- ----------  ----------  ----------
   1.00 MeV   1.174E+00  4.858E+00     672 A       316 A       223 A   
   1.10 MeV   1.230E+00  4.811E+00     735 A       341 A       240 A   
   1.20 MeV   1.287E+00  4.761E+00     797 A       367 A       257 A   
   1.30 MeV   1.344E+00  4.710E+00     860 A       392 A       274 A   
   1.40 MeV   1.399E+00  4.658E+00     924 A       416 A       291 A   
   1.50 MeV   1.453E+00  4.605E+00     987 A       441 A       308 A   
   1.60 MeV   1.505E+00  4.552E+00    1051 A       465 A       325 A   
   1.70 MeV   1.555E+00  4.500E+00    1116 A       489 A       342 A   
   1.80 MeV   1.603E+00  4.448E+00    1180 A       513 A       359 A   
   2.00 MeV   1.693E+00  4.346E+00    1311 A       561 A       393 A   
   2.25 MeV   1.793E+00  4.224E+00    1475 A       620 A       435 A   
   2.50 MeV   1.882E+00  4.108E+00    1642 A       678 A       477 A   
   2.75 MeV   1.960E+00  3.998E+00    1811 A       735 A       519 A   
   3.00 MeV   2.029E+00  3.894E+00    1982 A       792 A       560 A   
   3.25 MeV   2.090E+00  3.796E+00    2155 A       849 A       602 A   
   3.50 MeV   2.146E+00  3.703E+00    2330 A       905 A       644 A   
   3.75 MeV   2.197E+00  3.615E+00    2508 A       961 A       686 A   
   4.00 MeV   2.243E+00  3.531E+00    2687 A      1016 A       728 A   
   4.50 MeV   2.328E+00  3.377E+00    3051 A      1126 A       813 A   
   5.00 MeV   2.404E+00  3.238E+00    3423 A      1235 A       898 A   
   5.50 MeV   2.476E+00  3.111E+00    3800 A      1342 A       984 A   
   6.00 MeV   2.546E+00  2.996E+00    4184 A      1448 A      1070 A   
   6.50 MeV   2.615E+00  2.890E+00    4572 A      1553 A      1156 A   
   7.00 MeV   2.684E+00  2.793E+00    4965 A      1656 A      1243 A   
   8.00 MeV   2.826E+00  2.620E+00    5760 A      1857 A      1418 A   
   9.00 MeV   2.975E+00  2.470E+00    6564 A      2051 A      1593 A   
  10.00 MeV   3.130E+00  2.339E+00    7371 A      2236 A      1767 A   
  11.00 MeV   3.293E+00  2.224E+00    8178 A      2414 A      1939 A   
  12.00 MeV   3.462E+00  2.121E+00    8981 A      2582 A      2108 A   
  13.00 MeV   3.637E+00  2.028E+00    9777 A      2743 A      2274 A   
  14.00 MeV   3.816E+00  1.945E+00    1.06 um     2895 A      2436 A   
  15.00 MeV   3.998E+00  1.869E+00    1.13 um     3039 A      2594 A   
  16.00 MeV   4.184E+00  1.800E+00    1.21 um     3175 A      2747 A   
  17.00 MeV   4.371E+00  1.736E+00    1.29 um     3304 A      2896 A   
  18.00 MeV   4.561E+00  1.678E+00    1.36 um     3425 A      3040 A   
  20.00 MeV   4.943E+00  1.574E+00    1.51 um     3651 A      3313 A   
  22.50 MeV   5.422E+00  1.462E+00    1.68 um     3902 A      3629 A   
  25.00 MeV   5.899E+00  1.368E+00    1.84 um     4122 A      3918 A   
  27.50 MeV   6.373E+00  1.286E+00    2.00 um     4316 A      4183 A   
  30.00 MeV   6.841E+00  1.215E+00    2.15 um     4487 A      4425 A   
  32.50 MeV   7.302E+00  1.152E+00    2.30 um     4639 A      4647 A   
  35.00 MeV   7.756E+00  1.097E+00    2.44 um     4776 A      4851 A   
  37.50 MeV   8.203E+00  1.047E+00    2.57 um     4898 A      5040 A   
  40.00 MeV   8.642E+00  1.002E+00    2.70 um     5009 A      5215 A   
  45.00 MeV   9.499E+00  9.236E-01    2.94 um     5206 A      5528 A   
  50.00 MeV   1.033E+01  8.580E-01    3.16 um     5371 A      5801 A   
  55.00 MeV   1.113E+01  8.022E-01    3.38 um     5512 A      6041 A   
  60.00 MeV   1.190E+01  7.539E-01    3.58 um     5632 A      6253 A   
  65.00 MeV   1.265E+01  7.117E-01    3.77 um     5737 A      6443 A   
  70.00 MeV   1.338E+01  6.745E-01    3.95 um     5829 A      6614 A   
  80.00 MeV   1.476E+01  6.117E-01    4.29 um     5992 A      6911 A   
  90.00 MeV   1.606E+01  5.607E-01    4.60 um     6124 A      7159 A   
 100.00 MeV   1.728E+01  5.182E-01    4.90 um     6233 A      7371 A   
 110.00 MeV   1.843E+01  4.824E-01    5.17 um     6325 A      7556 A   
 120.00 MeV   1.951E+01  4.516E-01    5.43 um     6404 A      7717 A   
-----------------------------------------------------------
 Multiply Stopping by        for Stopping Units
 -------------------        ------------------
  1.9349E+02                 eV / Angstrom 
  1.9349E+03                keV / micron   
  1.9349E+03                MeV / mm       
  1.0000E+00                keV / (ug/cm2) 
  1.0000E+00                MeV / (mg/cm2) 
  1.0000E+03                keV / (mg/cm2) 
  3.0529E+02                 eV / (1E15 atoms/cm2)
  7.8218E-02                L.S.S. reduced units
 ==================================================================
 (C) 1984,1989,1992,1998,2008 by J.P. Biersack and J.F. Ziegler
