====== Fe (1500) into Layer 1                   =======
        SRIM-2013.00
==================================================
      ION and final RECOIL ATOM Distributions     
 See  SRIM Outputs\TDATA.txt for calculation details
==================================================
--------------------------------------------------------------------
    Recoil/Damage Calculations made with Kinchin-Pease Estimates    
--------------------------------------------------------------------
----------------------------------------------------------------
  There are NO RECOILS unless a full TRIM calculation is made.   
----------------------------------------------------------------
See file :  SRIM Outputs\TDATA.txt   for details of calculation
 Ion    = Fe   Energy = 5500  keV
============= TARGET MATERIAL ======================================
Layer  1 : Layer 1
Layer Width =     2.E+04 A   Layer # 1- Density = 8.481E22 atoms/cm3 = 7.865 g/cm3
  Layer # 1- Fe = 100  Atomic Percent = 100  Mass Percent
====================================================================
 Total Ions calculated =9999.00
 Ion Average Range =   146.9E+02 A   Straggling =   237.3E+01 A
 Ion Lateral Range =   224.1E+01 A   Straggling =   281.8E+01 A
 Ion Radial  Range =   354.7E+01 A   Straggling =   184.8E+01 A
====================================================================
 Transmitted Ions =;  Backscattered Ions =1
 (These are not included in Skewne- and Kurtosis below.)

 Range Skewne- = -001.1565  &= [-(X-Rp)^3]/[N*Straggle^3]
 Range Kurtosis = 005.1757  &= [-(X-Rp)^4]/[N*Straggle^4]
 Statistical definitions above are those used in VLSI implant modelling.
====================================================================
=================================================================
  Table Distribution Units are >>>  (Atoms/cm3) / (Atoms/cm2)  <<<  
=================================================================
   DEPTH         Fe       Recoil     
   (Ang.)       Ions     Distribution
-----------  ----------  ------------
219210.E-03  0.0000E+00  0.0000E+00
438410.E-03  0.0000E+00  0.0000E+00
657610.E-03  0.0000E+00  0.0000E+00
876810.E-03  0.0000E+00  0.0000E+00
109601.E-02  0.0000E+00  0.0000E+00
131521.E-02  4.5625E+01  0.0000E+00
153441.E-02  0.0000E+00  0.0000E+00
175361.E-02  0.0000E+00  0.0000E+00
197281.E-02  0.0000E+00  0.0000E+00
219201.E-02  0.0000E+00  0.0000E+00
241121.E-02  0.0000E+00  0.0000E+00
263041.E-02  4.5625E+01  0.0000E+00
284961.E-02  1.8250E+02  0.0000E+00
306881.E-02  4.5625E+01  0.0000E+00
328801.E-02  1.8250E+02  0.0000E+00
350721.E-02  9.1250E+01  0.0000E+00
372641.E-02  1.3688E+02  0.0000E+00
394561.E-02  1.8250E+02  0.0000E+00
416481.E-02  2.2813E+02  0.0000E+00
438401.E-02  1.3688E+02  0.0000E+00
460321.E-02  4.5625E+01  0.0000E+00
482241.E-02  9.1250E+01  0.0000E+00
504161.E-02  2.7375E+02  0.0000E+00
526081.E-02  2.7375E+02  0.0000E+00
548001.E-02  1.8250E+02  0.0000E+00
569921.E-02  1.3688E+02  0.0000E+00
591841.E-02  3.1938E+02  0.0000E+00
613761.E-02  1.8250E+02  0.0000E+00
635681.E-02  2.2813E+02  0.0000E+00
657601.E-02  2.7375E+02  0.0000E+00
679521.E-02  2.7375E+02  0.0000E+00
701441.E-02  8.6687E+02  0.0000E+00
723361.E-02  4.5625E+02  0.0000E+00
745281.E-02  9.1250E+02  0.0000E+00
767201.E-02  9.1250E+02  0.0000E+00
789121.E-02  3.6500E+02  0.0000E+00
811041.E-02  1.0494E+03  0.0000E+00
832961.E-02  9.1250E+02  0.0000E+00
854881.E-02  9.5812E+02  0.0000E+00
876801.E-02  9.5812E+02  0.0000E+00
898721.E-02  1.4600E+03  0.0000E+00
920641.E-02  1.2319E+03  0.0000E+00
942561.E-02  1.7338E+03  0.0000E+00
964481.E-02  2.1900E+03  0.0000E+00
986401.E-02  1.9619E+03  0.0000E+00
100832.E-01  2.2356E+03  0.0000E+00
103024.E-01  2.0075E+03  0.0000E+00
105216.E-01  2.8288E+03  0.0000E+00
107408.E-01  2.8288E+03  0.0000E+00
109600.E-01  3.6956E+03  0.0000E+00
111792.E-01  4.2888E+03  0.0000E+00
113984.E-01  4.2431E+03  0.0000E+00
116176.E-01  4.3800E+03  0.0000E+00
118368.E-01  5.2013E+03  0.0000E+00
120560.E-01  5.0644E+03  0.0000E+00
122752.E-01  6.4331E+03  0.0000E+00
124944.E-01  7.2544E+03  0.0000E+00
127136.E-01  7.6194E+03  0.0000E+00
129328.E-01  8.3494E+03  0.0000E+00
131520.E-01  1.0767E+04  0.0000E+00
133712.E-01  1.0539E+04  0.0000E+00
135904.E-01  1.1589E+04  0.0000E+00
138096.E-01  1.3049E+04  0.0000E+00
140288.E-01  1.3824E+04  0.0000E+00
142480.E-01  1.5741E+04  0.0000E+00
144672.E-01  1.6653E+04  0.0000E+00
146864.E-01  1.6288E+04  0.0000E+00
149056.E-01  1.9117E+04  0.0000E+00
151248.E-01  1.7657E+04  0.0000E+00
153440.E-01  1.9345E+04  0.0000E+00
155632.E-01  1.9208E+04  0.0000E+00
157824.E-01  1.9299E+04  0.0000E+00
160016.E-01  1.9619E+04  0.0000E+00
162208.E-01  1.9619E+04  0.0000E+00
164400.E-01  2.2037E+04  0.0000E+00
166592.E-01  1.7748E+04  0.0000E+00
168784.E-01  1.8661E+04  0.0000E+00
170976.E-01  1.4828E+04  0.0000E+00
173168.E-01  1.2866E+04  0.0000E+00
175360.E-01  9.4444E+03  0.0000E+00
177552.E-01  8.8969E+03  0.0000E+00
179744.E-01  7.8019E+03  0.0000E+00
181936.E-01  6.2050E+03  0.0000E+00
184128.E-01  3.0569E+03  0.0000E+00
186320.E-01  2.5550E+03  0.0000E+00
188512.E-01  1.3231E+03  0.0000E+00
190704.E-01  1.0037E+03  0.0000E+00
192896.E-01  7.3000E+02  0.0000E+00
195088.E-01  2.7375E+02  0.0000E+00
197280.E-01  3.1938E+02  0.0000E+00
199472.E-01  0.0000E+00  0.0000E+00
201664.E-01  4.5625E+01  0.0000E+00
203856.E-01  4.5625E+01  0.0000E+00
206048.E-01  0.0000E+00  0.0000E+00
208240.E-01  4.5625E+01  0.0000E+00
210432.E-01  0.0000E+00  0.0000E+00
212624.E-01  0.0000E+00  0.0000E+00
214816.E-01  0.0000E+00  0.0000E+00
217008.E-01  0.0000E+00  0.0000E+00
219200.E-01  0.0000E+00  0.0000E+00
