====== Ar (10) into Layer 1                     =======
        SRIM-2013.00
==========================================
    Ion and Target VACANCY production     
  See SRIM Outputs\TDATA.txt for calc. details
==========================================
--------------------------------------------------------------------
    Recoil/Damage Calculations made with Kinchin-Pease Estimates    
--------------------------------------------------------------------
 See file :  SRIM Outputs\TDATA.txt for calculation data
 Ion    = Ar   Energy = 9000 keV
============= TARGET MATERIAL ======================================
Layer  1 : Layer 1
Layer Width =     3.E+04 A ;
  Layer # 1- Density = 6.338E22 atoms/cm3 = 19.35 g/cm3
  Layer # 1-  W = 100  Atomic Percent = 100  Mass Percent
====================================================================
 Total Ions calculated =9999.00
 Total Target Vacancies     = 2795 /Ion

==========================================================
  Table Units are  >>>> Vacancies/(Angstrom-Ion)  <<<<  
==========================================================
   TARGET     VACANCIES     VACANCIES 
   DEPTH         by            by     
   (Ang.)       IONS         RECOILS  
-----------  -----------  ------------
280010.E-03  3737.74E-06  3708.12E-05  
560010.E-03  4205.53E-06  3885.43E-05  
840010.E-03  4263.02E-06  3128.79E-05  
112001.E-02  4374.43E-06  4075.56E-05  
140001.E-02  4481.20E-06  3957.20E-05  
168001.E-02  4575.83E-06  4540.37E-05  
196001.E-02  4640.11E-06  4597.07E-05  
224001.E-02  4727.95E-06  5119.11E-05  
252001.E-02  4881.86E-06  4219.81E-05  
280001.E-02  4904.36E-06  4990.72E-05  
308001.E-02  4951.49E-06  4763.47E-05  
336001.E-02  5065.76E-06  4870.36E-05  
364001.E-02  5167.53E-06  5266.72E-05  
392001.E-02  5355.36E-06  6022.95E-05  
420001.E-02  5355.36E-06  4465.61E-05  
448001.E-02  5551.05E-06  5895.78E-05  
476001.E-02  5673.89E-06  6034.40E-05  
504001.E-02  5776.73E-06  5297.03E-05  
532001.E-02  5985.99E-06  6329.52E-05  
560001.E-02  6098.83E-06  6030.29E-05  
588001.E-02  6220.60E-06  6834.21E-05  
616001.E-02  6375.22E-06  7161.16E-05  
644001.E-02  6601.61E-06  7288.81E-05  
672001.E-02  6724.81E-06  8230.39E-05  
700001.E-02  6861.93E-06  7600.31E-05  
728001.E-02  7044.41E-06  7241.64E-05  
756001.E-02  7350.08E-06  7706.76E-05  
784001.E-02  7520.77E-06  8193.80E-05  
812001.E-02  7826.79E-06  8086.93E-05  
840001.E-02  8126.75E-06  7854.54E-05  
868001.E-02  8418.85E-06  8740.93E-05  
896001.E-02  8662.03E-06  8981.79E-05  
924001.E-02  9019.12E-06  9756.63E-05  
952001.E-02  9202.31E-06  9099.64E-05  
980001.E-02  9323.01E-06  1040.82E-04  
100800.E-01  9665.81E-06  1041.05E-04  
103600.E-01  1012.68E-05  1090.64E-04  
106400.E-01  1065.57E-05  1192.40E-04  
109200.E-01  1074.39E-05  1199.14E-04  
112000.E-01  1159.20E-05  1315.87E-04  
114800.E-01  1147.45E-05  1230.20E-04  
117600.E-01  1208.80E-05  1242.94E-04  
120400.E-01  1270.43E-05  1446.56E-04  
123200.E-01  1323.10E-05  1511.23E-04  
126000.E-01  1362.38E-05  1484.62E-04  
128800.E-01  1408.95E-05  1639.56E-04  
131600.E-01  1461.47E-05  1662.50E-04  
134400.E-01  1547.78E-05  1700.05E-04  
137200.E-01  1584.14E-05  1829.73E-04  
140000.E-01  1649.13E-05  1834.65E-04  
142800.E-01  1747.50E-05  1969.74E-04  
145600.E-01  1837.56E-05  2075.06E-04  
148400.E-01  1933.16E-05  2165.28E-04  
151200.E-01  2003.65E-05  2242.50E-04  
154000.E-01  2085.67E-05  2398.41E-04  
156800.E-01  2179.44E-05  2472.49E-04  
159600.E-01  2281.04E-05  2483.87E-04  
162400.E-01  2304.71E-05  2596.92E-04  
165200.E-01  2311.92E-05  2640.11E-04  
168000.E-01  2382.66E-05  2575.83E-04  
170800.E-01  2368.38E-05  2485.55E-04  
173600.E-01  2325.21E-05  2457.69E-04  
176400.E-01  2348.88E-05  2394.23E-04  
179200.E-01  2250.04E-05  2259.61E-04  
182000.E-01  2250.00E-05  2184.51E-04  
184800.E-01  2106.31E-05  2036.87E-04  
187600.E-01  1949.05E-05  1852.08E-04  
190400.E-01  1794.14E-05  1656.39E-04  
193200.E-01  1644.73E-05  1501.80E-04  
196000.E-01  1427.98E-05  1254.97E-04  
198800.E-01  1253.50E-05  1070.06E-04  
201600.E-01  1041.04E-05  8406.01E-05  
204400.E-01  8373.50E-06  6564.20E-05  
207200.E-01  6392.71E-06  4975.87E-05  
210000.E-01  4514.41E-06  3372.61E-05  
212800.E-01  2858.58E-06  2059.13E-05  
215600.E-01  2152.25E-06  1463.66E-05  
218400.E-01  1380.88E-06  8025.78E-06  
221200.E-01  6879.36E-07  4319.40E-06  
224000.E-01  4325.48E-07  2307.49E-06  
226800.E-01  2396.67E-07  1471.22E-06  
229600.E-01  7965.10E-08  5554.02E-07  
232400.E-01  6072.04E-08  2635.77E-07  
235200.E-01  3786.09E-08  1658.99E-07  
238000.E-01  0000.00E+00  0000.00E+00  
240800.E-01  0000.00E+00  0000.00E+00  
243600.E-01  0000.00E+00  0000.00E+00  
246400.E-01  0000.00E+00  0000.00E+00  
249200.E-01  0000.00E+00  0000.00E+00  
252000.E-01  0000.00E+00  0000.00E+00  
254800.E-01  0000.00E+00  0000.00E+00  
257600.E-01  0000.00E+00  0000.00E+00  
260400.E-01  0000.00E+00  0000.00E+00  
263200.E-01  0000.00E+00  0000.00E+00  
266000.E-01  0000.00E+00  0000.00E+00  
268800.E-01  0000.00E+00  0000.00E+00  
271600.E-01  0000.00E+00  0000.00E+00  
274400.E-01  0000.00E+00  0000.00E+00  
277200.E-01  0000.00E+00  0000.00E+00  
280000.E-01  0000.00E+00  0000.00E+00  

 To convert to Energy Lost - multiply by Average Binding Energy =  3  eV/Vacancy
