====== O (650) into Layer 1                     =======
        SRIM-2013.00
=======================================
    Energy transferred to RECOILS      
 See SRIM Outputs\TDATA.txt for calc. details 
=======================================
--------------------------------------------------------------------
    Recoil/Damage Calculations made with Kinchin-Pease Estimates    
--------------------------------------------------------------------
 See file: SRIM Outputs\TDATA.txt for data about the calculation
 Ion    =  O   Energy = 650 keV
============= TARGET MATERIAL ======================================
Layer  1 : Layer 1
Layer Width = 88890.E-01 AAA ;
  Layer # 1- Density = 8.481E22 atoms/cm3 = 7.865 g/cm3
  Layer # 1- Fe = 100  Atomic Percent = 100  Mass Percent
====================================================================
 Total Ions calculated =9999.00
===========================================================
  Table Energy Units are  >>>>  eV /(Angstrom-Ion)  <<<<  
===========================================================
   DEPTH       ENERGY       ENERGY    
   DEPTH        from        Absorbed  
   (Ang.)       IONS        by Recoils
----------   ------------  -----------
889000.E-04  6499.07E-03  6513.65E-03
177790.E-03  7381.23E-03  7400.94E-03
266680.E-03  6589.05E-03  6609.54E-03
355570.E-03  6517.23E-03  6537.65E-03
444460.E-03  7221.59E-03  7242.18E-03
533350.E-03  7233.91E-03  7255.55E-03
622240.E-03  7164.00E-03  7185.48E-03
711130.E-03  6868.80E-03  6890.80E-03
800020.E-03  7294.13E-03  7316.58E-03
888910.E-03  8345.16E-03  8368.32E-03
977800.E-03  7227.36E-03  7251.38E-03
106669.E-02  7748.37E-03  7772.47E-03
115558.E-02  7570.45E-03  7595.17E-03
124447.E-02  7477.90E-03  7503.29E-03
133336.E-02  8692.40E-03  8718.58E-03
142225.E-02  9754.24E-03  9781.05E-03
151114.E-02  1034.64E-02  1037.39E-02
160003.E-02  9331.34E-03  9359.46E-03
168892.E-02  9604.88E-03  9633.55E-03
177781.E-02  9364.87E-03  9394.54E-03
186670.E-02  1107.88E-02  1111.00E-02
195559.E-02  1060.58E-02  1063.68E-02
204448.E-02  1012.33E-02  1015.49E-02
213337.E-02  1039.91E-02  1043.13E-02
222226.E-02  1108.28E-02  1111.54E-02
231115.E-02  1093.52E-02  1096.91E-02
240004.E-02  1218.36E-02  1221.82E-02
248893.E-02  1259.23E-02  1262.91E-02
257782.E-02  1199.74E-02  1203.57E-02
266671.E-02  1344.85E-02  1348.81E-02
275560.E-02  1405.11E-02  1409.19E-02
284449.E-02  1517.94E-02  1522.16E-02
293338.E-02  1389.91E-02  1394.27E-02
302227.E-02  1473.71E-02  1478.14E-02
311116.E-02  1601.66E-02  1606.38E-02
320005.E-02  1678.22E-02  1683.13E-02
328894.E-02  1637.21E-02  1642.30E-02
337783.E-02  1749.97E-02  1755.34E-02
346672.E-02  1790.33E-02  1795.88E-02
355561.E-02  1943.70E-02  1949.48E-02
364450.E-02  1912.74E-02  1918.65E-02
373339.E-02  2113.08E-02  2119.31E-02
382228.E-02  2074.31E-02  2080.73E-02
391117.E-02  2126.94E-02  2133.60E-02
400006.E-02  2295.31E-02  2302.22E-02
408895.E-02  2467.40E-02  2474.99E-02
417784.E-02  2435.98E-02  2443.55E-02
426673.E-02  2377.94E-02  2385.82E-02
435562.E-02  2416.76E-02  2424.95E-02
444451.E-02  2524.36E-02  2532.52E-02
453340.E-02  2498.76E-02  2507.13E-02
462229.E-02  2491.75E-02  2500.56E-02
471118.E-02  2553.17E-02  2562.09E-02
480007.E-02  2676.30E-02  2685.45E-02
488896.E-02  2585.77E-02  2594.89E-02
497785.E-02  2702.52E-02  2712.23E-02
506674.E-02  2521.09E-02  2530.52E-02
515563.E-02  2489.37E-02  2498.72E-02
524452.E-02  2482.16E-02  2491.45E-02
533341.E-02  2331.99E-02  2341.04E-02
542230.E-02  2147.29E-02  2155.84E-02
551119.E-02  2055.54E-02  2063.93E-02
560008.E-02  1943.48E-02  1951.53E-02
568897.E-02  1756.20E-02  1763.68E-02
577786.E-02  1532.46E-02  1539.08E-02
586675.E-02  1363.08E-02  1369.11E-02
595564.E-02  1251.70E-02  1257.44E-02
604453.E-02  1090.67E-02  1095.69E-02
613342.E-02  9011.01E-03  9054.59E-03
622231.E-02  7047.38E-03  7084.14E-03
631120.E-02  6078.22E-03  6107.49E-03
640009.E-02  4757.36E-03  4782.29E-03
648898.E-02  3885.36E-03  3904.31E-03
657787.E-02  2950.58E-03  2965.55E-03
666676.E-02  1939.36E-03  1951.23E-03
675565.E-02  1368.28E-03  1376.71E-03
684454.E-02  9188.56E-04  9245.20E-04
693343.E-02  6162.62E-04  6199.11E-04
702232.E-02  3544.75E-04  3569.80E-04
711121.E-02  3325.08E-04  3345.09E-04
720010.E-02  1639.41E-04  1650.48E-04
728899.E-02  1190.97E-04  1198.36E-04
737788.E-02  9582.67E-05  9647.48E-05
746677.E-02  6982.89E-05  7028.46E-05
755566.E-02  4010.20E-05  4030.79E-05
764455.E-02  2210.64E-05  2225.49E-05
773344.E-02  2795.61E-05  2812.15E-05
782233.E-02  1058.12E-05  1064.87E-05
791122.E-02  0000.00E+00  0000.00E+00
800011.E-02  0000.00E+00  0000.00E+00
808900.E-02  0000.00E+00  0000.00E+00
817789.E-02  0000.00E+00  0000.00E+00
826678.E-02  0000.00E+00  0000.00E+00
835567.E-02  0000.00E+00  0000.00E+00
844456.E-02  0000.00E+00  0000.00E+00
853345.E-02  0000.00E+00  0000.00E+00
862234.E-02  0000.00E+00  0000.00E+00
871123.E-02  0000.00E+00  0000.00E+00
880012.E-02  0000.00E+00  0000.00E+00
888901.E-02  0000.00E+00  0000.00E+00
