====== O (650) into Layer 1                     =======
        SRIM-2013.00
==================================================
      ION and final RECOIL ATOM Distributions     
 See  SRIM Outputs\TDATA.txt for calculation details
==================================================
--------------------------------------------------------------------
    Recoil/Damage Calculations made with Kinchin-Pease Estimates    
--------------------------------------------------------------------
----------------------------------------------------------------
  There are NO RECOILS unless a full TRIM calculation is made.   
----------------------------------------------------------------
See file :  SRIM Outputs\TDATA.txt   for details of calculation
 Ion    =  O   Energy = 650  keV
============= TARGET MATERIAL ======================================
Layer  1 : Layer 1
Layer Width =     9.E+03 A   Layer # 1- Density = 8.481E22 atoms/cm3 = 7.865 g/cm3
  Layer # 1- Fe = 100  Atomic Percent = 100  Mass Percent
====================================================================
 Total Ions calculated =9999.00
 Ion Average Range =   509.0E+01 A   Straggling =   105.9E+01 A
 Ion Lateral Range =   110.7E+01 A   Straggling =   137.8E+01 A
 Ion Radial  Range =   175.1E+01 A   Straggling =   879.9E+00 A
====================================================================
 Transmitted Ions =;  Backscattered Ions =17
 (These are not included in Skewne- and Kurtosis below.)

 Range Skewne- = -001.0354  &= [-(X-Rp)^3]/[N*Straggle^3]
 Range Kurtosis = 004.7272  &= [-(X-Rp)^4]/[N*Straggle^4]
 Statistical definitions above are those used in VLSI implant modelling.
====================================================================
=================================================================
  Table Distribution Units are >>>  (Atoms/cm3) / (Atoms/cm2)  <<<  
=================================================================
   DEPTH          O       Recoil     
   (Ang.)       Ions     Distribution
-----------  ----------  ------------
889000.E-04  0.0000E+00  0.0000E+00
177790.E-03  2.2502E+02  0.0000E+00
266680.E-03  2.2502E+02  0.0000E+00
355570.E-03  4.5004E+02  0.0000E+00
444460.E-03  2.2502E+02  0.0000E+00
533350.E-03  4.5004E+02  0.0000E+00
622240.E-03  3.3753E+02  0.0000E+00
711130.E-03  3.3753E+02  0.0000E+00
800020.E-03  4.5004E+02  0.0000E+00
888910.E-03  3.3753E+02  0.0000E+00
977800.E-03  1.2376E+03  0.0000E+00
106669.E-02  9.0008E+02  0.0000E+00
115558.E-02  1.1251E+02  0.0000E+00
124447.E-02  1.4626E+03  0.0000E+00
133336.E-02  9.0008E+02  0.0000E+00
142225.E-02  1.3501E+03  0.0000E+00
151114.E-02  9.0008E+02  0.0000E+00
160003.E-02  1.1251E+03  0.0000E+00
168892.E-02  1.3501E+03  0.0000E+00
177781.E-02  1.1251E+03  0.0000E+00
186670.E-02  1.3501E+03  0.0000E+00
195559.E-02  1.5751E+03  0.0000E+00
204448.E-02  1.4626E+03  0.0000E+00
213337.E-02  1.2376E+03  0.0000E+00
222226.E-02  2.0252E+03  0.0000E+00
231115.E-02  1.5751E+03  0.0000E+00
240004.E-02  2.0252E+03  0.0000E+00
248893.E-02  2.8127E+03  0.0000E+00
257782.E-02  3.9378E+03  0.0000E+00
266671.E-02  4.0504E+03  0.0000E+00
275560.E-02  3.2628E+03  0.0000E+00
284449.E-02  3.9378E+03  0.0000E+00
293338.E-02  3.7128E+03  0.0000E+00
302227.E-02  4.1629E+03  0.0000E+00
311116.E-02  5.5130E+03  0.0000E+00
320005.E-02  4.5004E+03  0.0000E+00
328894.E-02  7.4256E+03  0.0000E+00
337783.E-02  8.3257E+03  0.0000E+00
346672.E-02  8.7758E+03  0.0000E+00
355561.E-02  8.7758E+03  0.0000E+00
364450.E-02  9.7884E+03  0.0000E+00
373339.E-02  1.1251E+04  0.0000E+00
382228.E-02  9.7884E+03  0.0000E+00
391117.E-02  1.4176E+04  0.0000E+00
400006.E-02  1.5189E+04  0.0000E+00
408895.E-02  2.0252E+04  0.0000E+00
417784.E-02  1.5414E+04  0.0000E+00
426673.E-02  1.9127E+04  0.0000E+00
435562.E-02  2.0702E+04  0.0000E+00
444451.E-02  2.2502E+04  0.0000E+00
453340.E-02  2.4190E+04  0.0000E+00
462229.E-02  2.5877E+04  0.0000E+00
471118.E-02  3.1390E+04  0.0000E+00
480007.E-02  3.0603E+04  0.0000E+00
488896.E-02  3.1953E+04  0.0000E+00
497785.E-02  3.8703E+04  0.0000E+00
506674.E-02  3.9491E+04  0.0000E+00
515563.E-02  4.0391E+04  0.0000E+00
524452.E-02  4.3766E+04  0.0000E+00
533341.E-02  4.4666E+04  0.0000E+00
542230.E-02  3.9716E+04  0.0000E+00
551119.E-02  4.5679E+04  0.0000E+00
560008.E-02  4.6354E+04  0.0000E+00
568897.E-02  4.5454E+04  0.0000E+00
577786.E-02  4.0391E+04  0.0000E+00
586675.E-02  3.8366E+04  0.0000E+00
595564.E-02  4.2304E+04  0.0000E+00
604453.E-02  3.6566E+04  0.0000E+00
613342.E-02  3.1728E+04  0.0000E+00
622231.E-02  3.2403E+04  0.0000E+00
631120.E-02  2.4527E+04  0.0000E+00
640009.E-02  2.3515E+04  0.0000E+00
648898.E-02  1.6539E+04  0.0000E+00
657787.E-02  1.1926E+04  0.0000E+00
666676.E-02  1.2939E+04  0.0000E+00
675565.E-02  1.0238E+04  0.0000E+00
684454.E-02  6.5256E+03  0.0000E+00
693343.E-02  4.9504E+03  0.0000E+00
702232.E-02  2.8127E+03  0.0000E+00
711121.E-02  2.5877E+03  0.0000E+00
720010.E-02  1.4626E+03  0.0000E+00
728899.E-02  7.8757E+02  0.0000E+00
737788.E-02  6.7506E+02  0.0000E+00
746677.E-02  5.6255E+02  0.0000E+00
755566.E-02  4.5004E+02  0.0000E+00
764455.E-02  1.1251E+02  0.0000E+00
773344.E-02  2.2502E+02  0.0000E+00
782233.E-02  1.1251E+02  0.0000E+00
791122.E-02  0.0000E+00  0.0000E+00
800011.E-02  0.0000E+00  0.0000E+00
808900.E-02  0.0000E+00  0.0000E+00
817789.E-02  0.0000E+00  0.0000E+00
826678.E-02  0.0000E+00  0.0000E+00
835567.E-02  0.0000E+00  0.0000E+00
844456.E-02  0.0000E+00  0.0000E+00
853345.E-02  0.0000E+00  0.0000E+00
862234.E-02  0.0000E+00  0.0000E+00
871123.E-02  0.0000E+00  0.0000E+00
880012.E-02  0.0000E+00  0.0000E+00
888901.E-02  0.0000E+00  0.0000E+00
