====== H (170) into Layer 1                     =======
        SRIM-2013.00
==================================================
      ION and final RECOIL ATOM Distributions     
 See  SRIM Outputs\TDATA.txt for calculation details
==================================================
--------------------------------------------------------------------
    Recoil/Damage Calculations made with Kinchin-Pease Estimates    
--------------------------------------------------------------------
----------------------------------------------------------------
  There are NO RECOILS unless a full TRIM calculation is made.   
----------------------------------------------------------------
See file :  SRIM Outputs\TDATA.txt   for details of calculation
 Ion    =  H   Energy = 260  keV
============= TARGET MATERIAL ======================================
Layer  1 : Layer 1
Layer Width =     2.E+04 A   Layer # 1- Density = 6.338E22 atoms/cm3 = 19.35 g/cm3
  Layer # 1-  W = 100  Atomic Percent = 100  Mass Percent
====================================================================
 Total Ions calculated =9999.00
 Ion Average Range =   986.1E+01 A   Straggling =   179.6E+01 A
 Ion Lateral Range =   202.3E+01 A   Straggling =   253.9E+01 A
 Ion Radial  Range =   315.6E+01 A   Straggling =   167.8E+01 A
====================================================================
 Transmitted Ions =;  Backscattered Ions =36
 (These are not included in Skewne- and Kurtosis below.)

 Range Skewne- = -001.4932  &= [-(X-Rp)^3]/[N*Straggle^3]
 Range Kurtosis = 006.5246  &= [-(X-Rp)^4]/[N*Straggle^4]
 Statistical definitions above are those used in VLSI implant modelling.
====================================================================
=================================================================
  Table Distribution Units are >>>  (Atoms/cm3) / (Atoms/cm2)  <<<  
=================================================================
   DEPTH          H       Recoil     
   (Ang.)       Ions     Distribution
-----------  ----------  ------------
160010.E-03  6.2506E+01  0.0000E+00
320010.E-03  1.2501E+02  0.0000E+00
480010.E-03  6.2506E+01  0.0000E+00
640010.E-03  1.2501E+02  0.0000E+00
800010.E-03  1.8752E+02  0.0000E+00
960010.E-03  0.0000E+00  0.0000E+00
112001.E-02  1.2501E+02  0.0000E+00
128001.E-02  4.3754E+02  0.0000E+00
144001.E-02  3.1253E+02  0.0000E+00
160001.E-02  2.5003E+02  0.0000E+00
176001.E-02  3.7504E+02  0.0000E+00
192001.E-02  2.5003E+02  0.0000E+00
208001.E-02  3.1253E+02  0.0000E+00
224001.E-02  5.0005E+02  0.0000E+00
240001.E-02  3.1253E+02  0.0000E+00
256001.E-02  2.5003E+02  0.0000E+00
272001.E-02  5.0005E+02  0.0000E+00
288001.E-02  6.2506E+02  0.0000E+00
304001.E-02  4.3754E+02  0.0000E+00
320001.E-02  7.5008E+02  0.0000E+00
336001.E-02  5.0005E+02  0.0000E+00
352001.E-02  5.6256E+02  0.0000E+00
368001.E-02  3.7504E+02  0.0000E+00
384001.E-02  5.6256E+02  0.0000E+00
400001.E-02  7.5008E+02  0.0000E+00
416001.E-02  1.0001E+03  0.0000E+00
432001.E-02  6.8757E+02  0.0000E+00
448001.E-02  8.7509E+02  0.0000E+00
464001.E-02  1.1876E+03  0.0000E+00
480001.E-02  6.8757E+02  0.0000E+00
496001.E-02  1.5001E+03  0.0000E+00
512001.E-02  1.0001E+03  0.0000E+00
528001.E-02  1.3751E+03  0.0000E+00
544001.E-02  1.8127E+03  0.0000E+00
560001.E-02  1.3126E+03  0.0000E+00
576001.E-02  1.7502E+03  0.0000E+00
592001.E-02  1.6877E+03  0.0000E+00
608001.E-02  2.1252E+03  0.0000E+00
624001.E-02  1.6252E+03  0.0000E+00
640001.E-02  2.3752E+03  0.0000E+00
656001.E-02  3.1878E+03  0.0000E+00
672001.E-02  2.7503E+03  0.0000E+00
688001.E-02  4.0629E+03  0.0000E+00
704001.E-02  3.8754E+03  0.0000E+00
720001.E-02  4.6255E+03  0.0000E+00
736001.E-02  5.0630E+03  0.0000E+00
752001.E-02  4.1879E+03  0.0000E+00
768001.E-02  5.6256E+03  0.0000E+00
784001.E-02  7.2507E+03  0.0000E+00
800001.E-02  8.1883E+03  0.0000E+00
816001.E-02  7.7508E+03  0.0000E+00
832001.E-02  8.8759E+03  0.0000E+00
848001.E-02  8.6259E+03  0.0000E+00
864001.E-02  1.1814E+04  0.0000E+00
880001.E-02  1.2001E+04  0.0000E+00
896001.E-02  1.4939E+04  0.0000E+00
912001.E-02  1.4689E+04  0.0000E+00
928001.E-02  1.6002E+04  0.0000E+00
944001.E-02  2.0627E+04  0.0000E+00
960001.E-02  2.2502E+04  0.0000E+00
976001.E-02  2.4127E+04  0.0000E+00
992001.E-02  2.4190E+04  0.0000E+00
100800.E-01  2.7440E+04  0.0000E+00
102400.E-01  2.8503E+04  0.0000E+00
104000.E-01  2.5878E+04  0.0000E+00
105600.E-01  2.8440E+04  0.0000E+00
107200.E-01  3.1065E+04  0.0000E+00
108800.E-01  2.9878E+04  0.0000E+00
110400.E-01  2.6565E+04  0.0000E+00
112000.E-01  3.0065E+04  0.0000E+00
113600.E-01  2.3502E+04  0.0000E+00
115200.E-01  2.3752E+04  0.0000E+00
116800.E-01  1.9314E+04  0.0000E+00
118400.E-01  1.6439E+04  0.0000E+00
120000.E-01  1.3751E+04  0.0000E+00
121600.E-01  8.0633E+03  0.0000E+00
123200.E-01  8.2508E+03  0.0000E+00
124800.E-01  6.3131E+03  0.0000E+00
126400.E-01  4.5004E+03  0.0000E+00
128000.E-01  2.1252E+03  0.0000E+00
129600.E-01  1.5001E+03  0.0000E+00
131200.E-01  1.2501E+03  0.0000E+00
132800.E-01  5.0005E+02  0.0000E+00
134400.E-01  6.2506E+02  0.0000E+00
136000.E-01  1.2501E+02  0.0000E+00
137600.E-01  1.2501E+02  0.0000E+00
139200.E-01  6.2506E+01  0.0000E+00
140800.E-01  0.0000E+00  0.0000E+00
142400.E-01  0.0000E+00  0.0000E+00
144000.E-01  0.0000E+00  0.0000E+00
145600.E-01  0.0000E+00  0.0000E+00
147200.E-01  0.0000E+00  0.0000E+00
148800.E-01  0.0000E+00  0.0000E+00
150400.E-01  0.0000E+00  0.0000E+00
152000.E-01  0.0000E+00  0.0000E+00
153600.E-01  0.0000E+00  0.0000E+00
155200.E-01  0.0000E+00  0.0000E+00
156800.E-01  0.0000E+00  0.0000E+00
158400.E-01  0.0000E+00  0.0000E+00
160000.E-01  0.0000E+00  0.0000E+00
