====== H (100) into Layer 1                     =======
        SRIM-2013.00
==================================================
      ION and final RECOIL ATOM Distributions     
 See  SRIM Outputs\TDATA.txt for calculation details
==================================================
--------------------------------------------------------------------
    Recoil/Damage Calculations made with Kinchin-Pease Estimates    
--------------------------------------------------------------------
----------------------------------------------------------------
  There are NO RECOILS unless a full TRIM calculation is made.   
----------------------------------------------------------------
See file :  SRIM Outputs\TDATA.txt   for details of calculation
 Ion    =  H   Energy = 800  keV
============= TARGET MATERIAL ======================================
Layer  1 : Layer 1
Layer Width =     6.E+04 A   Layer # 1- Density = 8.481E22 atoms/cm3 = 7.865 g/cm3
  Layer # 1- Fe = 100  Atomic Percent = 100  Mass Percent
====================================================================
 Total Ions calculated =9999.00
 Ion Average Range =   471.9E+02 A   Straggling =   226.6E+01 A
 Ion Lateral Range =   292.3E+01 A   Straggling =   401.8E+01 A
 Ion Radial  Range =   463.6E+01 A   Straggling =   335.7E+01 A
====================================================================
 Transmitted Ions =;  Backscattered Ions =1
 (These are not included in Skewne- and Kurtosis below.)

 Range Skewne- = -004.9360  &= [-(X-Rp)^3]/[N*Straggle^3]
 Range Kurtosis = 055.5034  &= [-(X-Rp)^4]/[N*Straggle^4]
 Statistical definitions above are those used in VLSI implant modelling.
====================================================================
=================================================================
  Table Distribution Units are >>>  (Atoms/cm3) / (Atoms/cm2)  <<<  
=================================================================
   DEPTH          H       Recoil     
   (Ang.)       Ions     Distribution
-----------  ----------  ------------
551210.E-03  0.0000E+00  0.0000E+00
110241.E-02  0.0000E+00  0.0000E+00
165361.E-02  0.0000E+00  0.0000E+00
220481.E-02  0.0000E+00  0.0000E+00
275601.E-02  0.0000E+00  0.0000E+00
330721.E-02  0.0000E+00  0.0000E+00
385841.E-02  0.0000E+00  0.0000E+00
440961.E-02  0.0000E+00  0.0000E+00
496081.E-02  0.0000E+00  0.0000E+00
551201.E-02  0.0000E+00  0.0000E+00
606321.E-02  0.0000E+00  0.0000E+00
661441.E-02  0.0000E+00  0.0000E+00
716561.E-02  0.0000E+00  0.0000E+00
771681.E-02  0.0000E+00  0.0000E+00
826801.E-02  0.0000E+00  0.0000E+00
881921.E-02  0.0000E+00  0.0000E+00
937041.E-02  1.8144E+01  0.0000E+00
992161.E-02  3.6288E+01  0.0000E+00
104728.E-01  0.0000E+00  0.0000E+00
110240.E-01  0.0000E+00  0.0000E+00
115752.E-01  0.0000E+00  0.0000E+00
121264.E-01  0.0000E+00  0.0000E+00
126776.E-01  0.0000E+00  0.0000E+00
132288.E-01  0.0000E+00  0.0000E+00
137800.E-01  0.0000E+00  0.0000E+00
143312.E-01  0.0000E+00  0.0000E+00
148824.E-01  0.0000E+00  0.0000E+00
154336.E-01  0.0000E+00  0.0000E+00
159848.E-01  0.0000E+00  0.0000E+00
165360.E-01  1.8144E+01  0.0000E+00
170872.E-01  0.0000E+00  0.0000E+00
176384.E-01  3.6288E+01  0.0000E+00
181896.E-01  1.8144E+01  0.0000E+00
187408.E-01  0.0000E+00  0.0000E+00
192920.E-01  0.0000E+00  0.0000E+00
198432.E-01  0.0000E+00  0.0000E+00
203944.E-01  1.8144E+01  0.0000E+00
209456.E-01  0.0000E+00  0.0000E+00
214968.E-01  0.0000E+00  0.0000E+00
220480.E-01  1.8144E+01  0.0000E+00
225992.E-01  0.0000E+00  0.0000E+00
231504.E-01  0.0000E+00  0.0000E+00
237016.E-01  0.0000E+00  0.0000E+00
242528.E-01  1.8144E+01  0.0000E+00
248040.E-01  1.8144E+01  0.0000E+00
253552.E-01  1.8144E+01  0.0000E+00
259064.E-01  3.6288E+01  0.0000E+00
264576.E-01  1.8144E+01  0.0000E+00
270088.E-01  0.0000E+00  0.0000E+00
275600.E-01  3.6288E+01  0.0000E+00
281112.E-01  1.8144E+01  0.0000E+00
286624.E-01  1.8144E+01  0.0000E+00
292136.E-01  1.8144E+01  0.0000E+00
297648.E-01  3.6288E+01  0.0000E+00
303160.E-01  7.2576E+01  0.0000E+00
308672.E-01  1.8144E+01  0.0000E+00
314184.E-01  0.0000E+00  0.0000E+00
319696.E-01  1.8144E+01  0.0000E+00
325208.E-01  1.0886E+02  0.0000E+00
330720.E-01  1.8144E+01  0.0000E+00
336232.E-01  1.8144E+01  0.0000E+00
341744.E-01  5.4432E+01  0.0000E+00
347256.E-01  5.4432E+01  0.0000E+00
352768.E-01  1.0886E+02  0.0000E+00
358280.E-01  5.4432E+01  0.0000E+00
363792.E-01  1.0886E+02  0.0000E+00
369304.E-01  1.4515E+02  0.0000E+00
374816.E-01  1.4515E+02  0.0000E+00
380328.E-01  1.4515E+02  0.0000E+00
385840.E-01  5.4432E+01  0.0000E+00
391352.E-01  2.3587E+02  0.0000E+00
396864.E-01  2.9030E+02  0.0000E+00
402376.E-01  1.8144E+02  0.0000E+00
407888.E-01  3.2659E+02  0.0000E+00
413400.E-01  4.5360E+02  0.0000E+00
418912.E-01  6.5319E+02  0.0000E+00
424424.E-01  6.1690E+02  0.0000E+00
429936.E-01  1.0342E+03  0.0000E+00
435448.E-01  1.2519E+03  0.0000E+00
440960.E-01  2.0321E+03  0.0000E+00
446472.E-01  2.9393E+03  0.0000E+00
451984.E-01  5.4614E+03  0.0000E+00
457496.E-01  9.3986E+03  0.0000E+00
463008.E-01  1.3880E+04  0.0000E+00
468520.E-01  2.0085E+04  0.0000E+00
474032.E-01  2.6817E+04  0.0000E+00
479544.E-01  2.7815E+04  0.0000E+00
485056.E-01  2.5819E+04  0.0000E+00
490568.E-01  1.9414E+04  0.0000E+00
496080.E-01  1.1957E+04  0.0000E+00
501592.E-01  5.5339E+03  0.0000E+00
507104.E-01  2.3769E+03  0.0000E+00
512616.E-01  1.0524E+03  0.0000E+00
518128.E-01  1.4515E+02  0.0000E+00
523640.E-01  1.0886E+02  0.0000E+00
529152.E-01  0.0000E+00  0.0000E+00
534664.E-01  0.0000E+00  0.0000E+00
540176.E-01  0.0000E+00  0.0000E+00
545688.E-01  0.0000E+00  0.0000E+00
551200.E-01  0.0000E+00  0.0000E+00
