====== H (170) into Layer 1                     =======
        SRIM-2013.00
=======================================
    Energy transferred to RECOILS      
 See SRIM Outputs\TDATA.txt for calc. details 
=======================================
--------------------------------------------------------------------
    Recoil/Damage Calculations made with Kinchin-Pease Estimates    
--------------------------------------------------------------------
 See file: SRIM Outputs\TDATA.txt for data about the calculation
 Ion    =  H   Energy = 1150 keV
============= TARGET MATERIAL ======================================
Layer  1 : Layer 1
Layer Width = 83000.E+00 AAA ;
  Layer # 1- Density = 6.338E22 atoms/cm3 = 19.35 g/cm3
  Layer # 1-  W = 100  Atomic Percent = 100  Mass Percent
====================================================================
 Total Ions calculated =9999.00
===========================================================
  Table Energy Units are  >>>>  eV /(Angstrom-Ion)  <<<<  
===========================================================
   DEPTH       ENERGY       ENERGY    
   DEPTH        from        Absorbed  
   (Ang.)       IONS        by Recoils
----------   ------------  -----------
830010.E-03  9278.65E-06  9281.90E-06
166001.E-02  6131.00E-06  6145.09E-06
249001.E-02  5851.38E-06  5870.54E-06
332001.E-02  6707.40E-06  6741.02E-06
415001.E-02  5961.38E-06  5988.49E-06
498001.E-02  5855.11E-06  5872.46E-06
581001.E-02  5639.36E-06  5670.45E-06
664001.E-02  5657.41E-06  5690.30E-06
747001.E-02  6229.12E-06  6264.55E-06
830001.E-02  6232.49E-06  6265.39E-06
913001.E-02  6050.91E-06  6080.56E-06
996001.E-02  5603.69E-06  5642.37E-06
107900.E-01  5254.86E-06  5288.48E-06
116200.E-01  5535.15E-06  5573.46E-06
124500.E-01  5705.93E-06  5738.46E-06
132800.E-01  6173.90E-06  6202.46E-06
141100.E-01  5766.19E-06  5801.61E-06
149400.E-01  6782.93E-06  6816.91E-06
157700.E-01  7240.04E-06  7274.38E-06
166000.E-01  6722.73E-06  6762.49E-06
174300.E-01  6454.00E-06  6493.04E-06
182600.E-01  6248.62E-06  6287.66E-06
190900.E-01  6255.99E-06  6289.97E-06
199200.E-01  7257.11E-06  7294.34E-06
207500.E-01  7843.99E-06  7883.03E-06
215800.E-01  7419.25E-06  7458.65E-06
224100.E-01  8016.35E-06  8057.56E-06
232400.E-01  7984.92E-06  8035.53E-06
240700.E-01  7865.83E-06  7915.71E-06
249000.E-01  7827.69E-06  7869.99E-06
257300.E-01  7536.07E-06  7588.84E-06
265600.E-01  7533.73E-06  7581.81E-06
273900.E-01  7638.99E-06  7689.24E-06
282200.E-01  7711.24E-06  7757.15E-06
290500.E-01  7903.34E-06  7948.16E-06
298800.E-01  8119.82E-06  8169.70E-06
307100.E-01  8630.17E-06  8669.58E-06
315400.E-01  9570.88E-06  9620.76E-06
323700.E-01  9774.04E-06  9830.07E-06
332000.E-01  9282.98E-06  9339.37E-06
340300.E-01  8886.12E-06  8936.00E-06
348600.E-01  8756.88E-06  8812.19E-06
356900.E-01  8994.62E-06  9051.01E-06
365200.E-01  1042.79E-05  1049.37E-05
373500.E-01  1042.74E-05  1048.45E-05
381800.E-01  1050.36E-05  1056.55E-05
390100.E-01  9590.07E-06  9657.67E-06
398400.E-01  1014.37E-05  1020.58E-05
406700.E-01  1047.42E-05  1053.67E-05
415000.E-01  1102.60E-05  1109.43E-05
423300.E-01  1187.89E-05  1194.79E-05
431600.E-01  1300.21E-05  1307.26E-05
439900.E-01  1388.93E-05  1395.47E-05
448200.E-01  1356.10E-05  1364.56E-05
456500.E-01  1184.44E-05  1191.92E-05
464800.E-01  1149.86E-05  1157.74E-05
473100.E-01  1329.68E-05  1336.76E-05
481400.E-01  1461.31E-05  1469.80E-05
489700.E-01  1480.90E-05  1491.02E-05
498000.E-01  1480.25E-05  1491.16E-05
506300.E-01  1514.36E-05  1524.63E-05
514600.E-01  1670.89E-05  1681.55E-05
522900.E-01  1682.03E-05  1693.64E-05
531200.E-01  1648.95E-05  1660.08E-05
539500.E-01  1826.33E-05  1837.97E-05
547800.E-01  1646.43E-05  1659.63E-05
556100.E-01  1674.92E-05  1688.62E-05
564400.E-01  1985.81E-05  1999.70E-05
572700.E-01  2188.90E-05  2202.97E-05
581000.E-01  2065.14E-05  2082.02E-05
589300.E-01  2180.86E-05  2198.06E-05
597600.E-01  2325.80E-05  2345.61E-05
605900.E-01  2378.11E-05  2399.98E-05
614200.E-01  2850.28E-05  2874.72E-05
622500.E-01  3389.22E-05  3416.01E-05
630800.E-01  3491.48E-05  3522.06E-05
639100.E-01  3429.04E-05  3463.89E-05
647400.E-01  3808.39E-05  3845.80E-05
655700.E-01  3951.81E-05  3993.31E-05
664000.E-01  3818.35E-05  3862.82E-05
672300.E-01  3874.46E-05  3922.32E-05
680600.E-01  3839.41E-05  3886.48E-05
688900.E-01  3270.42E-05  3315.06E-05
697200.E-01  2689.86E-05  2728.40E-05
705500.E-01  2010.17E-05  2039.09E-05
713800.E-01  1370.10E-05  1391.10E-05
722100.E-01  8211.94E-06  8333.76E-06
730400.E-01  4637.45E-06  4715.17E-06
738700.E-01  2442.05E-06  2482.53E-06
747000.E-01  9073.25E-07  9225.07E-07
755300.E-01  2690.37E-07  2722.90E-07
763600.E-01  1037.77E-07  1063.07E-07
771900.E-01  3158.48E-08  3230.77E-08
780200.E-01  1780.65E-08  1816.80E-08
788500.E-01  0000.00E+00  0000.00E+00
796800.E-01  0000.00E+00  0000.00E+00
805100.E-01  0000.00E+00  0000.00E+00
813400.E-01  0000.00E+00  0000.00E+00
821700.E-01  0000.00E+00  0000.00E+00
830000.E-01  0000.00E+00  0000.00E+00
