====== O (10) into Layer 1                      =======
        SRIM-2013.00
==================================================
      ION and final RECOIL ATOM Distributions     
 See  SRIM Outputs\TDATA.txt for calculation details
==================================================
--------------------------------------------------------------------
    Recoil/Damage Calculations made with Kinchin-Pease Estimates    
--------------------------------------------------------------------
----------------------------------------------------------------
  There are NO RECOILS unless a full TRIM calculation is made.   
----------------------------------------------------------------
See file :  SRIM Outputs\TDATA.txt   for details of calculation
 Ion    =  O   Energy = 2650  keV
============= TARGET MATERIAL ======================================
Layer  1 : Layer 1
Layer Width =     2.E+04 A   Layer # 1- Density = 6.338E22 atoms/cm3 = 19.35 g/cm3
  Layer # 1-  W = 100  Atomic Percent = 100  Mass Percent
====================================================================
 Total Ions calculated =9999.00
 Ion Average Range =   102.0E+02 A   Straggling =   207.4E+01 A
 Ion Lateral Range =   231.3E+01 A   Straggling =   286.9E+01 A
 Ion Radial  Range =   362.5E+01 A   Straggling =   179.5E+01 A
====================================================================
 Transmitted Ions =;  Backscattered Ions =35
 (These are not included in Skewne- and Kurtosis below.)

 Range Skewne- = -001.0567  &= [-(X-Rp)^3]/[N*Straggle^3]
 Range Kurtosis = 004.5493  &= [-(X-Rp)^4]/[N*Straggle^4]
 Statistical definitions above are those used in VLSI implant modelling.
====================================================================
=================================================================
  Table Distribution Units are >>>  (Atoms/cm3) / (Atoms/cm2)  <<<  
=================================================================
   DEPTH          O       Recoil     
   (Ang.)       Ions     Distribution
-----------  ----------  ------------
183010.E-03  1.0930E+02  0.0000E+00
366010.E-03  5.4650E+01  0.0000E+00
549010.E-03  2.1860E+02  0.0000E+00
732010.E-03  1.0930E+02  0.0000E+00
915010.E-03  5.4650E+01  0.0000E+00
109801.E-02  0.0000E+00  0.0000E+00
128101.E-02  0.0000E+00  0.0000E+00
146401.E-02  1.6395E+02  0.0000E+00
164701.E-02  3.2790E+02  0.0000E+00
183001.E-02  5.4650E+01  0.0000E+00
201301.E-02  2.7325E+02  0.0000E+00
219601.E-02  2.7325E+02  0.0000E+00
237901.E-02  2.1860E+02  0.0000E+00
256201.E-02  3.2790E+02  0.0000E+00
274501.E-02  3.8255E+02  0.0000E+00
292801.E-02  3.2790E+02  0.0000E+00
311101.E-02  4.3720E+02  0.0000E+00
329401.E-02  7.1045E+02  0.0000E+00
347701.E-02  6.5580E+02  0.0000E+00
366001.E-02  9.2905E+02  0.0000E+00
384301.E-02  1.2570E+03  0.0000E+00
402601.E-02  7.6510E+02  0.0000E+00
420901.E-02  9.8370E+02  0.0000E+00
439201.E-02  5.4650E+02  0.0000E+00
457501.E-02  1.0384E+03  0.0000E+00
475801.E-02  9.2905E+02  0.0000E+00
494101.E-02  1.8581E+03  0.0000E+00
512401.E-02  1.9128E+03  0.0000E+00
530701.E-02  1.5849E+03  0.0000E+00
549001.E-02  2.0221E+03  0.0000E+00
567301.E-02  1.9674E+03  0.0000E+00
585601.E-02  1.8581E+03  0.0000E+00
603901.E-02  2.2407E+03  0.0000E+00
622201.E-02  3.0058E+03  0.0000E+00
640501.E-02  2.9511E+03  0.0000E+00
658801.E-02  3.1151E+03  0.0000E+00
677101.E-02  3.4976E+03  0.0000E+00
695401.E-02  3.1151E+03  0.0000E+00
713701.E-02  4.2081E+03  0.0000E+00
732001.E-02  4.4813E+03  0.0000E+00
750301.E-02  5.1371E+03  0.0000E+00
768601.E-02  6.8859E+03  0.0000E+00
786901.E-02  6.2301E+03  0.0000E+00
805201.E-02  7.9243E+03  0.0000E+00
823501.E-02  8.9627E+03  0.0000E+00
841801.E-02  8.8534E+03  0.0000E+00
860101.E-02  1.0384E+04  0.0000E+00
878401.E-02  1.1422E+04  0.0000E+00
896701.E-02  1.0766E+04  0.0000E+00
915001.E-02  1.2242E+04  0.0000E+00
933301.E-02  1.2788E+04  0.0000E+00
951601.E-02  1.5849E+04  0.0000E+00
969901.E-02  1.6176E+04  0.0000E+00
988201.E-02  1.8417E+04  0.0000E+00
100650.E-01  1.6559E+04  0.0000E+00
102480.E-01  1.9783E+04  0.0000E+00
104310.E-01  2.1478E+04  0.0000E+00
106140.E-01  2.0876E+04  0.0000E+00
107970.E-01  2.2297E+04  0.0000E+00
109800.E-01  2.0494E+04  0.0000E+00
111630.E-01  2.2571E+04  0.0000E+00
113460.E-01  2.2243E+04  0.0000E+00
115290.E-01  2.2243E+04  0.0000E+00
117120.E-01  2.1368E+04  0.0000E+00
118950.E-01  2.0931E+04  0.0000E+00
120780.E-01  1.9729E+04  0.0000E+00
122610.E-01  1.6996E+04  0.0000E+00
124440.E-01  1.8308E+04  0.0000E+00
126270.E-01  1.5083E+04  0.0000E+00
128100.E-01  1.1914E+04  0.0000E+00
129930.E-01  9.0173E+03  0.0000E+00
131760.E-01  6.8859E+03  0.0000E+00
133590.E-01  5.3011E+03  0.0000E+00
135420.E-01  3.7162E+03  0.0000E+00
137250.E-01  2.5139E+03  0.0000E+00
139080.E-01  1.0930E+03  0.0000E+00
140910.E-01  9.8370E+02  0.0000E+00
142740.E-01  4.3720E+02  0.0000E+00
144570.E-01  4.3720E+02  0.0000E+00
146400.E-01  1.6395E+02  0.0000E+00
148230.E-01  5.4650E+01  0.0000E+00
150060.E-01  0.0000E+00  0.0000E+00
151890.E-01  5.4650E+01  0.0000E+00
153720.E-01  0.0000E+00  0.0000E+00
155550.E-01  0.0000E+00  0.0000E+00
157380.E-01  0.0000E+00  0.0000E+00
159210.E-01  0.0000E+00  0.0000E+00
161040.E-01  0.0000E+00  0.0000E+00
162870.E-01  0.0000E+00  0.0000E+00
164700.E-01  0.0000E+00  0.0000E+00
166530.E-01  0.0000E+00  0.0000E+00
168360.E-01  0.0000E+00  0.0000E+00
170190.E-01  0.0000E+00  0.0000E+00
172020.E-01  0.0000E+00  0.0000E+00
173850.E-01  0.0000E+00  0.0000E+00
175680.E-01  0.0000E+00  0.0000E+00
177510.E-01  0.0000E+00  0.0000E+00
179340.E-01  0.0000E+00  0.0000E+00
181170.E-01  0.0000E+00  0.0000E+00
183000.E-01  0.0000E+00  0.0000E+00
