====== W (10) into Layer 1                      =======
        SRIM-2013.00
=======================================
    Energy transferred to RECOILS      
 See SRIM Outputs\TDATA.txt for calc. details 
=======================================
--------------------------------------------------------------------
    Recoil/Damage Calculations made with Kinchin-Pease Estimates    
--------------------------------------------------------------------
 See file: SRIM Outputs\TDATA.txt for data about the calculation
 Ion    =  W   Energy = 14500 keV
============= TARGET MATERIAL ======================================
Layer  1 : Layer 1
Layer Width = 20000.E+00 AAA ;
  Layer # 1- Density = 6.338E22 atoms/cm3 = 19.35 g/cm3
  Layer # 1-  W = 100  Atomic Percent = 100  Mass Percent
====================================================================
 Total Ions calculated =9999.00
===========================================================
  Table Energy Units are  >>>>  eV /(Angstrom-Ion)  <<<<  
===========================================================
   DEPTH       ENERGY       ENERGY    
   DEPTH        from        Absorbed  
   (Ang.)       IONS        by Recoils
----------   ------------  -----------
200010.E-03  3808.53E-01  3809.17E-01
400010.E-03  4529.19E-01  4529.87E-01
600010.E-03  4191.70E-01  4192.38E-01
800010.E-03  4263.72E-01  4264.41E-01
100001.E-02  3866.85E-01  3867.55E-01
120001.E-02  3968.04E-01  3968.75E-01
140001.E-02  4086.68E-01  4087.41E-01
160001.E-02  4300.46E-01  4301.19E-01
180001.E-02  4175.23E-01  4175.97E-01
200001.E-02  3994.34E-01  3995.09E-01
220001.E-02  4781.59E-01  4782.35E-01
240001.E-02  4726.78E-01  4727.54E-01
260001.E-02  4852.49E-01  4853.28E-01
280001.E-02  5124.09E-01  5124.88E-01
300001.E-02  4645.93E-01  4646.72E-01
320001.E-02  5079.32E-01  5080.14E-01
340001.E-02  5275.35E-01  5276.18E-01
360001.E-02  4788.91E-01  4789.75E-01
380001.E-02  5095.51E-01  5096.37E-01
400001.E-02  5214.64E-01  5215.51E-01
420001.E-02  5411.07E-01  5411.96E-01
440001.E-02  5360.64E-01  5361.54E-01
460001.E-02  5411.16E-01  5412.07E-01
480001.E-02  5618.58E-01  5619.50E-01
500001.E-02  5477.03E-01  5477.98E-01
520001.E-02  5215.18E-01  5216.12E-01
540001.E-02  5520.87E-01  5521.81E-01
560001.E-02  6124.60E-01  6125.57E-01
580001.E-02  5986.83E-01  5987.81E-01
600001.E-02  6405.13E-01  6406.13E-01
620001.E-02  6038.61E-01  6039.64E-01
640001.E-02  6147.48E-01  6148.52E-01
660001.E-02  6255.64E-01  6256.70E-01
680001.E-02  6474.53E-01  6475.60E-01
700001.E-02  6867.98E-01  6869.05E-01
720001.E-02  6654.94E-01  6656.02E-01
740001.E-02  6846.44E-01  6847.57E-01
760001.E-02  6429.51E-01  6430.64E-01
780001.E-02  6683.65E-01  6684.78E-01
800001.E-02  6939.35E-01  6940.49E-01
820001.E-02  6895.20E-01  6896.36E-01
840001.E-02  6799.68E-01  6800.85E-01
860001.E-02  7127.87E-01  7129.05E-01
880001.E-02  6662.60E-01  6663.77E-01
900001.E-02  6687.03E-01  6688.22E-01
920001.E-02  7113.12E-01  7114.30E-01
940001.E-02  6695.08E-01  6696.26E-01
960001.E-02  6794.55E-01  6795.72E-01
980001.E-02  6545.84E-01  6547.00E-01
100000.E-01  6294.75E-01  6295.88E-01
102000.E-01  6204.06E-01  6205.16E-01
104000.E-01  6166.66E-01  6167.77E-01
106000.E-01  6304.74E-01  6305.85E-01
108000.E-01  6037.84E-01  6038.94E-01
110000.E-01  5979.84E-01  5980.92E-01
112000.E-01  5682.67E-01  5683.71E-01
114000.E-01  5367.15E-01  5368.16E-01
116000.E-01  5305.47E-01  5306.45E-01
118000.E-01  5142.01E-01  5142.98E-01
120000.E-01  4726.08E-01  4726.99E-01
122000.E-01  4477.62E-01  4478.47E-01
124000.E-01  4321.05E-01  4321.89E-01
126000.E-01  3905.91E-01  3906.70E-01
128000.E-01  3705.52E-01  3706.25E-01
130000.E-01  3431.63E-01  3432.33E-01
132000.E-01  3288.48E-01  3289.12E-01
134000.E-01  2753.97E-01  2754.57E-01
136000.E-01  2487.01E-01  2487.55E-01
138000.E-01  2218.40E-01  2218.90E-01
140000.E-01  2085.61E-01  2086.05E-01
142000.E-01  1792.64E-01  1793.01E-01
144000.E-01  1529.30E-01  1529.65E-01
146000.E-01  1406.22E-01  1406.52E-01
148000.E-01  1201.45E-01  1201.73E-01
150000.E-01  1031.29E-01  1031.52E-01
152000.E-01  8455.18E-02  8457.13E-02
154000.E-01  7071.25E-02  7072.90E-02
156000.E-01  5924.72E-02  5926.21E-02
158000.E-01  4639.20E-02  4640.43E-02
160000.E-01  3868.14E-02  3869.11E-02
162000.E-01  3231.13E-02  3231.86E-02
164000.E-01  2424.11E-02  2424.73E-02
166000.E-01  1666.81E-02  1667.26E-02
168000.E-01  1364.02E-02  1364.39E-02
170000.E-01  8877.08E-03  8879.97E-03
172000.E-01  5437.91E-03  5439.87E-03
174000.E-01  6269.65E-03  6271.21E-03
176000.E-01  3003.22E-03  3004.16E-03
178000.E-01  3411.95E-03  3412.76E-03
180000.E-01  1505.04E-03  1505.58E-03
182000.E-01  1049.25E-03  1049.52E-03
184000.E-01  6013.88E-04  6016.43E-04
186000.E-01  2517.61E-04  2518.60E-04
188000.E-01  3988.59E-04  3989.32E-04
190000.E-01  3910.67E-04  3911.55E-04
192000.E-01  1814.64E-04  1815.09E-04
194000.E-01  2734.35E-04  2734.78E-04
196000.E-01  2942.28E-05  2945.73E-05
198000.E-01  0000.00E+00  0000.00E+00
200000.E-01  0000.00E+00  0000.00E+00
