====== W (10) into Layer 1                      =======
        SRIM-2013.00
==================================================
      ION and final RECOIL ATOM Distributions     
 See  SRIM Outputs\TDATA.txt for calculation details
==================================================
--------------------------------------------------------------------
    Recoil/Damage Calculations made with Kinchin-Pease Estimates    
--------------------------------------------------------------------
----------------------------------------------------------------
  There are NO RECOILS unless a full TRIM calculation is made.   
----------------------------------------------------------------
See file :  SRIM Outputs\TDATA.txt   for details of calculation
 Ion    =  W   Energy = 115000  keV
============= TARGET MATERIAL ======================================
Layer  1 : Layer 1
Layer Width =     7.E+04 A   Layer # 1- Density = 6.338E22 atoms/cm3 = 19.35 g/cm3
  Layer # 1-  W = 100  Atomic Percent = 100  Mass Percent
====================================================================
 Total Ions calculated =9999.00
 Ion Average Range =   527.4E+02 A   Straggling =   628.9E+01 A
 Ion Lateral Range =   651.2E+01 A   Straggling =   813.8E+01 A
 Ion Radial  Range =   101.8E+02 A   Straggling =   529.9E+01 A
====================================================================
 Range Skewne- = -001.4955  &= [-(X-Rp)^3]/[N*Straggle^3]
 Range Kurtosis = 006.9567  &= [-(X-Rp)^4]/[N*Straggle^4]
 Statistical definitions above are those used in VLSI implant modelling.
====================================================================
=================================================================
  Table Distribution Units are >>>  (Atoms/cm3) / (Atoms/cm2)  <<<  
=================================================================
   DEPTH          W       Recoil     
   (Ang.)       Ions     Distribution
-----------  ----------  ------------
700010.E-03  0.0000E+00  0.0000E+00
140001.E-02  0.0000E+00  0.0000E+00
210001.E-02  0.0000E+00  0.0000E+00
280001.E-02  0.0000E+00  0.0000E+00
350001.E-02  0.0000E+00  0.0000E+00
420001.E-02  0.0000E+00  0.0000E+00
490001.E-02  0.0000E+00  0.0000E+00
560001.E-02  0.0000E+00  0.0000E+00
630001.E-02  0.0000E+00  0.0000E+00
700001.E-02  0.0000E+00  0.0000E+00
770001.E-02  0.0000E+00  0.0000E+00
840001.E-02  0.0000E+00  0.0000E+00
910001.E-02  0.0000E+00  0.0000E+00
980001.E-02  1.4287E+01  0.0000E+00
105000.E-01  0.0000E+00  0.0000E+00
112000.E-01  0.0000E+00  0.0000E+00
119000.E-01  1.4287E+01  0.0000E+00
126000.E-01  1.4287E+01  0.0000E+00
133000.E-01  0.0000E+00  0.0000E+00
140000.E-01  1.4287E+01  0.0000E+00
147000.E-01  2.8574E+01  0.0000E+00
154000.E-01  1.4287E+01  0.0000E+00
161000.E-01  0.0000E+00  0.0000E+00
168000.E-01  2.8574E+01  0.0000E+00
175000.E-01  2.8574E+01  0.0000E+00
182000.E-01  0.0000E+00  0.0000E+00
189000.E-01  2.8574E+01  0.0000E+00
196000.E-01  4.2861E+01  0.0000E+00
203000.E-01  1.4287E+01  0.0000E+00
210000.E-01  2.8574E+01  0.0000E+00
217000.E-01  5.7149E+01  0.0000E+00
224000.E-01  4.2861E+01  0.0000E+00
231000.E-01  0.0000E+00  0.0000E+00
238000.E-01  7.1436E+01  0.0000E+00
245000.E-01  5.7149E+01  0.0000E+00
252000.E-01  2.8574E+01  0.0000E+00
259000.E-01  8.5723E+01  0.0000E+00
266000.E-01  7.1436E+01  0.0000E+00
273000.E-01  1.0001E+02  0.0000E+00
280000.E-01  7.1436E+01  0.0000E+00
287000.E-01  8.5723E+01  0.0000E+00
294000.E-01  8.5723E+01  0.0000E+00
301000.E-01  1.7145E+02  0.0000E+00
308000.E-01  1.4287E+02  0.0000E+00
315000.E-01  1.1430E+02  0.0000E+00
322000.E-01  1.8573E+02  0.0000E+00
329000.E-01  2.4288E+02  0.0000E+00
336000.E-01  2.5717E+02  0.0000E+00
343000.E-01  2.1431E+02  0.0000E+00
350000.E-01  1.5716E+02  0.0000E+00
357000.E-01  4.1433E+02  0.0000E+00
364000.E-01  3.5718E+02  0.0000E+00
371000.E-01  5.2862E+02  0.0000E+00
378000.E-01  4.0004E+02  0.0000E+00
385000.E-01  4.7148E+02  0.0000E+00
392000.E-01  5.2862E+02  0.0000E+00
399000.E-01  5.4291E+02  0.0000E+00
406000.E-01  7.7151E+02  0.0000E+00
413000.E-01  9.8581E+02  0.0000E+00
420000.E-01  1.1430E+03  0.0000E+00
427000.E-01  1.0858E+03  0.0000E+00
434000.E-01  1.1858E+03  0.0000E+00
441000.E-01  1.5287E+03  0.0000E+00
448000.E-01  1.5573E+03  0.0000E+00
455000.E-01  1.9859E+03  0.0000E+00
462000.E-01  2.4145E+03  0.0000E+00
469000.E-01  2.3288E+03  0.0000E+00
476000.E-01  2.5431E+03  0.0000E+00
483000.E-01  4.0290E+03  0.0000E+00
490000.E-01  3.7718E+03  0.0000E+00
497000.E-01  4.1576E+03  0.0000E+00
504000.E-01  4.1861E+03  0.0000E+00
511000.E-01  5.0862E+03  0.0000E+00
518000.E-01  5.7149E+03  0.0000E+00
525000.E-01  6.6578E+03  0.0000E+00
532000.E-01  6.9293E+03  0.0000E+00
539000.E-01  7.3722E+03  0.0000E+00
546000.E-01  7.7293E+03  0.0000E+00
553000.E-01  7.9722E+03  0.0000E+00
560000.E-01  7.8294E+03  0.0000E+00
567000.E-01  8.4723E+03  0.0000E+00
574000.E-01  7.8008E+03  0.0000E+00
581000.E-01  7.2293E+03  0.0000E+00
588000.E-01  6.1006E+03  0.0000E+00
595000.E-01  6.1578E+03  0.0000E+00
602000.E-01  4.0861E+03  0.0000E+00
609000.E-01  3.1860E+03  0.0000E+00
616000.E-01  2.2288E+03  0.0000E+00
623000.E-01  1.3287E+03  0.0000E+00
630000.E-01  9.2866E+02  0.0000E+00
637000.E-01  3.5718E+02  0.0000E+00
644000.E-01  1.8573E+02  0.0000E+00
651000.E-01  5.7149E+01  0.0000E+00
658000.E-01  1.4287E+01  0.0000E+00
665000.E-01  0.0000E+00  0.0000E+00
672000.E-01  0.0000E+00  0.0000E+00
679000.E-01  0.0000E+00  0.0000E+00
686000.E-01  0.0000E+00  0.0000E+00
693000.E-01  0.0000E+00  0.0000E+00
700000.E-01  0.0000E+00  0.0000E+00
