====== Fe (1500) into Layer 1                   =======
        SRIM-2013.00
=======================================
    Energy transferred to RECOILS      
 See SRIM Outputs\TDATA.txt for calc. details 
=======================================
--------------------------------------------------------------------
    Recoil/Damage Calculations made with Kinchin-Pease Estimates    
--------------------------------------------------------------------
 See file: SRIM Outputs\TDATA.txt for data about the calculation
 Ion    = Fe   Energy = 45000 keV
============= TARGET MATERIAL ======================================
Layer  1 : Layer 1
Layer Width = 56470.E+00 AAA ;
  Layer # 1- Density = 8.481E22 atoms/cm3 = 7.865 g/cm3
  Layer # 1- Fe = 100  Atomic Percent = 100  Mass Percent
====================================================================
 Total Ions calculated =9999.00
===========================================================
  Table Energy Units are  >>>>  eV /(Angstrom-Ion)  <<<<  
===========================================================
   DEPTH       ENERGY       ENERGY    
   DEPTH        from        Absorbed  
   (Ang.)       IONS        by Recoils
----------   ------------  -----------
564710.E-03  5129.22E-03  5140.06E-03
112941.E-02  4475.45E-03  4487.11E-03
169411.E-02  6205.44E-03  6217.31E-03
225881.E-02  5548.21E-03  5560.23E-03
282351.E-02  6010.06E-03  6022.25E-03
338821.E-02  4399.73E-03  4412.22E-03
395291.E-02  7035.05E-03  7047.68E-03
451761.E-02  7182.98E-03  7195.82E-03
508231.E-02  6964.79E-03  6977.77E-03
564701.E-02  4632.36E-03  4645.63E-03
621171.E-02  6322.07E-03  6335.41E-03
677641.E-02  1124.31E-02  1125.67E-02
734111.E-02  8325.87E-03  8339.75E-03
790581.E-02  7025.32E-03  7039.38E-03
847051.E-02  1267.45E-02  1268.88E-02
903521.E-02  6132.32E-03  6146.96E-03
959991.E-02  6639.61E-03  6654.47E-03
101646.E-01  8636.06E-03  8651.26E-03
107293.E-01  1456.62E-02  1458.18E-02
112940.E-01  8573.39E-03  8589.06E-03
118587.E-01  1185.03E-02  1186.64E-02
124234.E-01  8404.87E-03  8421.13E-03
129881.E-01  1148.40E-02  1150.06E-02
135528.E-01  8532.37E-03  8549.19E-03
141175.E-01  1023.08E-02  1024.81E-02
146822.E-01  8955.62E-03  8973.29E-03
152469.E-01  1172.25E-02  1174.06E-02
158116.E-01  9006.13E-03  9024.74E-03
163763.E-01  1043.37E-02  1045.27E-02
169410.E-01  1071.40E-02  1073.34E-02
175057.E-01  1055.76E-02  1057.73E-02
180704.E-01  1063.02E-02  1065.03E-02
186351.E-01  1330.53E-02  1332.60E-02
191998.E-01  1203.12E-02  1205.23E-02
197645.E-01  1129.62E-02  1131.77E-02
203292.E-01  1249.99E-02  1252.21E-02
208939.E-01  1235.04E-02  1237.31E-02
214586.E-01  1761.15E-02  1763.47E-02
220233.E-01  1559.38E-02  1561.78E-02
225880.E-01  1982.03E-02  1984.48E-02
231527.E-01  1791.80E-02  1794.32E-02
237174.E-01  1552.25E-02  1554.84E-02
242821.E-01  1924.93E-02  1927.58E-02
248468.E-01  1605.23E-02  1607.97E-02
254115.E-01  2012.81E-02  2015.61E-02
259762.E-01  2063.13E-02  2066.04E-02
265409.E-01  2076.66E-02  2079.65E-02
271056.E-01  2137.99E-02  2141.05E-02
276703.E-01  2397.90E-02  2401.06E-02
282350.E-01  2391.35E-02  2394.62E-02
287997.E-01  3042.08E-02  3045.44E-02
293644.E-01  2601.45E-02  2604.93E-02
299291.E-01  2624.05E-02  2627.62E-02
304938.E-01  3109.69E-02  3113.41E-02
310585.E-01  2828.31E-02  2832.13E-02
316232.E-01  3287.41E-02  3291.42E-02
321879.E-01  2931.78E-02  2935.90E-02
327526.E-01  3234.57E-02  3238.82E-02
333173.E-01  3440.82E-02  3445.26E-02
338820.E-01  3938.94E-02  3943.51E-02
344467.E-01  3886.98E-02  3891.71E-02
350114.E-01  3955.74E-02  3960.67E-02
355761.E-01  3921.00E-02  3926.13E-02
361408.E-01  4218.07E-02  4223.38E-02
367055.E-01  4524.79E-02  4530.38E-02
372702.E-01  5338.34E-02  5344.20E-02
378349.E-01  5317.64E-02  5323.75E-02
383996.E-01  4959.91E-02  4966.23E-02
389643.E-01  5616.16E-02  5622.81E-02
395290.E-01  5964.53E-02  5971.54E-02
400937.E-01  6115.00E-02  6122.28E-02
406584.E-01  6745.56E-02  6753.20E-02
412231.E-01  7548.95E-02  7556.96E-02
417878.E-01  8283.21E-02  8291.68E-02
423525.E-01  8447.82E-02  8456.57E-02
429172.E-01  8836.95E-02  8845.85E-02
434819.E-01  9474.52E-02  9483.74E-02
440466.E-01  1037.29E-01  1038.26E-01
446113.E-01  1075.57E-01  1076.60E-01
451760.E-01  1099.18E-01  1100.25E-01
457407.E-01  1151.07E-01  1152.19E-01
463054.E-01  1191.37E-01  1192.53E-01
468701.E-01  1168.12E-01  1169.27E-01
474348.E-01  1100.72E-01  1101.83E-01
479995.E-01  9983.66E-02  9993.92E-02
485642.E-01  8212.45E-02  8221.29E-02
491289.E-01  6569.08E-02  6576.58E-02
496936.E-01  4722.48E-02  4727.91E-02
502583.E-01  2983.06E-02  2986.63E-02
508230.E-01  1441.87E-02  1443.78E-02
513877.E-01  6973.23E-03  6982.28E-03
519524.E-01  2552.66E-03  2555.94E-03
525171.E-01  7140.76E-04  7151.78E-04
530818.E-01  1962.66E-04  1965.03E-04
536465.E-01  0000.00E+00  0000.00E+00
542112.E-01  0000.00E+00  0000.00E+00
547759.E-01  0000.00E+00  0000.00E+00
553406.E-01  0000.00E+00  0000.00E+00
559053.E-01  0000.00E+00  0000.00E+00
564700.E-01  0000.00E+00  0000.00E+00
