 ==================================================================
              SRIM version ---> SRIM-2013.00
              Calc. date   ---> May 25, 2022 
 ==================================================================

 Disk File Name = SRIM Outputs\Helium in Iron.txt

 Ion = Helium [2] , Mass = 4.003 amu

 Target Density =  7.8658E+00 g/cm3 = 8.4817E+22 atoms/cm3
 ======= Target  Composition ========
    Atom   Atom   Atomic    Mass     
    Name   Numb   Percent   Percent  
    ----   ----   -------   -------  
     Fe     26    100.00    100.00   
 ====================================
 Bragg Correction = 0.00%
 Stopping Units =  MeV / (mg/cm2) 
 See bottom of Table for other Stopping units 

        Ion        dE/dx      dE/dx     Projected  Longitudinal   Lateral
       Energy      Elec.      Nuclear     Range     Straggling   Straggling
  --------------  ---------- ---------- ----------  ----------  ----------
  10.00 keV   1.223E-01  2.606E-02     389 A       333 A       261 A   
  11.00 keV   1.261E-01  2.524E-02     429 A       356 A       281 A   
  12.00 keV   1.303E-01  2.448E-02     470 A       378 A       300 A   
  13.00 keV   1.359E-01  2.376E-02     510 A       399 A       319 A   
  14.00 keV   1.425E-01  2.310E-02     550 A       420 A       337 A   
  15.00 keV   1.496E-01  2.247E-02     590 A       439 A       354 A   
  16.00 keV   1.568E-01  2.189E-02     629 A       458 A       371 A   
  17.00 keV   1.639E-01  2.134E-02     667 A       475 A       387 A   
  18.00 keV   1.707E-01  2.082E-02     705 A       492 A       403 A   
  20.00 keV   1.837E-01  1.987E-02     779 A       523 A       432 A   
  22.50 keV   1.987E-01  1.881E-02     870 A       558 A       466 A   
  25.00 keV   2.127E-01  1.788E-02     958 A       590 A       498 A   
  27.50 keV   2.259E-01  1.705E-02    1044 A       620 A       528 A   
  30.00 keV   2.385E-01  1.630E-02    1129 A       647 A       555 A   
  32.50 keV   2.505E-01  1.563E-02    1212 A       671 A       581 A   
  35.00 keV   2.621E-01  1.502E-02    1293 A       694 A       606 A   
  37.50 keV   2.732E-01  1.447E-02    1373 A       716 A       629 A   
  40.00 keV   2.840E-01  1.396E-02    1451 A       736 A       651 A   
  45.00 keV   3.046E-01  1.305E-02    1604 A       772 A       692 A   
  50.00 keV   3.241E-01  1.228E-02    1751 A       804 A       730 A   
  55.00 keV   3.426E-01  1.160E-02    1894 A       833 A       764 A   
  60.00 keV   3.602E-01  1.100E-02    2033 A       859 A       796 A   
  65.00 keV   3.771E-01  1.047E-02    2168 A       883 A       826 A   
  70.00 keV   3.933E-01  9.999E-03    2299 A       904 A       854 A   
  80.00 keV   4.238E-01  9.185E-03    2552 A       942 A       904 A   
  90.00 keV   4.522E-01  8.510E-03    2793 A       975 A       949 A   
 100.00 keV   4.787E-01  7.938E-03    3025 A      1004 A       990 A   
 110.00 keV   5.035E-01  7.448E-03    3248 A      1029 A      1027 A   
 120.00 keV   5.269E-01  7.021E-03    3464 A      1052 A      1061 A   
 130.00 keV   5.488E-01  6.647E-03    3672 A      1072 A      1092 A   
 140.00 keV   5.696E-01  6.315E-03    3875 A      1090 A      1121 A   
 150.00 keV   5.892E-01  6.018E-03    4072 A      1107 A      1148 A   
 160.00 keV   6.078E-01  5.752E-03    4264 A      1122 A      1173 A   
 170.00 keV   6.253E-01  5.510E-03    4452 A      1137 A      1197 A   
 180.00 keV   6.420E-01  5.291E-03    4636 A      1150 A      1219 A   
 200.00 keV   6.729E-01  4.905E-03    4992 A      1174 A      1261 A   
 225.00 keV   7.072E-01  4.504E-03    5421 A      1200 A      1307 A   
 250.00 keV   7.375E-01  4.169E-03    5834 A      1224 A      1349 A   
 275.00 keV   7.642E-01  3.885E-03    6234 A      1244 A      1387 A   
 300.00 keV   7.877E-01  3.641E-03    6623 A      1262 A      1422 A   
 325.00 keV   8.085E-01  3.429E-03    7002 A      1279 A      1455 A   
 350.00 keV   8.268E-01  3.243E-03    7374 A      1294 A      1485 A   
 375.00 keV   8.429E-01  3.077E-03    7740 A      1309 A      1514 A   
 400.00 keV   8.570E-01  2.929E-03    8100 A      1322 A      1541 A   
 450.00 keV   8.800E-01  2.676E-03    8807 A      1347 A      1591 A   
 500.00 keV   8.972E-01  2.467E-03    9501 A      1371 A      1637 A   
 550.00 keV   9.098E-01  2.291E-03    1.02 um     1392 A      1680 A   
 600.00 keV   9.184E-01  2.140E-03    1.09 um     1412 A      1721 A   
 650.00 keV   9.239E-01  2.010E-03    1.15 um     1430 A      1760 A   
 700.00 keV   9.268E-01  1.895E-03    1.22 um     1448 A      1796 A   
 800.00 keV   9.266E-01  1.705E-03    1.36 um     1486 A      1867 A   
 900.00 keV   9.205E-01  1.552E-03    1.49 um     1523 A      1933 A   
   1.00 MeV   9.105E-01  1.426E-03    1.63 um     1558 A      1997 A   
   1.10 MeV   8.979E-01  1.320E-03    1.77 um     1592 A      2059 A   
   1.20 MeV   8.836E-01  1.230E-03    1.91 um     1625 A      2120 A   
   1.30 MeV   8.683E-01  1.153E-03    2.05 um     1659 A      2181 A   
   1.40 MeV   8.524E-01  1.085E-03    2.20 um     1692 A      2241 A   
   1.50 MeV   8.362E-01  1.026E-03    2.35 um     1725 A      2301 A   
   1.60 MeV   8.201E-01  9.727E-04    2.50 um     1758 A      2361 A   
   1.70 MeV   8.040E-01  9.253E-04    2.65 um     1791 A      2421 A   
   1.80 MeV   7.883E-01  8.827E-04    2.81 um     1825 A      2482 A   
   2.00 MeV   7.579E-01  8.091E-04    3.14 um     1921 A      2605 A   
   2.25 MeV   7.222E-01  7.337E-04    3.56 um     2061 A      2762 A   
   2.50 MeV   6.892E-01  6.720E-04    4.01 um     2203 A      2925 A   
   2.75 MeV   6.590E-01  6.205E-04    4.48 um     2349 A      3094 A   
   3.00 MeV   6.313E-01  5.768E-04    4.97 um     2498 A      3269 A   
   3.25 MeV   6.058E-01  5.393E-04    5.48 um     2650 A      3451 A   
   3.50 MeV   5.824E-01  5.066E-04    6.01 um     2806 A      3639 A   
   3.75 MeV   5.609E-01  4.779E-04    6.57 um     2965 A      3834 A   
   4.00 MeV   5.410E-01  4.525E-04    7.14 um     3128 A      4036 A   
   4.50 MeV   5.055E-01  4.095E-04    8.35 um     3667 A      4460 A   
   5.00 MeV   4.747E-01  3.744E-04    9.64 um     4199 A      4911 A   
   5.50 MeV   4.479E-01  3.451E-04   11.02 um     4730 A      5389 A   
   6.00 MeV   4.243E-01  3.204E-04   12.47 um     5264 A      5894 A   
   6.50 MeV   4.033E-01  2.991E-04   14.00 um     5802 A      6424 A   
   7.00 MeV   3.845E-01  2.807E-04   15.61 um     6346 A      6980 A   
   8.00 MeV   3.524E-01  2.502E-04   19.05 um     8205 A      8165 A   
   9.00 MeV   3.279E-01  2.260E-04   22.78 um     9962 A      9441 A   
  10.00 MeV   3.051E-01  2.063E-04   26.78 um     1.17 um     1.08 um  
-----------------------------------------------------------
 Multiply Stopping by        for Stopping Units
 -------------------        ------------------
  7.8655E+01                 eV / Angstrom 
  7.8655E+02                keV / micron   
  7.8655E+02                MeV / mm       
  1.0000E+00                keV / (ug/cm2) 
  1.0000E+00                MeV / (mg/cm2) 
  1.0000E+03                keV / (mg/cm2) 
  9.2735E+01                 eV / (1E15 atoms/cm2)
  1.0144E+01                L.S.S. reduced units
 ==================================================================
 (C) 1984,1989,1992,1998,2008 by J.P. Biersack and J.F. Ziegler
