====== Ar (10) into Layer 1                     =======
        SRIM-2013.00
==================================================
      ION and final RECOIL ATOM Distributions     
 See  SRIM Outputs\TDATA.txt for calculation details
==================================================
--------------------------------------------------------------------
    Recoil/Damage Calculations made with Kinchin-Pease Estimates    
--------------------------------------------------------------------
----------------------------------------------------------------
  There are NO RECOILS unless a full TRIM calculation is made.   
----------------------------------------------------------------
See file :  SRIM Outputs\TDATA.txt   for details of calculation
 Ion    = Ar   Energy = 4900  keV
============= TARGET MATERIAL ======================================
Layer  1 : Layer 1
Layer Width =     2.E+04 A   Layer # 1- Density = 6.338E22 atoms/cm3 = 19.35 g/cm3
  Layer # 1-  W = 100  Atomic Percent = 100  Mass Percent
====================================================================
 Total Ions calculated =9999.00
 Ion Average Range =   112.9E+02 A   Straggling =   257.5E+01 A
 Ion Lateral Range =   276.0E+01 A   Straggling =   340.2E+01 A
 Ion Radial  Range =   428.7E+01 A   Straggling =   210.2E+01 A
====================================================================
 Transmitted Ions =;  Backscattered Ions =31
 (These are not included in Skewne- and Kurtosis below.)

 Range Skewne- = -001.0166  &= [-(X-Rp)^3]/[N*Straggle^3]
 Range Kurtosis = 004.3546  &= [-(X-Rp)^4]/[N*Straggle^4]
 Statistical definitions above are those used in VLSI implant modelling.
====================================================================
=================================================================
  Table Distribution Units are >>>  (Atoms/cm3) / (Atoms/cm2)  <<<  
=================================================================
   DEPTH         Ar       Recoil     
   (Ang.)       Ions     Distribution
-----------  ----------  ------------
210010.E-03  4.7624E+01  0.0000E+00
420010.E-03  1.9050E+02  0.0000E+00
630010.E-03  2.3812E+02  0.0000E+00
840010.E-03  1.9050E+02  0.0000E+00
105001.E-02  1.9050E+02  0.0000E+00
126001.E-02  3.8099E+02  0.0000E+00
147001.E-02  1.9050E+02  0.0000E+00
168001.E-02  3.8099E+02  0.0000E+00
189001.E-02  5.2386E+02  0.0000E+00
210001.E-02  3.8099E+02  0.0000E+00
231001.E-02  5.2386E+02  0.0000E+00
252001.E-02  4.2861E+02  0.0000E+00
273001.E-02  5.7149E+02  0.0000E+00
294001.E-02  4.2861E+02  0.0000E+00
315001.E-02  7.6198E+02  0.0000E+00
336001.E-02  6.1911E+02  0.0000E+00
357001.E-02  3.3337E+02  0.0000E+00
378001.E-02  7.6198E+02  0.0000E+00
399001.E-02  4.2861E+02  0.0000E+00
420001.E-02  6.6673E+02  0.0000E+00
441001.E-02  6.6673E+02  0.0000E+00
462001.E-02  8.0960E+02  0.0000E+00
483001.E-02  1.3811E+03  0.0000E+00
504001.E-02  1.1906E+03  0.0000E+00
525001.E-02  1.6668E+03  0.0000E+00
546001.E-02  1.2858E+03  0.0000E+00
567001.E-02  1.4287E+03  0.0000E+00
588001.E-02  1.6668E+03  0.0000E+00
609001.E-02  2.3812E+03  0.0000E+00
630001.E-02  2.0002E+03  0.0000E+00
651001.E-02  2.0478E+03  0.0000E+00
672001.E-02  3.2384E+03  0.0000E+00
693001.E-02  2.9527E+03  0.0000E+00
714001.E-02  2.9051E+03  0.0000E+00
735001.E-02  3.4289E+03  0.0000E+00
756001.E-02  3.9528E+03  0.0000E+00
777001.E-02  4.6195E+03  0.0000E+00
798001.E-02  5.2862E+03  0.0000E+00
819001.E-02  4.9529E+03  0.0000E+00
840001.E-02  5.7625E+03  0.0000E+00
861001.E-02  5.7625E+03  0.0000E+00
882001.E-02  6.1911E+03  0.0000E+00
903001.E-02  7.0483E+03  0.0000E+00
924001.E-02  7.9532E+03  0.0000E+00
945001.E-02  7.9056E+03  0.0000E+00
966001.E-02  8.9533E+03  0.0000E+00
987001.E-02  9.5248E+03  0.0000E+00
100800.E-01  1.0192E+04  0.0000E+00
102900.E-01  1.1858E+04  0.0000E+00
105000.E-01  1.2954E+04  0.0000E+00
107100.E-01  1.3001E+04  0.0000E+00
109200.E-01  1.2430E+04  0.0000E+00
111300.E-01  1.5764E+04  0.0000E+00
113400.E-01  1.5335E+04  0.0000E+00
115500.E-01  1.7145E+04  0.0000E+00
117600.E-01  1.6526E+04  0.0000E+00
119700.E-01  1.6287E+04  0.0000E+00
121800.E-01  1.8097E+04  0.0000E+00
123900.E-01  1.8526E+04  0.0000E+00
126000.E-01  1.8335E+04  0.0000E+00
128100.E-01  1.7145E+04  0.0000E+00
130200.E-01  1.7097E+04  0.0000E+00
132300.E-01  1.8669E+04  0.0000E+00
134400.E-01  1.5764E+04  0.0000E+00
136500.E-01  1.5954E+04  0.0000E+00
138600.E-01  1.4621E+04  0.0000E+00
140700.E-01  1.3382E+04  0.0000E+00
142800.E-01  1.0763E+04  0.0000E+00
144900.E-01  8.8104E+03  0.0000E+00
147000.E-01  9.1914E+03  0.0000E+00
149100.E-01  6.3816E+03  0.0000E+00
151200.E-01  5.3815E+03  0.0000E+00
153300.E-01  3.3813E+03  0.0000E+00
155400.E-01  2.1431E+03  0.0000E+00
157500.E-01  1.7621E+03  0.0000E+00
159600.E-01  1.4287E+03  0.0000E+00
161700.E-01  3.8099E+02  0.0000E+00
163800.E-01  4.7624E+02  0.0000E+00
165900.E-01  1.4287E+02  0.0000E+00
168000.E-01  1.4287E+02  0.0000E+00
170100.E-01  0.0000E+00  0.0000E+00
172200.E-01  4.7624E+01  0.0000E+00
174300.E-01  0.0000E+00  0.0000E+00
176400.E-01  0.0000E+00  0.0000E+00
178500.E-01  0.0000E+00  0.0000E+00
180600.E-01  0.0000E+00  0.0000E+00
182700.E-01  0.0000E+00  0.0000E+00
184800.E-01  0.0000E+00  0.0000E+00
186900.E-01  0.0000E+00  0.0000E+00
189000.E-01  0.0000E+00  0.0000E+00
191100.E-01  0.0000E+00  0.0000E+00
193200.E-01  0.0000E+00  0.0000E+00
195300.E-01  0.0000E+00  0.0000E+00
197400.E-01  0.0000E+00  0.0000E+00
199500.E-01  0.0000E+00  0.0000E+00
201600.E-01  0.0000E+00  0.0000E+00
203700.E-01  0.0000E+00  0.0000E+00
205800.E-01  0.0000E+00  0.0000E+00
207900.E-01  0.0000E+00  0.0000E+00
210000.E-01  0.0000E+00  0.0000E+00
