====== H (170) into Layer 1                     =======
        SRIM-2013.00
=======================================
    Energy transferred to RECOILS      
 See SRIM Outputs\TDATA.txt for calc. details 
=======================================
--------------------------------------------------------------------
    Recoil/Damage Calculations made with Kinchin-Pease Estimates    
--------------------------------------------------------------------
 See file: SRIM Outputs\TDATA.txt for data about the calculation
 Ion    =  H   Energy = 400 keV
============= TARGET MATERIAL ======================================
Layer  1 : Layer 1
Layer Width = 25500.E+00 AAA ;
  Layer # 1- Density = 6.338E22 atoms/cm3 = 19.35 g/cm3
  Layer # 1-  W = 100  Atomic Percent = 100  Mass Percent
====================================================================
 Total Ions calculated =9999.00
===========================================================
  Table Energy Units are  >>>>  eV /(Angstrom-Ion)  <<<<  
===========================================================
   DEPTH       ENERGY       ENERGY    
   DEPTH        from        Absorbed  
   (Ang.)       IONS        by Recoils
----------   ------------  -----------
255010.E-03  1553.46E-05  1554.04E-05
510010.E-03  1544.49E-05  1546.26E-05
765010.E-03  1469.92E-05  1474.86E-05
102001.E-02  1368.78E-05  1375.01E-05
127501.E-02  1460.49E-05  1470.02E-05
153001.E-02  1563.78E-05  1573.78E-05
178501.E-02  1466.18E-05  1477.48E-05
204001.E-02  1449.79E-05  1455.21E-05
229501.E-02  1403.17E-05  1410.12E-05
255001.E-02  1455.86E-05  1464.69E-05
280501.E-02  1560.93E-05  1570.93E-05
306001.E-02  1611.51E-05  1622.92E-05
331501.E-02  1653.10E-05  1662.16E-05
357001.E-02  1725.13E-05  1737.13E-05
382501.E-02  1792.57E-05  1805.04E-05
408001.E-02  1767.12E-05  1777.95E-05
433501.E-02  1580.71E-05  1592.00E-05
459001.E-02  1696.47E-05  1708.83E-05
484501.E-02  1571.25E-05  1583.48E-05
510001.E-02  1808.60E-05  1821.54E-05
535501.E-02  1563.93E-05  1576.64E-05
561001.E-02  1574.02E-05  1585.79E-05
586501.E-02  1536.56E-05  1549.26E-05
612001.E-02  1564.07E-05  1575.84E-05
637501.E-02  1577.48E-05  1589.72E-05
663001.E-02  1739.74E-05  1752.22E-05
688501.E-02  1967.91E-05  1982.61E-05
714001.E-02  2108.52E-05  2121.23E-05
739501.E-02  2174.36E-05  2188.12E-05
765001.E-02  2269.41E-05  2286.82E-05
790501.E-02  2452.25E-05  2469.43E-05
816001.E-02  2348.79E-05  2365.15E-05
841501.E-02  2324.36E-05  2338.83E-05
867001.E-02  2378.81E-05  2395.64E-05
892501.E-02  2299.79E-05  2316.62E-05
918001.E-02  2359.02E-05  2375.73E-05
943501.E-02  2436.96E-05  2457.31E-05
969001.E-02  2537.06E-05  2556.94E-05
994501.E-02  2786.69E-05  2807.51E-05
102000.E-01  2780.03E-05  2799.45E-05
104550.E-01  2821.92E-05  2843.21E-05
107100.E-01  2854.39E-05  2878.39E-05
109650.E-01  2711.89E-05  2735.66E-05
112200.E-01  3110.78E-05  3134.67E-05
114750.E-01  3211.86E-05  3241.74E-05
117300.E-01  3196.37E-05  3223.54E-05
119850.E-01  3235.71E-05  3263.01E-05
122400.E-01  3265.46E-05  3296.76E-05
124950.E-01  3409.53E-05  3439.53E-05
127500.E-01  3584.55E-05  3617.26E-05
130050.E-01  3602.75E-05  3639.93E-05
132600.E-01  3923.78E-05  3960.61E-05
135150.E-01  4121.35E-05  4164.65E-05
137700.E-01  4372.87E-05  4413.58E-05
140250.E-01  4653.15E-05  4701.39E-05
142800.E-01  4881.10E-05  4931.57E-05
145350.E-01  5404.28E-05  5463.34E-05
147900.E-01  5593.32E-05  5652.62E-05
150450.E-01  5574.65E-05  5635.48E-05
153000.E-01  5853.36E-05  5919.01E-05
155550.E-01  5584.41E-05  5651.71E-05
158100.E-01  5845.88E-05  5914.94E-05
160650.E-01  6187.68E-05  6266.63E-05
163200.E-01  5892.63E-05  5970.29E-05
165750.E-01  6144.53E-05  6227.36E-05
168300.E-01  5837.79E-05  5921.21E-05
170850.E-01  4805.44E-05  4880.38E-05
173400.E-01  4475.95E-05  4543.02E-05
175950.E-01  3968.60E-05  4029.43E-05
178500.E-01  3465.77E-05  3519.30E-05
181050.E-01  2596.00E-05  2642.01E-05
183600.E-01  1998.05E-05  2034.76E-05
186150.E-01  1375.72E-05  1400.89E-05
188700.E-01  1041.46E-05  1060.52E-05
191250.E-01  7129.39E-06  7265.87E-06
193800.E-01  4190.55E-06  4270.56E-06
196350.E-01  2207.15E-06  2254.21E-06
198900.E-01  1182.27E-06  1204.62E-06
201450.E-01  7202.06E-07  7331.48E-07
204000.E-01  1426.49E-07  1473.56E-07
206550.E-01  2795.17E-07  2865.76E-07
209100.E-01  3715.56E-08  3715.56E-08
211650.E-01  0000.00E+00  0000.00E+00
214200.E-01  0000.00E+00  0000.00E+00
216750.E-01  0000.00E+00  0000.00E+00
219300.E-01  0000.00E+00  0000.00E+00
221850.E-01  0000.00E+00  0000.00E+00
224400.E-01  0000.00E+00  0000.00E+00
226950.E-01  0000.00E+00  0000.00E+00
229500.E-01  0000.00E+00  0000.00E+00
232050.E-01  0000.00E+00  0000.00E+00
234600.E-01  0000.00E+00  0000.00E+00
237150.E-01  0000.00E+00  0000.00E+00
239700.E-01  0000.00E+00  0000.00E+00
242250.E-01  0000.00E+00  0000.00E+00
244800.E-01  0000.00E+00  0000.00E+00
247350.E-01  0000.00E+00  0000.00E+00
249900.E-01  0000.00E+00  0000.00E+00
252450.E-01  0000.00E+00  0000.00E+00
255000.E-01  0000.00E+00  0000.00E+00
