====== H (170) into Layer 1                     =======
        SRIM-2013.00
==================================================
      ION and final RECOIL ATOM Distributions     
 See  SRIM Outputs\TDATA.txt for calculation details
==================================================
--------------------------------------------------------------------
    Recoil/Damage Calculations made with Kinchin-Pease Estimates    
--------------------------------------------------------------------
----------------------------------------------------------------
  There are NO RECOILS unless a full TRIM calculation is made.   
----------------------------------------------------------------
See file :  SRIM Outputs\TDATA.txt   for details of calculation
 Ion    =  H   Energy = 400  keV
============= TARGET MATERIAL ======================================
Layer  1 : Layer 1
Layer Width =     3.E+04 A   Layer # 1- Density = 6.338E22 atoms/cm3 = 19.35 g/cm3
  Layer # 1-  W = 100  Atomic Percent = 100  Mass Percent
====================================================================
 Total Ions calculated =9999.00
 Ion Average Range =   165.5E+02 A   Straggling =   236.4E+01 A
 Ion Lateral Range =   281.3E+01 A   Straggling =   357.2E+01 A
 Ion Radial  Range =   442.2E+01 A   Straggling =   245.5E+01 A
====================================================================
 Transmitted Ions =;  Backscattered Ions =24
 (These are not included in Skewne- and Kurtosis below.)

 Range Skewne- = -001.9747  &= [-(X-Rp)^3]/[N*Straggle^3]
 Range Kurtosis = 009.6640  &= [-(X-Rp)^4]/[N*Straggle^4]
 Statistical definitions above are those used in VLSI implant modelling.
====================================================================
=================================================================
  Table Distribution Units are >>>  (Atoms/cm3) / (Atoms/cm2)  <<<  
=================================================================
   DEPTH          H       Recoil     
   (Ang.)       Ions     Distribution
-----------  ----------  ------------
255010.E-03  0.0000E+00  0.0000E+00
510010.E-03  3.9220E+01  0.0000E+00
765010.E-03  3.9220E+01  0.0000E+00
102001.E-02  3.9220E+01  0.0000E+00
127501.E-02  0.0000E+00  0.0000E+00
153001.E-02  0.0000E+00  0.0000E+00
178501.E-02  7.8439E+01  0.0000E+00
204001.E-02  1.1766E+02  0.0000E+00
229501.E-02  2.3532E+02  0.0000E+00
255001.E-02  7.8439E+01  0.0000E+00
280501.E-02  1.5688E+02  0.0000E+00
306001.E-02  7.8439E+01  0.0000E+00
331501.E-02  1.1766E+02  0.0000E+00
357001.E-02  3.9220E+01  0.0000E+00
382501.E-02  7.8439E+01  0.0000E+00
408001.E-02  7.8439E+01  0.0000E+00
433501.E-02  1.9610E+02  0.0000E+00
459001.E-02  1.5688E+02  0.0000E+00
484501.E-02  1.5688E+02  0.0000E+00
510001.E-02  1.1766E+02  0.0000E+00
535501.E-02  1.9610E+02  0.0000E+00
561001.E-02  2.7454E+02  0.0000E+00
586501.E-02  1.9610E+02  0.0000E+00
612001.E-02  2.3532E+02  0.0000E+00
637501.E-02  1.9610E+02  0.0000E+00
663001.E-02  7.8439E+01  0.0000E+00
688501.E-02  3.9220E+02  0.0000E+00
714001.E-02  2.3532E+02  0.0000E+00
739501.E-02  2.7454E+02  0.0000E+00
765001.E-02  1.5688E+02  0.0000E+00
790501.E-02  4.7064E+02  0.0000E+00
816001.E-02  4.3142E+02  0.0000E+00
841501.E-02  3.1376E+02  0.0000E+00
867001.E-02  5.4907E+02  0.0000E+00
892501.E-02  5.0985E+02  0.0000E+00
918001.E-02  4.3142E+02  0.0000E+00
943501.E-02  4.7064E+02  0.0000E+00
969001.E-02  6.2751E+02  0.0000E+00
994501.E-02  7.8439E+02  0.0000E+00
102000.E-01  6.6673E+02  0.0000E+00
104550.E-01  5.8829E+02  0.0000E+00
107100.E-01  9.8049E+02  0.0000E+00
109650.E-01  1.6472E+03  0.0000E+00
112200.E-01  8.2361E+02  0.0000E+00
114750.E-01  1.3335E+03  0.0000E+00
117300.E-01  1.7649E+03  0.0000E+00
119850.E-01  1.2158E+03  0.0000E+00
122400.E-01  1.7649E+03  0.0000E+00
124950.E-01  2.0394E+03  0.0000E+00
127500.E-01  2.6669E+03  0.0000E+00
130050.E-01  2.9023E+03  0.0000E+00
132600.E-01  2.9415E+03  0.0000E+00
135150.E-01  3.5690E+03  0.0000E+00
137700.E-01  3.9220E+03  0.0000E+00
140250.E-01  4.6279E+03  0.0000E+00
142800.E-01  5.9614E+03  0.0000E+00
145350.E-01  7.2948E+03  0.0000E+00
147900.E-01  7.5302E+03  0.0000E+00
150450.E-01  8.2753E+03  0.0000E+00
153000.E-01  1.0354E+04  0.0000E+00
155550.E-01  1.2237E+04  0.0000E+00
158100.E-01  1.2080E+04  0.0000E+00
160650.E-01  1.5806E+04  0.0000E+00
163200.E-01  1.7414E+04  0.0000E+00
165750.E-01  2.0473E+04  0.0000E+00
168300.E-01  1.8982E+04  0.0000E+00
170850.E-01  2.3022E+04  0.0000E+00
173400.E-01  2.4081E+04  0.0000E+00
175950.E-01  2.3924E+04  0.0000E+00
178500.E-01  2.4355E+04  0.0000E+00
181050.E-01  2.3336E+04  0.0000E+00
183600.E-01  2.3100E+04  0.0000E+00
186150.E-01  1.8512E+04  0.0000E+00
188700.E-01  1.5923E+04  0.0000E+00
191250.E-01  1.1766E+04  0.0000E+00
193800.E-01  9.3343E+03  0.0000E+00
196350.E-01  5.6868E+03  0.0000E+00
198900.E-01  4.1965E+03  0.0000E+00
201450.E-01  2.1963E+03  0.0000E+00
204000.E-01  1.5296E+03  0.0000E+00
206550.E-01  1.0197E+03  0.0000E+00
209100.E-01  3.9220E+02  0.0000E+00
211650.E-01  2.7454E+02  0.0000E+00
214200.E-01  7.8439E+01  0.0000E+00
216750.E-01  0.0000E+00  0.0000E+00
219300.E-01  0.0000E+00  0.0000E+00
221850.E-01  0.0000E+00  0.0000E+00
224400.E-01  0.0000E+00  0.0000E+00
226950.E-01  0.0000E+00  0.0000E+00
229500.E-01  0.0000E+00  0.0000E+00
232050.E-01  0.0000E+00  0.0000E+00
234600.E-01  0.0000E+00  0.0000E+00
237150.E-01  0.0000E+00  0.0000E+00
239700.E-01  0.0000E+00  0.0000E+00
242250.E-01  0.0000E+00  0.0000E+00
244800.E-01  0.0000E+00  0.0000E+00
247350.E-01  0.0000E+00  0.0000E+00
249900.E-01  0.0000E+00  0.0000E+00
252450.E-01  0.0000E+00  0.0000E+00
255000.E-01  0.0000E+00  0.0000E+00
