====== He (390) into Layer 1                    =======
        SRIM-2013.00
==========================================
    Ion and Target VACANCY production     
  See SRIM Outputs\TDATA.txt for calc. details
==========================================
--------------------------------------------------------------------
    Recoil/Damage Calculations made with Kinchin-Pease Estimates    
--------------------------------------------------------------------
 See file :  SRIM Outputs\TDATA.txt for calculation data
 Ion    = He   Energy = 630 keV
============= TARGET MATERIAL ======================================
Layer  1 : Layer 1
Layer Width =     2.E+04 A ;
  Layer # 1- Density = 6.338E22 atoms/cm3 = 19.35 g/cm3
  Layer # 1-  W = 100  Atomic Percent = 100  Mass Percent
====================================================================
 Total Ions calculated =9999.00
 Total Target Vacancies     = 27 /Ion

==========================================================
  Table Units are  >>>> Vacancies/(Angstrom-Ion)  <<<<  
==========================================================
   TARGET     VACANCIES     VACANCIES 
   DEPTH         by            by     
   (Ang.)       IONS         RECOILS  
-----------  -----------  ------------
158010.E-03  7785.59E-08  5224.90E-08  
316010.E-03  2278.70E-07  4447.24E-07  
474010.E-03  2310.35E-07  6996.48E-07  
632010.E-03  2291.36E-07  2542.24E-07  
790010.E-03  2614.17E-07  4776.82E-07  
948010.E-03  2785.07E-07  4888.54E-07  
110601.E-02  2759.76E-07  4349.49E-07  
126401.E-02  2968.64E-07  5990.23E-07  
142201.E-02  2835.71E-07  5163.71E-07  
158001.E-02  3240.81E-07  6080.82E-07  
173801.E-02  3082.57E-07  4401.41E-07  
189601.E-02  3259.80E-07  4039.53E-07  
205401.E-02  3266.13E-07  4364.54E-07  
221201.E-02  3164.86E-07  6922.15E-07  
237001.E-02  3494.00E-07  6383.21E-07  
252801.E-02  3468.68E-07  6609.71E-07  
268601.E-02  3702.88E-07  6238.21E-07  
284401.E-02  3911.76E-07  6230.55E-07  
300201.E-02  3753.52E-07  7183.16E-07  
316001.E-02  3873.78E-07  9067.78E-07  
331801.E-02  4342.18E-07  6453.43E-07  
347601.E-02  4380.16E-07  7120.68E-07  
363401.E-02  4259.89E-07  7470.68E-07  
379201.E-02  4759.94E-07  8295.59E-07  
395001.E-02  4715.63E-07  7699.12E-07  
410801.E-02  5139.72E-07  7331.49E-07  
426601.E-02  5614.45E-07  1018.34E-06  
442401.E-02  5956.25E-07  1130.27E-06  
458201.E-02  5576.47E-07  1000.77E-06  
474001.E-02  6475.29E-07  1207.81E-06  
489801.E-02  6893.04E-07  8613.02E-07  
505601.E-02  6810.76E-07  8297.95E-07  
521401.E-02  7386.76E-07  9609.92E-07  
537201.E-02  7582.98E-07  1059.74E-06  
553001.E-02  8013.40E-07  1120.02E-06  
568801.E-02  8652.75E-07  1139.97E-06  
584601.E-02  9013.57E-07  1206.38E-06  
600401.E-02  9722.55E-07  1320.56E-06  
616201.E-02  1067.21E-06  1386.16E-06  
632001.E-02  1092.53E-06  1428.15E-06  
647801.E-02  1137.47E-06  1321.92E-06  
663601.E-02  1259.64E-06  1549.39E-06  
679401.E-02  1317.88E-06  1562.32E-06  
695201.E-02  1453.35E-06  1695.59E-06  
711001.E-02  1540.07E-06  1637.88E-06  
726801.E-02  1686.92E-06  1935.94E-06  
742601.E-02  1828.06E-06  1746.04E-06  
758401.E-02  1864.14E-06  1880.12E-06  
774201.E-02  2123.63E-06  1951.29E-06  
790001.E-02  2241.36E-06  2010.93E-06  
805801.E-02  2360.35E-06  2156.80E-06  
821601.E-02  2429.33E-06  2124.91E-06  
837401.E-02  2549.59E-06  1952.63E-06  
853201.E-02  2798.33E-06  2273.93E-06  
869001.E-02  2889.47E-06  2224.73E-06  
884801.E-02  2964.79E-06  2246.14E-06  
900601.E-02  3047.07E-06  2022.85E-06  
916401.E-02  3193.90E-06  2262.49E-06  
932201.E-02  3259.73E-06  2076.53E-06  
948001.E-02  3193.27E-06  1914.75E-06  
963801.E-02  3201.50E-06  1755.09E-06  
979601.E-02  3080.61E-06  1579.70E-06  
995401.E-02  3045.17E-06  1461.89E-06  
101120.E-01  2912.89E-06  1398.66E-06  
102700.E-01  2697.69E-06  1116.14E-06  
104280.E-01  2427.44E-06  8926.81E-07  
105860.E-01  2046.42E-06  7729.59E-07  
107440.E-01  1818.57E-06  6527.71E-07  
109020.E-01  1428.03E-06  4407.33E-07  
110600.E-01  1100.76E-06  3147.47E-07  
112180.E-01  8532.48E-07  2404.38E-07  
113760.E-01  6342.36E-07  1435.48E-07  
115340.E-01  4399.15E-07  9158.25E-08  
116920.E-01  2753.43E-07  6757.66E-08  
118500.E-01  2152.10E-07  4664.18E-08  
120080.E-01  1088.72E-07  1493.28E-08  
121660.E-01  6203.16E-08  1183.93E-08  
123240.E-01  3734.55E-08  3393.70E-09  
124820.E-01  2658.49E-08  4140.24E-09  
126400.E-01  1962.22E-08  8918.08E-10  
127980.E-01  4430.82E-09  2782.34E-10  
129560.E-01  3797.85E-09  1604.49E-09  
131140.E-01  0000.00E+00  0000.00E+00  
132720.E-01  0000.00E+00  0000.00E+00  
134300.E-01  0000.00E+00  0000.00E+00  
135880.E-01  0000.00E+00  0000.00E+00  
137460.E-01  0000.00E+00  0000.00E+00  
139040.E-01  0000.00E+00  0000.00E+00  
140620.E-01  0000.00E+00  0000.00E+00  
142200.E-01  0000.00E+00  0000.00E+00  
143780.E-01  0000.00E+00  0000.00E+00  
145360.E-01  0000.00E+00  0000.00E+00  
146940.E-01  0000.00E+00  0000.00E+00  
148520.E-01  0000.00E+00  0000.00E+00  
150100.E-01  0000.00E+00  0000.00E+00  
151680.E-01  0000.00E+00  0000.00E+00  
153260.E-01  0000.00E+00  0000.00E+00  
154840.E-01  0000.00E+00  0000.00E+00  
156420.E-01  0000.00E+00  0000.00E+00  
158000.E-01  0000.00E+00  0000.00E+00  

 To convert to Energy Lost - multiply by Average Binding Energy =  3  eV/Vacancy
