====== He (390) into Layer 1                    =======
        SRIM-2013.00
==========================================
    Ion and Target VACANCY production     
  See SRIM Outputs\TDATA.txt for calc. details
==========================================
--------------------------------------------------------------------
    Recoil/Damage Calculations made with Kinchin-Pease Estimates    
--------------------------------------------------------------------
 See file :  SRIM Outputs\TDATA.txt for calculation data
 Ion    = He   Energy = 1100 keV
============= TARGET MATERIAL ======================================
Layer  1 : Layer 1
Layer Width =     2.E+04 A ;
  Layer # 1- Density = 6.338E22 atoms/cm3 = 19.35 g/cm3
  Layer # 1-  W = 100  Atomic Percent = 100  Mass Percent
====================================================================
 Total Ions calculated =9999.00
 Total Target Vacancies     = 30 /Ion

==========================================================
  Table Units are  >>>> Vacancies/(Angstrom-Ion)  <<<<  
==========================================================
   TARGET     VACANCIES     VACANCIES 
   DEPTH         by            by     
   (Ang.)       IONS         RECOILS  
-----------  -----------  ------------
224010.E-03  3527.14E-08  9332.97E-08  
448010.E-03  1174.22E-07  1605.35E-07  
672010.E-03  1348.35E-07  2264.78E-07  
896010.E-03  1326.02E-07  3148.51E-07  
112001.E-02  1544.79E-07  3017.51E-07  
134401.E-02  1589.44E-07  4010.16E-07  
156801.E-02  1625.16E-07  3950.98E-07  
179201.E-02  1665.34E-07  4512.02E-07  
201601.E-02  1727.85E-07  4379.80E-07  
224001.E-02  1901.97E-07  5130.95E-07  
246401.E-02  1879.65E-07  4011.87E-07  
268801.E-02  1741.24E-07  2967.53E-07  
291201.E-02  1718.92E-07  3302.07E-07  
313601.E-02  1808.21E-07  2818.31E-07  
336001.E-02  1991.27E-07  2788.43E-07  
358401.E-02  1879.65E-07  3432.52E-07  
380801.E-02  2129.67E-07  4370.90E-07  
403201.E-02  1968.94E-07  3079.85E-07  
425601.E-02  1951.08E-07  5261.53E-07  
448001.E-02  2214.51E-07  4827.79E-07  
470401.E-02  2102.89E-07  3031.61E-07  
492801.E-02  2357.38E-07  5047.76E-07  
515201.E-02  2464.54E-07  4113.78E-07  
537601.E-02  2477.93E-07  4161.60E-07  
560001.E-02  2268.08E-07  3437.55E-07  
582401.E-02  2335.06E-07  4169.74E-07  
604801.E-02  2884.23E-07  5836.66E-07  
627201.E-02  2629.74E-07  6565.94E-07  
649601.E-02  2839.58E-07  5635.07E-07  
672001.E-02  2835.12E-07  4614.91E-07  
694401.E-02  3138.73E-07  5325.29E-07  
716801.E-02  3210.16E-07  5197.81E-07  
739201.E-02  3125.33E-07  6003.82E-07  
761601.E-02  3384.29E-07  5560.60E-07  
784001.E-02  2986.92E-07  5125.44E-07  
806401.E-02  3500.38E-07  5748.89E-07  
828801.E-02  4031.69E-07  6990.02E-07  
851201.E-02  3719.16E-07  6473.09E-07  
873601.E-02  4013.83E-07  4859.88E-07  
896001.E-02  4326.36E-07  6073.16E-07  
918401.E-02  4647.81E-07  5467.32E-07  
940801.E-02  4772.82E-07  8675.06E-07  
963201.E-02  5134.45E-07  7738.73E-07  
985601.E-02  5429.11E-07  7935.31E-07  
100800.E-01  5545.19E-07  7321.40E-07  
103040.E-01  5397.86E-07  8603.05E-07  
105280.E-01  6040.76E-07  7611.47E-07  
107520.E-01  6639.02E-07  9200.14E-07  
109760.E-01  7223.88E-07  1046.83E-06  
112000.E-01  7442.64E-07  9720.39E-07  
114240.E-01  8304.31E-07  1219.84E-06  
116480.E-01  8411.46E-07  9760.79E-07  
118720.E-01  9416.00E-07  1157.07E-06  
120960.E-01  1064.38E-06  1423.43E-06  
123200.E-01  1213.94E-06  1508.97E-06  
125440.E-01  1233.14E-06  1457.53E-06  
127680.E-01  1379.58E-06  1531.39E-06  
129920.E-01  1588.52E-06  1646.97E-06  
132160.E-01  1647.91E-06  1625.97E-06  
134400.E-01  1834.12E-06  1827.45E-06  
136640.E-01  1978.81E-06  1908.69E-06  
138880.E-01  2136.44E-06  1970.91E-06  
141120.E-01  2313.28E-06  1939.00E-06  
143360.E-01  2571.38E-06  2124.20E-06  
145600.E-01  2779.03E-06  2130.72E-06  
147840.E-01  2943.36E-06  2064.56E-06  
150080.E-01  2983.11E-06  2124.28E-06  
152320.E-01  3057.68E-06  1990.81E-06  
154560.E-01  3015.26E-06  1832.87E-06  
156800.E-01  2938.01E-06  1573.49E-06  
159040.E-01  2832.62E-06  1576.58E-06  
161280.E-01  2629.88E-06  1257.24E-06  
163520.E-01  2387.40E-06  1002.36E-06  
165760.E-01  2038.64E-06  8223.93E-07  
168000.E-01  1636.74E-06  5743.86E-07  
170240.E-01  1197.42E-06  4106.24E-07  
172480.E-01  9183.84E-07  2611.67E-07  
174720.E-01  6357.75E-07  1740.96E-07  
176960.E-01  4107.59E-07  9942.69E-08  
179200.E-01  2290.41E-07  5139.75E-08  
181440.E-01  9331.28E-08  1557.71E-08  
183680.E-01  5357.68E-08  8315.87E-09  
185920.E-01  2500.25E-08  2690.12E-09  
188160.E-01  9822.41E-09  1008.79E-09  
190400.E-01  5357.68E-09  1105.62E-09  
192640.E-01  4464.73E-10  0000.00E+00  
194880.E-01  0000.00E+00  0000.00E+00  
197120.E-01  0000.00E+00  0000.00E+00  
199360.E-01  0000.00E+00  0000.00E+00  
201600.E-01  0000.00E+00  0000.00E+00  
203840.E-01  0000.00E+00  0000.00E+00  
206080.E-01  0000.00E+00  0000.00E+00  
208320.E-01  0000.00E+00  0000.00E+00  
210560.E-01  0000.00E+00  0000.00E+00  
212800.E-01  0000.00E+00  0000.00E+00  
215040.E-01  0000.00E+00  0000.00E+00  
217280.E-01  0000.00E+00  0000.00E+00  
219520.E-01  0000.00E+00  0000.00E+00  
221760.E-01  0000.00E+00  0000.00E+00  
224000.E-01  0000.00E+00  0000.00E+00  

 To convert to Energy Lost - multiply by Average Binding Energy =  3  eV/Vacancy
