====== Ar (10) into Layer 1                     =======
        SRIM-2013.00
==================================================
      ION and final RECOIL ATOM Distributions     
 See  SRIM Outputs\TDATA.txt for calculation details
==================================================
--------------------------------------------------------------------
    Recoil/Damage Calculations made with Kinchin-Pease Estimates    
--------------------------------------------------------------------
----------------------------------------------------------------
  There are NO RECOILS unless a full TRIM calculation is made.   
----------------------------------------------------------------
See file :  SRIM Outputs\TDATA.txt   for details of calculation
 Ion    = Ar   Energy = 50000  keV
============= TARGET MATERIAL ======================================
Layer  1 : Layer 1
Layer Width =     6.E+04 A   Layer # 1- Density = 6.338E22 atoms/cm3 = 19.35 g/cm3
  Layer # 1-  W = 100  Atomic Percent = 100  Mass Percent
====================================================================
 Total Ions calculated =9999.00
 Ion Average Range =   488.8E+02 A   Straggling =   372.0E+01 A
 Ion Lateral Range =   461.0E+01 A   Straggling =   582.1E+01 A
 Ion Radial  Range =   720.3E+01 A   Straggling =   396.1E+01 A
====================================================================
 Transmitted Ions =;  Backscattered Ions =2
 (These are not included in Skewne- and Kurtosis below.)

 Range Skewne- = -002.2636  &= [-(X-Rp)^3]/[N*Straggle^3]
 Range Kurtosis = 013.8383  &= [-(X-Rp)^4]/[N*Straggle^4]
 Statistical definitions above are those used in VLSI implant modelling.
====================================================================
=================================================================
  Table Distribution Units are >>>  (Atoms/cm3) / (Atoms/cm2)  <<<  
=================================================================
   DEPTH         Ar       Recoil     
   (Ang.)       Ions     Distribution
-----------  ----------  ------------
624010.E-03  0.0000E+00  0.0000E+00
124801.E-02  0.0000E+00  0.0000E+00
187201.E-02  0.0000E+00  0.0000E+00
249601.E-02  0.0000E+00  0.0000E+00
312001.E-02  0.0000E+00  0.0000E+00
374401.E-02  0.0000E+00  0.0000E+00
436801.E-02  0.0000E+00  0.0000E+00
499201.E-02  0.0000E+00  0.0000E+00
561601.E-02  0.0000E+00  0.0000E+00
624001.E-02  0.0000E+00  0.0000E+00
686401.E-02  0.0000E+00  0.0000E+00
748801.E-02  0.0000E+00  0.0000E+00
811201.E-02  0.0000E+00  0.0000E+00
873601.E-02  1.6027E+01  0.0000E+00
936001.E-02  0.0000E+00  0.0000E+00
998401.E-02  1.6027E+01  0.0000E+00
106080.E-01  0.0000E+00  0.0000E+00
112320.E-01  0.0000E+00  0.0000E+00
118560.E-01  0.0000E+00  0.0000E+00
124800.E-01  0.0000E+00  0.0000E+00
131040.E-01  0.0000E+00  0.0000E+00
137280.E-01  0.0000E+00  0.0000E+00
143520.E-01  0.0000E+00  0.0000E+00
149760.E-01  0.0000E+00  0.0000E+00
156000.E-01  0.0000E+00  0.0000E+00
162240.E-01  3.2054E+01  0.0000E+00
168480.E-01  1.6027E+01  0.0000E+00
174720.E-01  0.0000E+00  0.0000E+00
180960.E-01  0.0000E+00  0.0000E+00
187200.E-01  3.2054E+01  0.0000E+00
193440.E-01  0.0000E+00  0.0000E+00
199680.E-01  1.6027E+01  0.0000E+00
205920.E-01  1.6027E+01  0.0000E+00
212160.E-01  1.6027E+01  0.0000E+00
218400.E-01  0.0000E+00  0.0000E+00
224640.E-01  1.6027E+01  0.0000E+00
230880.E-01  0.0000E+00  0.0000E+00
237120.E-01  4.8082E+01  0.0000E+00
243360.E-01  0.0000E+00  0.0000E+00
249600.E-01  3.2054E+01  0.0000E+00
255840.E-01  3.2054E+01  0.0000E+00
262080.E-01  1.6027E+01  0.0000E+00
268320.E-01  3.2054E+01  0.0000E+00
274560.E-01  0.0000E+00  0.0000E+00
280800.E-01  3.2054E+01  0.0000E+00
287040.E-01  4.8082E+01  0.0000E+00
293280.E-01  4.8082E+01  0.0000E+00
299520.E-01  3.2054E+01  0.0000E+00
305760.E-01  8.0136E+01  0.0000E+00
312000.E-01  3.2054E+01  0.0000E+00
318240.E-01  1.1219E+02  0.0000E+00
324480.E-01  1.7630E+02  0.0000E+00
330720.E-01  9.6163E+01  0.0000E+00
336960.E-01  8.0136E+01  0.0000E+00
343200.E-01  1.1219E+02  0.0000E+00
349440.E-01  1.7630E+02  0.0000E+00
355680.E-01  3.2054E+02  0.0000E+00
361920.E-01  2.0835E+02  0.0000E+00
368160.E-01  2.4041E+02  0.0000E+00
374400.E-01  2.2438E+02  0.0000E+00
380640.E-01  4.4876E+02  0.0000E+00
386880.E-01  3.5260E+02  0.0000E+00
393120.E-01  5.2890E+02  0.0000E+00
399360.E-01  7.3725E+02  0.0000E+00
405600.E-01  7.3725E+02  0.0000E+00
411840.E-01  6.7314E+02  0.0000E+00
418080.E-01  8.9753E+02  0.0000E+00
424320.E-01  1.3623E+03  0.0000E+00
430560.E-01  1.8431E+03  0.0000E+00
436800.E-01  2.4682E+03  0.0000E+00
443040.E-01  2.7567E+03  0.0000E+00
449280.E-01  3.0772E+03  0.0000E+00
455520.E-01  3.9267E+03  0.0000E+00
461760.E-01  4.5998E+03  0.0000E+00
468000.E-01  5.3852E+03  0.0000E+00
474240.E-01  7.1161E+03  0.0000E+00
480480.E-01  9.7285E+03  0.0000E+00
486720.E-01  1.1379E+04  0.0000E+00
492960.E-01  1.3158E+04  0.0000E+00
499200.E-01  1.3864E+04  0.0000E+00
505440.E-01  1.4825E+04  0.0000E+00
511680.E-01  1.4665E+04  0.0000E+00
517920.E-01  1.4088E+04  0.0000E+00
524160.E-01  1.1972E+04  0.0000E+00
530400.E-01  8.6387E+03  0.0000E+00
536640.E-01  4.9204E+03  0.0000E+00
542880.E-01  2.5644E+03  0.0000E+00
549120.E-01  8.8150E+02  0.0000E+00
555360.E-01  2.2438E+02  0.0000E+00
561600.E-01  4.8082E+01  0.0000E+00
567840.E-01  0.0000E+00  0.0000E+00
574080.E-01  0.0000E+00  0.0000E+00
580320.E-01  0.0000E+00  0.0000E+00
586560.E-01  0.0000E+00  0.0000E+00
592800.E-01  0.0000E+00  0.0000E+00
599040.E-01  0.0000E+00  0.0000E+00
605280.E-01  0.0000E+00  0.0000E+00
611520.E-01  0.0000E+00  0.0000E+00
617760.E-01  0.0000E+00  0.0000E+00
624000.E-01  0.0000E+00  0.0000E+00
