====== O (10) into Layer 1                      =======
        SRIM-2013.00
==========================================
    Ion and Target VACANCY production     
  See SRIM Outputs\TDATA.txt for calc. details
==========================================
--------------------------------------------------------------------
    Recoil/Damage Calculations made with Kinchin-Pease Estimates    
--------------------------------------------------------------------
 See file :  SRIM Outputs\TDATA.txt for calculation data
 Ion    =  O   Energy = 1550 keV
============= TARGET MATERIAL ======================================
Layer  1 : Layer 1
Layer Width =     1.E+04 A ;
  Layer # 1- Density = 6.338E22 atoms/cm3 = 19.35 g/cm3
  Layer # 1-  W = 100  Atomic Percent = 100  Mass Percent
====================================================================
 Total Ions calculated =9999.00
 Total Target Vacancies     = 450 /Ion

==========================================================
  Table Units are  >>>> Vacancies/(Angstrom-Ion)  <<<<  
==========================================================
   TARGET     VACANCIES     VACANCIES 
   DEPTH         by            by     
   (Ang.)       IONS         RECOILS  
-----------  -----------  ------------
142010.E-03  2166.36E-06  9659.05E-06  
284010.E-03  2828.37E-06  1414.19E-05  
426010.E-03  2847.38E-06  1488.34E-05  
568010.E-03  3105.14E-06  1911.54E-05  
710010.E-03  3257.26E-06  1703.52E-05  
852010.E-03  3284.02E-06  1554.00E-05  
994010.E-03  3335.44E-06  1638.40E-05  
113601.E-02  3434.03E-06  1595.88E-05  
127801.E-02  3519.25E-06  1955.99E-05  
142001.E-02  3671.37E-06  2156.12E-05  
156201.E-02  3767.85E-06  1578.45E-05  
170401.E-02  3798.84E-06  1879.68E-05  
184601.E-02  3962.93E-06  1774.90E-05  
198801.E-02  4268.58E-06  1987.76E-05  
213001.E-02  4304.50E-06  1954.52E-05  
227201.E-02  4664.38E-06  2270.61E-05  
241401.E-02  4795.37E-06  2337.96E-05  
255601.E-02  4915.80E-06  2595.60E-05  
269801.E-02  5244.69E-06  2728.73E-05  
284001.E-02  5274.27E-06  2435.72E-05  
298201.E-02  5737.68E-06  2670.68E-05  
312401.E-02  6018.68E-06  3060.94E-05  
326601.E-02  6376.45E-06  3594.25E-05  
340801.E-02  6447.58E-06  3233.30E-05  
355001.E-02  7033.52E-06  3235.43E-05  
369201.E-02  7220.15E-06  3357.25E-05  
383401.E-02  7349.74E-06  3322.04E-05  
397601.E-02  7546.93E-06  3521.98E-05  
411801.E-02  8328.66E-06  3839.17E-05  
426001.E-02  8830.80E-06  4105.15E-05  
440201.E-02  9197.73E-06  4505.43E-05  
454401.E-02  9425.91E-06  4401.02E-05  
468601.E-02  1015.41E-05  5100.37E-05  
482801.E-02  1031.54E-05  4531.54E-05  
497001.E-02  1092.81E-05  4868.70E-05  
511201.E-02  1163.52E-05  5128.09E-05  
525401.E-02  1223.45E-05  5213.53E-05  
539601.E-02  1272.82E-05  5419.05E-05  
553801.E-02  1325.62E-05  5796.04E-05  
568001.E-02  1361.86E-05  5570.91E-05  
582201.E-02  1426.08E-05  6276.04E-05  
596401.E-02  1482.56E-05  6217.12E-05  
610601.E-02  1558.00E-05  6242.96E-05  
624801.E-02  1534.52E-05  6145.60E-05  
639001.E-02  1662.34E-05  6416.92E-05  
653201.E-02  1664.95E-05  6410.84E-05  
667401.E-02  1673.69E-05  6333.57E-05  
681601.E-02  1756.67E-05  6518.58E-05  
695801.E-02  1765.06E-05  6663.11E-05  
710001.E-02  1769.93E-05  6423.62E-05  
724201.E-02  1804.47E-05  6247.31E-05  
738401.E-02  1751.95E-05  6024.98E-05  
752601.E-02  1715.15E-05  5656.99E-05  
766801.E-02  1674.89E-05  5544.04E-05  
781001.E-02  1655.43E-05  5277.09E-05  
795201.E-02  1592.61E-05  5066.83E-05  
809401.E-02  1528.31E-05  4738.56E-05  
823601.E-02  1435.39E-05  4176.15E-05  
837801.E-02  1355.30E-05  3876.22E-05  
852001.E-02  1263.52E-05  3487.68E-05  
866201.E-02  1151.69E-05  3150.03E-05  
880401.E-02  9755.50E-06  2745.62E-05  
894601.E-02  8928.70E-06  2284.86E-05  
908801.E-02  7254.66E-06  1805.32E-05  
923001.E-02  6401.09E-06  1608.31E-05  
937201.E-02  5289.06E-06  1226.46E-05  
951401.E-02  4215.77E-06  8682.91E-06  
965601.E-02  3362.20E-06  6655.42E-06  
979801.E-02  2583.99E-06  5791.49E-06  
994001.E-02  1864.93E-06  3941.53E-06  
100820.E-01  1312.09E-06  2568.49E-06  
102240.E-01  1017.00E-06  1877.96E-06  
103660.E-01  6465.47E-07  1133.34E-06  
105080.E-01  4056.72E-07  7670.56E-07  
106500.E-01  2274.88E-07  4703.82E-07  
107920.E-01  1422.68E-07  2060.71E-07  
109340.E-01  1014.18E-07  9714.13E-08  
110760.E-01  3662.34E-08  7865.21E-08  
112180.E-01  8451.55E-09  4806.39E-09  
113600.E-01  2605.90E-08  4484.55E-08  
115020.E-01  0000.00E+00  0000.00E+00  
116440.E-01  0000.00E+00  0000.00E+00  
117860.E-01  0000.00E+00  0000.00E+00  
119280.E-01  0000.00E+00  0000.00E+00  
120700.E-01  0000.00E+00  0000.00E+00  
122120.E-01  0000.00E+00  0000.00E+00  
123540.E-01  0000.00E+00  0000.00E+00  
124960.E-01  0000.00E+00  0000.00E+00  
126380.E-01  0000.00E+00  0000.00E+00  
127800.E-01  0000.00E+00  0000.00E+00  
129220.E-01  0000.00E+00  0000.00E+00  
130640.E-01  0000.00E+00  0000.00E+00  
132060.E-01  0000.00E+00  0000.00E+00  
133480.E-01  0000.00E+00  0000.00E+00  
134900.E-01  0000.00E+00  0000.00E+00  
136320.E-01  0000.00E+00  0000.00E+00  
137740.E-01  0000.00E+00  0000.00E+00  
139160.E-01  0000.00E+00  0000.00E+00  
140580.E-01  0000.00E+00  0000.00E+00  
142000.E-01  0000.00E+00  0000.00E+00  

 To convert to Energy Lost - multiply by Average Binding Energy =  3  eV/Vacancy
