====== Fe (1500) into Layer 1                   =======
        SRIM-2013.00
==================================================
      ION and final RECOIL ATOM Distributions     
 See  SRIM Outputs\TDATA.txt for calculation details
==================================================
--------------------------------------------------------------------
    Recoil/Damage Calculations made with Kinchin-Pease Estimates    
--------------------------------------------------------------------
----------------------------------------------------------------
  There are NO RECOILS unless a full TRIM calculation is made.   
----------------------------------------------------------------
See file :  SRIM Outputs\TDATA.txt   for details of calculation
 Ion    = Fe   Energy = 2750  keV
============= TARGET MATERIAL ======================================
Layer  1 : Layer 1
Layer Width =     1.E+04 A   Layer # 1- Density = 8.481E22 atoms/cm3 = 7.865 g/cm3
  Layer # 1- Fe = 100  Atomic Percent = 100  Mass Percent
====================================================================
 Total Ions calculated =9999.00
 Ion Average Range =   888.6E+01 A   Straggling =   189.5E+01 A
 Ion Lateral Range =   168.7E+01 A   Straggling =   210.6E+01 A
 Ion Radial  Range =   266.1E+01 A   Straggling =   136.7E+01 A
====================================================================
 Range Skewne- = -000.8011  &= [-(X-Rp)^3]/[N*Straggle^3]
 Range Kurtosis = 003.8797  &= [-(X-Rp)^4]/[N*Straggle^4]
 Statistical definitions above are those used in VLSI implant modelling.
====================================================================
=================================================================
  Table Distribution Units are >>>  (Atoms/cm3) / (Atoms/cm2)  <<<  
=================================================================
   DEPTH         Fe       Recoil     
   (Ang.)       Ions     Distribution
-----------  ----------  ------------
147010.E-03  0.0000E+00  0.0000E+00
294010.E-03  0.0000E+00  0.0000E+00
441010.E-03  0.0000E+00  0.0000E+00
588010.E-03  6.8034E+01  0.0000E+00
735010.E-03  1.3607E+02  0.0000E+00
882010.E-03  0.0000E+00  0.0000E+00
102901.E-02  2.0410E+02  0.0000E+00
117601.E-02  2.0410E+02  0.0000E+00
132301.E-02  2.0410E+02  0.0000E+00
147001.E-02  2.7214E+02  0.0000E+00
161701.E-02  2.7214E+02  0.0000E+00
176401.E-02  1.3607E+02  0.0000E+00
191101.E-02  2.7214E+02  0.0000E+00
205801.E-02  0.0000E+00  0.0000E+00
220501.E-02  5.4427E+02  0.0000E+00
235201.E-02  7.4837E+02  0.0000E+00
249901.E-02  3.4017E+02  0.0000E+00
264601.E-02  6.8034E+02  0.0000E+00
279301.E-02  4.7624E+02  0.0000E+00
294001.E-02  6.1231E+02  0.0000E+00
308701.E-02  7.4837E+02  0.0000E+00
323401.E-02  9.5248E+02  0.0000E+00
338101.E-02  6.8034E+02  0.0000E+00
352801.E-02  1.0205E+03  0.0000E+00
367501.E-02  1.0205E+03  0.0000E+00
382201.E-02  1.0885E+03  0.0000E+00
396901.E-02  1.1566E+03  0.0000E+00
411601.E-02  1.7009E+03  0.0000E+00
426301.E-02  1.4287E+03  0.0000E+00
441001.E-02  2.1771E+03  0.0000E+00
455701.E-02  2.5173E+03  0.0000E+00
470401.E-02  2.3812E+03  0.0000E+00
485101.E-02  2.1771E+03  0.0000E+00
499801.E-02  2.5173E+03  0.0000E+00
514501.E-02  3.1976E+03  0.0000E+00
529201.E-02  3.4697E+03  0.0000E+00
543901.E-02  3.2656E+03  0.0000E+00
558601.E-02  4.0140E+03  0.0000E+00
573301.E-02  3.6058E+03  0.0000E+00
588001.E-02  4.9665E+03  0.0000E+00
602701.E-02  5.3066E+03  0.0000E+00
617401.E-02  5.6468E+03  0.0000E+00
632101.E-02  6.4632E+03  0.0000E+00
646801.E-02  8.2321E+03  0.0000E+00
661501.E-02  6.5993E+03  0.0000E+00
676201.E-02  7.2116E+03  0.0000E+00
690901.E-02  8.4362E+03  0.0000E+00
705601.E-02  9.1846E+03  0.0000E+00
720301.E-02  1.0069E+04  0.0000E+00
735001.E-02  1.0817E+04  0.0000E+00
749701.E-02  1.1770E+04  0.0000E+00
764401.E-02  1.2382E+04  0.0000E+00
779101.E-02  1.3403E+04  0.0000E+00
793801.E-02  1.5580E+04  0.0000E+00
808501.E-02  1.7893E+04  0.0000E+00
823201.E-02  1.8641E+04  0.0000E+00
837901.E-02  1.5716E+04  0.0000E+00
852601.E-02  2.0682E+04  0.0000E+00
867301.E-02  1.8369E+04  0.0000E+00
882001.E-02  1.9934E+04  0.0000E+00
896701.E-02  2.2791E+04  0.0000E+00
911401.E-02  2.3200E+04  0.0000E+00
926101.E-02  2.1363E+04  0.0000E+00
940801.E-02  2.1090E+04  0.0000E+00
955501.E-02  2.3812E+04  0.0000E+00
970201.E-02  2.4152E+04  0.0000E+00
984901.E-02  2.3200E+04  0.0000E+00
999601.E-02  2.3200E+04  0.0000E+00
101430.E-01  2.2111E+04  0.0000E+00
102900.E-01  2.2723E+04  0.0000E+00
104370.E-01  2.0750E+04  0.0000E+00
105840.E-01  1.8981E+04  0.0000E+00
107310.E-01  1.7417E+04  0.0000E+00
108780.E-01  1.7553E+04  0.0000E+00
110250.E-01  1.5920E+04  0.0000E+00
111720.E-01  1.2450E+04  0.0000E+00
113190.E-01  1.1634E+04  0.0000E+00
114660.E-01  9.7969E+03  0.0000E+00
116130.E-01  8.3682E+03  0.0000E+00
117600.E-01  6.7354E+03  0.0000E+00
119070.E-01  5.9870E+03  0.0000E+00
120540.E-01  4.0820E+03  0.0000E+00
122010.E-01  2.7214E+03  0.0000E+00
123480.E-01  2.3132E+03  0.0000E+00
124950.E-01  2.5853E+03  0.0000E+00
126420.E-01  1.2926E+03  0.0000E+00
127890.E-01  1.2246E+03  0.0000E+00
129360.E-01  5.4427E+02  0.0000E+00
130830.E-01  6.8034E+01  0.0000E+00
132300.E-01  3.4017E+02  0.0000E+00
133770.E-01  2.0410E+02  0.0000E+00
135240.E-01  6.8034E+01  0.0000E+00
136710.E-01  0.0000E+00  0.0000E+00
138180.E-01  0.0000E+00  0.0000E+00
139650.E-01  0.0000E+00  0.0000E+00
141120.E-01  0.0000E+00  0.0000E+00
142590.E-01  0.0000E+00  0.0000E+00
144060.E-01  0.0000E+00  0.0000E+00
145530.E-01  0.0000E+00  0.0000E+00
147000.E-01  0.0000E+00  0.0000E+00
