====== Li (10) into Layer 1                     =======
        SRIM-2013.00
==========================================
    Ion and Target VACANCY production     
  See SRIM Outputs\TDATA.txt for calc. details
==========================================
--------------------------------------------------------------------
    Recoil/Damage Calculations made with Kinchin-Pease Estimates    
--------------------------------------------------------------------
 See file :  SRIM Outputs\TDATA.txt for calculation data
 Ion    = Li   Energy = 475 keV
============= TARGET MATERIAL ======================================
Layer  1 : Layer 1
Layer Width =     1.E+04 A ;
  Layer # 1- Density = 8.481E22 atoms/cm3 = 7.865 g/cm3
  Layer # 1- Fe = 100  Atomic Percent = 100  Mass Percent
====================================================================
 Total Ions calculated =9999.00
 Total Target Vacancies     = 197 /Ion

==========================================================
  Table Units are  >>>> Vacancies/(Angstrom-Ion)  <<<<  
==========================================================
   TARGET     VACANCIES     VACANCIES 
   DEPTH         by            by     
   (Ang.)       IONS         RECOILS  
-----------  -----------  ------------
129070.E-03  6183.74E-07  1197.15E-06  
258130.E-03  1106.57E-06  4010.29E-06  
387190.E-03  1271.64E-06  3934.29E-06  
516250.E-03  1298.76E-06  5238.93E-06  
645310.E-03  1281.71E-06  3479.66E-06  
774370.E-03  1359.20E-06  4492.23E-06  
903430.E-03  1373.15E-06  3381.22E-06  
103249.E-02  1379.35E-06  5639.87E-06  
116155.E-02  1441.35E-06  4088.89E-06  
129061.E-02  1537.44E-06  4380.30E-06  
141967.E-02  1629.65E-06  4688.38E-06  
154873.E-02  1560.69E-06  4029.21E-06  
167779.E-02  1605.63E-06  6558.41E-06  
180685.E-02  1647.47E-06  5200.12E-06  
193591.E-02  1701.71E-06  5205.64E-06  
206497.E-02  1777.65E-06  4697.49E-06  
219403.E-02  1766.80E-06  4758.31E-06  
232309.E-02  1834.21E-06  6507.48E-06  
245215.E-02  1872.95E-06  5715.99E-06  
258121.E-02  1886.90E-06  6699.58E-06  
271027.E-02  2023.27E-06  8956.41E-06  
283933.E-02  2026.37E-06  6039.16E-06  
296839.E-02  2130.20E-06  5925.35E-06  
309745.E-02  2141.82E-06  6789.70E-06  
322651.E-02  2235.58E-06  7291.69E-06  
335557.E-02  2382.03E-06  7388.74E-06  
348463.E-02  2408.37E-06  8801.74E-06  
361369.E-02  2548.62E-06  8335.00E-06  
374275.E-02  2570.31E-06  7784.86E-06  
387181.E-02  2573.41E-06  9065.83E-06  
400087.E-02  2735.35E-06  9656.61E-06  
412993.E-02  2937.59E-06  1011.21E-05  
425899.E-02  3070.09E-06  9573.20E-06  
438805.E-02  3209.56E-06  9079.65E-06  
451711.E-02  3420.31E-06  1060.16E-05  
464617.E-02  3409.47E-06  9096.58E-06  
477523.E-02  3546.61E-06  1078.58E-05  
490429.E-02  3858.10E-06  1103.11E-05  
503335.E-02  3982.85E-06  1133.37E-05  
516241.E-02  4216.08E-06  1060.36E-05  
529147.E-02  4494.25E-06  1458.39E-05  
542053.E-02  4526.01E-06  1299.78E-05  
554959.E-02  4989.37E-06  1423.06E-05  
567865.E-02  5355.10E-06  1475.13E-05  
580771.E-02  5717.72E-06  1493.07E-05  
593677.E-02  6012.16E-06  1619.18E-05  
606583.E-02  6153.18E-06  1832.30E-05  
619489.E-02  6664.71E-06  1903.34E-05  
632395.E-02  7049.22E-06  1945.74E-05  
645301.E-02  7588.00E-06  2036.17E-05  
658207.E-02  8181.82E-06  2078.01E-05  
671113.E-02  8730.68E-06  2327.93E-05  
684019.E-02  9275.66E-06  2298.74E-05  
696925.E-02  1012.30E-05  2440.90E-05  
709831.E-02  1060.83E-05  2514.05E-05  
722737.E-02  1155.95E-05  2765.00E-05  
735643.E-02  1212.93E-05  2918.80E-05  
748549.E-02  1230.83E-05  2990.35E-05  
761455.E-02  1246.34E-05  2897.48E-05  
774361.E-02  1394.64E-05  3183.44E-05  
787267.E-02  1430.61E-05  3177.14E-05  
800173.E-02  1470.30E-05  3169.18E-05  
813079.E-02  1481.77E-05  3044.18E-05  
825985.E-02  1459.60E-05  2954.44E-05  
838891.E-02  1471.54E-05  2917.54E-05  
851797.E-02  1429.99E-05  2748.85E-05  
864703.E-02  1459.68E-05  2687.91E-05  
877609.E-02  1414.25E-05  2674.48E-05  
890515.E-02  1351.69E-05  2410.95E-05  
903421.E-02  1240.60E-05  2000.82E-05  
916327.E-02  1146.49E-05  1816.12E-05  
929233.E-02  9834.60E-06  1556.98E-05  
942139.E-02  8799.68E-06  1308.14E-05  
955045.E-02  7096.51E-06  1038.39E-05  
967951.E-02  5993.57E-06  8307.52E-06  
980857.E-02  4811.93E-06  6893.15E-06  
993763.E-02  3693.83E-06  4724.89E-06  
100667.E-01  2860.88E-06  3775.34E-06  
101958.E-01  2009.33E-06  2346.71E-06  
103248.E-01  1439.80E-06  1612.44E-06  
104539.E-01  9190.39E-07  1149.88E-06  
105829.E-01  5579.33E-07  6610.42E-07  
107120.E-01  4300.76E-07  4729.84E-07  
108411.E-01  2611.45E-07  3387.88E-07  
109701.E-01  1697.06E-07  2100.58E-07  
110992.E-01  7516.63E-08  8484.94E-08  
112282.E-01  5734.34E-08  7172.12E-08  
113573.E-01  3099.64E-08  2273.87E-08  
114863.E-01  1627.31E-08  2080.97E-08  
116154.E-01  7749.11E-09  1045.01E-09  
117445.E-01  7749.11E-09  4038.45E-09  
118735.E-01  0000.00E+00  0000.00E+00  
120026.E-01  0000.00E+00  0000.00E+00  
121316.E-01  0000.00E+00  0000.00E+00  
122607.E-01  0000.00E+00  0000.00E+00  
123898.E-01  0000.00E+00  0000.00E+00  
125188.E-01  0000.00E+00  0000.00E+00  
126479.E-01  0000.00E+00  0000.00E+00  
127769.E-01  0000.00E+00  0000.00E+00  
129060.E-01  0000.00E+00  0000.00E+00  

 To convert to Energy Lost - multiply by Average Binding Energy =  3  eV/Vacancy
