====== Li (10) into Layer 1                     =======
        SRIM-2013.00
==================================================
      ION and final RECOIL ATOM Distributions     
 See  SRIM Outputs\TDATA.txt for calculation details
==================================================
--------------------------------------------------------------------
    Recoil/Damage Calculations made with Kinchin-Pease Estimates    
--------------------------------------------------------------------
----------------------------------------------------------------
  There are NO RECOILS unless a full TRIM calculation is made.   
----------------------------------------------------------------
See file :  SRIM Outputs\TDATA.txt   for details of calculation
 Ion    = Li   Energy = 930  keV
============= TARGET MATERIAL ======================================
Layer  1 : Layer 1
Layer Width =     2.E+04 A   Layer # 1- Density = 6.338E22 atoms/cm3 = 19.35 g/cm3
  Layer # 1-  W = 100  Atomic Percent = 100  Mass Percent
====================================================================
 Total Ions calculated =9999.00
 Ion Average Range =   108.7E+02 A   Straggling =   236.8E+01 A
 Ion Lateral Range =   261.5E+01 A   Straggling =   325.0E+01 A
 Ion Radial  Range =   411.6E+01 A   Straggling =   204.3E+01 A
====================================================================
 Transmitted Ions =;  Backscattered Ions =44
 (These are not included in Skewne- and Kurtosis below.)

 Range Skewne- = -001.0080  &= [-(X-Rp)^3]/[N*Straggle^3]
 Range Kurtosis = 004.3611  &= [-(X-Rp)^4]/[N*Straggle^4]
 Statistical definitions above are those used in VLSI implant modelling.
====================================================================
=================================================================
  Table Distribution Units are >>>  (Atoms/cm3) / (Atoms/cm2)  <<<  
=================================================================
   DEPTH         Li       Recoil     
   (Ang.)       Ions     Distribution
-----------  ----------  ------------
205010.E-03  4.8785E+01  0.0000E+00
410010.E-03  4.8785E+01  0.0000E+00
615010.E-03  4.8785E+01  0.0000E+00
820010.E-03  1.4636E+02  0.0000E+00
102501.E-02  9.7571E+01  0.0000E+00
123001.E-02  1.9514E+02  0.0000E+00
143501.E-02  2.4393E+02  0.0000E+00
164001.E-02  4.8785E+02  0.0000E+00
184501.E-02  3.9028E+02  0.0000E+00
205001.E-02  4.8785E+02  0.0000E+00
225501.E-02  2.9271E+02  0.0000E+00
246001.E-02  3.4150E+02  0.0000E+00
266501.E-02  3.4150E+02  0.0000E+00
287001.E-02  6.8300E+02  0.0000E+00
307501.E-02  4.3907E+02  0.0000E+00
328001.E-02  4.8785E+02  0.0000E+00
348501.E-02  4.3907E+02  0.0000E+00
369001.E-02  4.8785E+02  0.0000E+00
389501.E-02  5.3664E+02  0.0000E+00
410001.E-02  1.0733E+03  0.0000E+00
430501.E-02  8.2935E+02  0.0000E+00
451001.E-02  1.0245E+03  0.0000E+00
471501.E-02  6.3421E+02  0.0000E+00
492001.E-02  1.5123E+03  0.0000E+00
512501.E-02  1.2196E+03  0.0000E+00
533001.E-02  1.3172E+03  0.0000E+00
553501.E-02  1.7075E+03  0.0000E+00
574001.E-02  2.1466E+03  0.0000E+00
594501.E-02  1.8538E+03  0.0000E+00
615001.E-02  2.4393E+03  0.0000E+00
635501.E-02  2.7320E+03  0.0000E+00
656001.E-02  2.8783E+03  0.0000E+00
676501.E-02  2.9271E+03  0.0000E+00
697001.E-02  3.0247E+03  0.0000E+00
717501.E-02  3.5125E+03  0.0000E+00
738001.E-02  3.5613E+03  0.0000E+00
758501.E-02  4.3419E+03  0.0000E+00
779001.E-02  4.6346E+03  0.0000E+00
799501.E-02  5.5615E+03  0.0000E+00
820001.E-02  5.8542E+03  0.0000E+00
840501.E-02  6.4884E+03  0.0000E+00
861001.E-02  8.7326E+03  0.0000E+00
881501.E-02  7.5617E+03  0.0000E+00
902001.E-02  8.6350E+03  0.0000E+00
922501.E-02  1.0440E+04  0.0000E+00
943001.E-02  9.1716E+03  0.0000E+00
963501.E-02  1.0391E+04  0.0000E+00
984001.E-02  1.2050E+04  0.0000E+00
100450.E-01  1.3026E+04  0.0000E+00
102500.E-01  1.2733E+04  0.0000E+00
104550.E-01  1.3855E+04  0.0000E+00
106600.E-01  1.6343E+04  0.0000E+00
108650.E-01  1.6050E+04  0.0000E+00
110700.E-01  1.6343E+04  0.0000E+00
112750.E-01  1.8051E+04  0.0000E+00
114800.E-01  2.0490E+04  0.0000E+00
116850.E-01  1.9563E+04  0.0000E+00
118900.E-01  1.9319E+04  0.0000E+00
120950.E-01  2.0392E+04  0.0000E+00
123000.E-01  2.0197E+04  0.0000E+00
125050.E-01  1.8880E+04  0.0000E+00
127100.E-01  1.7758E+04  0.0000E+00
129150.E-01  1.7855E+04  0.0000E+00
131200.E-01  1.7612E+04  0.0000E+00
133250.E-01  1.5221E+04  0.0000E+00
135300.E-01  1.2733E+04  0.0000E+00
137350.E-01  1.0489E+04  0.0000E+00
139400.E-01  8.6350E+03  0.0000E+00
141450.E-01  6.5860E+03  0.0000E+00
143500.E-01  6.0494E+03  0.0000E+00
145550.E-01  4.2443E+03  0.0000E+00
147600.E-01  3.3174E+03  0.0000E+00
149650.E-01  1.9514E+03  0.0000E+00
151700.E-01  1.4636E+03  0.0000E+00
153750.E-01  1.1708E+03  0.0000E+00
155800.E-01  4.8785E+02  0.0000E+00
157850.E-01  1.9514E+02  0.0000E+00
159900.E-01  1.4636E+02  0.0000E+00
161950.E-01  0.0000E+00  0.0000E+00
164000.E-01  0.0000E+00  0.0000E+00
166050.E-01  0.0000E+00  0.0000E+00
168100.E-01  0.0000E+00  0.0000E+00
170150.E-01  0.0000E+00  0.0000E+00
172200.E-01  0.0000E+00  0.0000E+00
174250.E-01  0.0000E+00  0.0000E+00
176300.E-01  0.0000E+00  0.0000E+00
178350.E-01  0.0000E+00  0.0000E+00
180400.E-01  0.0000E+00  0.0000E+00
182450.E-01  0.0000E+00  0.0000E+00
184500.E-01  0.0000E+00  0.0000E+00
186550.E-01  0.0000E+00  0.0000E+00
188600.E-01  0.0000E+00  0.0000E+00
190650.E-01  0.0000E+00  0.0000E+00
192700.E-01  0.0000E+00  0.0000E+00
194750.E-01  0.0000E+00  0.0000E+00
196800.E-01  0.0000E+00  0.0000E+00
198850.E-01  0.0000E+00  0.0000E+00
200900.E-01  0.0000E+00  0.0000E+00
202950.E-01  0.0000E+00  0.0000E+00
205000.E-01  0.0000E+00  0.0000E+00
