====== Li (10) into Layer 1                     =======
        SRIM-2013.00
==========================================
    Ion and Target VACANCY production     
  See SRIM Outputs\TDATA.txt for calc. details
==========================================
--------------------------------------------------------------------
    Recoil/Damage Calculations made with Kinchin-Pease Estimates    
--------------------------------------------------------------------
 See file :  SRIM Outputs\TDATA.txt for calculation data
 Ion    = Li   Energy = 930 keV
============= TARGET MATERIAL ======================================
Layer  1 : Layer 1
Layer Width =     2.E+04 A ;
  Layer # 1- Density = 6.338E22 atoms/cm3 = 19.35 g/cm3
  Layer # 1-  W = 100  Atomic Percent = 100  Mass Percent
====================================================================
 Total Ions calculated =9999.00
 Total Target Vacancies     = 101 /Ion

==========================================================
  Table Units are  >>>> Vacancies/(Angstrom-Ion)  <<<<  
==========================================================
   TARGET     VACANCIES     VACANCIES 
   DEPTH         by            by     
   (Ang.)       IONS         RECOILS  
-----------  -----------  ------------
205010.E-03  3634.51E-07  7656.23E-07  
410010.E-03  4600.46E-07  8700.18E-07  
615010.E-03  5790.82E-07  1551.42E-06  
820010.E-03  5903.02E-07  1824.44E-06  
102501.E-02  6512.84E-07  1424.89E-06  
123001.E-02  6620.17E-07  1507.40E-06  
143501.E-02  6488.45E-07  1806.70E-06  
164001.E-02  7108.02E-07  1438.09E-06  
184501.E-02  7317.80E-07  1627.92E-06  
205001.E-02  7781.26E-07  1895.62E-06  
225501.E-02  7483.67E-07  1851.61E-06  
246001.E-02  7844.68E-07  1801.37E-06  
266501.E-02  8478.89E-07  1937.73E-06  
287001.E-02  8883.81E-07  2213.55E-06  
307501.E-02  8552.07E-07  1791.20E-06  
328001.E-02  9108.22E-07  2193.98E-06  
348501.E-02  9444.84E-07  2151.71E-06  
369001.E-02  9791.22E-07  2562.43E-06  
389501.E-02  1004.00E-06  2514.29E-06  
410001.E-02  1125.48E-06  2509.20E-06  
430501.E-02  1173.29E-06  2574.79E-06  
451001.E-02  1164.99E-06  2681.12E-06  
471501.E-02  1251.34E-06  2649.49E-06  
492001.E-02  1303.54E-06  2899.10E-06  
512501.E-02  1356.23E-06  2786.90E-06  
533001.E-02  1440.14E-06  3433.40E-06  
553501.E-02  1449.41E-06  3063.26E-06  
574001.E-02  1575.28E-06  3020.71E-06  
594501.E-02  1636.75E-06  3742.55E-06  
615001.E-02  1847.06E-06  3242.13E-06  
635501.E-02  1942.70E-06  3524.77E-06  
656001.E-02  2014.91E-06  3879.32E-06  
676501.E-02  2132.51E-06  3926.08E-06  
697001.E-02  2245.23E-06  4667.07E-06  
717501.E-02  2482.37E-06  4672.02E-06  
738001.E-02  2550.19E-06  4769.69E-06  
758501.E-02  2798.56E-06  5077.94E-06  
779001.E-02  3039.61E-06  5269.18E-06  
799501.E-02  3220.64E-06  5885.75E-06  
820001.E-02  3420.70E-06  5789.68E-06  
840501.E-02  3822.76E-06  6495.12E-06  
861001.E-02  4033.56E-06  6764.00E-06  
881501.E-02  4260.45E-06  6987.49E-06  
902001.E-02  4421.97E-06  7172.40E-06  
922501.E-02  4703.51E-06  7291.27E-06  
943001.E-02  4859.65E-06  7925.73E-06  
963501.E-02  5084.11E-06  8047.59E-06  
984001.E-02  5554.49E-06  8016.98E-06  
100450.E-01  5558.88E-06  7772.71E-06  
102500.E-01  5677.94E-06  8418.02E-06  
104550.E-01  5915.58E-06  8300.57E-06  
106600.E-01  6248.36E-06  8676.39E-06  
108650.E-01  6290.81E-06  8075.38E-06  
110700.E-01  6418.15E-06  7896.32E-06  
112750.E-01  6400.60E-06  7747.79E-06  
114800.E-01  6538.09E-06  7431.53E-06  
116850.E-01  6387.91E-06  7204.88E-06  
118900.E-01  6234.69E-06  6718.11E-06  
120950.E-01  6116.12E-06  6349.09E-06  
123000.E-01  5939.97E-06  6061.91E-06  
125050.E-01  5507.65E-06  5389.06E-06  
127100.E-01  4918.70E-06  4805.99E-06  
129150.E-01  4607.87E-06  4113.78E-06  
131200.E-01  4138.47E-06  3626.28E-06  
133250.E-01  3373.36E-06  2665.38E-06  
135300.E-01  2810.27E-06  2129.49E-06  
137350.E-01  2128.12E-06  1552.06E-06  
139400.E-01  1705.56E-06  1135.55E-06  
141450.E-01  1339.16E-06  9123.98E-07  
143500.E-01  1052.30E-06  7112.46E-07  
145550.E-01  6449.42E-07  3604.53E-07  
147600.E-01  4556.55E-07  2548.59E-07  
149650.E-01  3224.71E-07  1724.81E-07  
151700.E-01  2170.95E-07  1104.99E-07  
153750.E-01  1566.01E-07  6145.10E-08  
155800.E-01  6293.31E-08  3994.41E-08  
157850.E-01  1414.78E-08  1061.61E-08  
159900.E-01  1024.49E-08  2743.00E-09  
161950.E-01  1463.56E-09  0000.00E+00  
164000.E-01  0000.00E+00  0000.00E+00  
166050.E-01  0000.00E+00  0000.00E+00  
168100.E-01  0000.00E+00  0000.00E+00  
170150.E-01  0000.00E+00  0000.00E+00  
172200.E-01  0000.00E+00  0000.00E+00  
174250.E-01  0000.00E+00  0000.00E+00  
176300.E-01  0000.00E+00  0000.00E+00  
178350.E-01  0000.00E+00  0000.00E+00  
180400.E-01  0000.00E+00  0000.00E+00  
182450.E-01  0000.00E+00  0000.00E+00  
184500.E-01  0000.00E+00  0000.00E+00  
186550.E-01  0000.00E+00  0000.00E+00  
188600.E-01  0000.00E+00  0000.00E+00  
190650.E-01  0000.00E+00  0000.00E+00  
192700.E-01  0000.00E+00  0000.00E+00  
194750.E-01  0000.00E+00  0000.00E+00  
196800.E-01  0000.00E+00  0000.00E+00  
198850.E-01  0000.00E+00  0000.00E+00  
200900.E-01  0000.00E+00  0000.00E+00  
202950.E-01  0000.00E+00  0000.00E+00  
205000.E-01  0000.00E+00  0000.00E+00  

 To convert to Energy Lost - multiply by Average Binding Energy =  3  eV/Vacancy
